%!PS-Adobe-3.0 EPSF-3.0
%%For: bperera
%%Title: PGPLOT PostScript plot
%%Creator: PGPLOT [PSDRIV 6.6]
%%CreationDate: 26-May-2016 15:07
%%BoundingBox: (atend)
%%DocumentFonts: (atend)
%%LanguageLevel: 1
%%Orientation: Landscape
%%Pages: (atend)
%%EndComments
%%BeginProlog
/L {moveto rlineto currentpoint stroke moveto} bind def
/C {rlineto currentpoint stroke moveto} bind def
/D {moveto 0 0 rlineto currentpoint stroke moveto} bind def
/LW {5 mul setlinewidth} bind def
/BP {newpath moveto} bind def
/LP /rlineto load def
/EP {rlineto closepath eofill} bind def
/MB {gsave translate MFAC dup scale 1 setlinewidth 2 setlinecap 0 setlinejoin newpath} bind def
/ME /grestore load def
/CC {0 360 arc stroke} bind def
/FC {0 360 arc fill} bind def
/G {1024 div setgray} bind def
/K {3 -1 roll 1024 div 3 -1 roll 1024 div 3 -1 roll 1024 div setrgbcolor} bind def
% Uncomment next line to convert color to grey shades
%/K {3 -1 roll 3413 div 3 -1 roll 1739 div 3 -1 roll 9309 div add add setgray} bind def
%%EndProlog
%%BeginSetup
/#copies 1 def
%%EndSetup
 
%%Page: 1 1
%%BeginPageSetup
/PGPLOT save def
0.072 0.072 scale
8149 250 translate 90 rotate
1 setlinejoin 1 setlinecap 1 LW 1
%%EndPageSetup
%%PageBoundingBox: (atend)
1024 1024 1024 K 1 LW 0 0 BP 9749 0 LP 0 7799 LP -9749 0 EP 0 0 0 K
8286 0 975 1170 L -8286 0 9261 6629 L 0 -5459 C 0 45 1266 1170 L 0 45 1563 1170 L 0 45 1859 1170 L 0 90 2155 1170 L 0 45 2451 1170 L
0 45 2748 1170 L 0 45 3044 1170 L 0 45 3340 1170 L 0 90 3637 1170 L 0 45 3933 1170 L 0 45 4229 1170 L 0 45 4526 1170 L
0 45 4822 1170 L 0 90 5118 1170 L 0 45 5414 1170 L 0 45 5711 1170 L 0 45 6007 1170 L 0 45 6303 1170 L 0 90 6600 1170 L
0 45 6896 1170 L 0 45 7192 1170 L 0 45 7488 1170 L 0 45 7785 1170 L 0 90 8081 1170 L 0 45 8377 1170 L 0 45 8674 1170 L
0 45 8970 1170 L 0 45 1266 6584 L 0 45 1563 6584 L 0 45 1859 6584 L 0 90 2155 6539 L 0 45 2451 6584 L 0 45 2748 6584 L
0 45 3044 6584 L 0 45 3340 6584 L 0 90 3637 6539 L 0 45 3933 6584 L 0 45 4229 6584 L 0 45 4526 6584 L 0 45 4822 6584 L
0 90 5118 6539 L 0 45 5414 6584 L 0 45 5711 6584 L 0 45 6007 6584 L 0 45 6303 6584 L 0 90 6600 6539 L 0 45 6896 6584 L
0 45 7192 6584 L 0 45 7488 6584 L 0 45 7785 6584 L 0 90 8081 6539 L 0 45 8377 6584 L 0 45 8674 6584 L 0 45 8970 6584 L
108 0 1861 990 L 0 6 2017 1032 L 6 12 C 6 6 C 12 6 C 24 0 C 12 -6 C 6 -6 C 6 -12 C 0 -12 C -6 -12 C -12 -18 C -60 -60 C 84 0 C
-18 -6 2167 1062 L -12 -18 C -6 -30 C 0 -18 C 6 -30 C 12 -18 C 18 -6 C 12 0 C 18 6 C 12 18 C 6 30 C 0 18 C -6 30 C -12 18 C -18 6 C
-12 0 C -18 -6 2287 1062 L -12 -18 C -6 -30 C 0 -18 C 6 -30 C 12 -18 C 18 -6 C 12 0 C 18 6 C 12 18 C 6 30 C 0 18 C -6 30 C -12 18 C
-18 6 C -12 0 C -18 -6 2407 1062 L -12 -18 C -6 -30 C 0 -18 C 6 -30 C 12 -18 C 18 -6 C 12 0 C 18 6 C 12 18 C 6 30 C 0 18 C -6 30 C
-12 18 C -18 6 C -12 0 C 108 0 3343 990 L 12 6 3511 1038 L 18 18 C 0 -126 C -18 -6 3649 1062 L -12 -18 C -6 -30 C 0 -18 C 6 -30 C
12 -18 C 18 -6 C 12 0 C 18 6 C 12 18 C 6 30 C 0 18 C -6 30 C -12 18 C -18 6 C -12 0 C -18 -6 3769 1062 L -12 -18 C -6 -30 C 0 -18 C
6 -30 C 12 -18 C 18 -6 C 12 0 C 18 6 C 12 18 C 6 30 C 0 18 C -6 30 C -12 18 C -18 6 C -12 0 C -18 -6 3889 1062 L -12 -18 C -6 -30 C
0 -18 C 6 -30 C 12 -18 C 18 -6 C 12 0 C 18 6 C 12 18 C 6 30 C 0 18 C -6 30 C -12 18 C -18 6 C -12 0 C -18 -6 5112 1062 L -12 -18 C
-6 -30 C 0 -18 C 6 -30 C 12 -18 C 18 -6 C 12 0 C 18 6 C 12 18 C 6 30 C 0 18 C -6 30 C -12 18 C -18 6 C -12 0 C 12 6 6396 1038 L
18 18 C 0 -126 C -18 -6 6534 1062 L -12 -18 C -6 -30 C 0 -18 C 6 -30 C 12 -18 C 18 -6 C 12 0 C 18 6 C 12 18 C 6 30 C 0 18 C -6 30 C
-12 18 C -18 6 C -12 0 C -18 -6 6654 1062 L -12 -18 C -6 -30 C 0 -18 C 6 -30 C 12 -18 C 18 -6 C 12 0 C 18 6 C 12 18 C 6 30 C 0 18 C
-6 30 C -12 18 C -18 6 C -12 0 C -18 -6 6774 1062 L -12 -18 C -6 -30 C 0 -18 C 6 -30 C 12 -18 C 18 -6 C 12 0 C 18 6 C 12 18 C 6 30 C
0 18 C -6 30 C -12 18 C -18 6 C -12 0 C 0 6 7865 1032 L 6 12 C 6 6 C 12 6 C 24 0 C 12 -6 C 6 -6 C 6 -12 C 0 -12 C -6 -12 C -12 -18 C
-60 -60 C 84 0 C -18 -6 8015 1062 L -12 -18 C -6 -30 C 0 -18 C 6 -30 C 12 -18 C 18 -6 C 12 0 C 18 6 C 12 18 C 6 30 C 0 18 C -6 30 C
-12 18 C -18 6 C -12 0 C -18 -6 8135 1062 L -12 -18 C -6 -30 C 0 -18 C 6 -30 C 12 -18 C 18 -6 C 12 0 C 18 6 C 12 18 C 6 30 C 0 18 C
-6 30 C -12 18 C -18 6 C -12 0 C -18 -6 8255 1062 L -12 -18 C -6 -30 C 0 -18 C 6 -30 C 12 -18 C 18 -6 C 12 0 C 18 6 C 12 18 C 6 30 C
0 18 C -6 30 C -12 18 C -18 6 C -12 0 C 45 0 975 1521 L 90 0 975 1900 L 45 0 975 2279 L 45 0 975 2658 L 45 0 975 3037 L
45 0 975 3416 L 90 0 975 3795 L 45 0 975 4174 L 45 0 975 4553 L 45 0 975 4932 L 45 0 975 5311 L 90 0 975 5690 L 45 0 975 6069 L
45 0 975 6448 L 0 108 784 1643 L -6 12 736 1811 L -18 18 C 126 0 C 6 -18 712 1949 L 18 -12 C 30 -6 C 18 0 C 30 6 C 18 12 C 6 18 C
0 12 C -6 18 C -18 12 C -30 6 C -18 0 C -30 -6 C -18 -12 C -6 -18 C 0 -12 C 0 81 702 2033 L 63 -45 648 2190 L 0 68 C 94 0 648 2190 L
6 -18 712 3789 L 18 -12 C 30 -6 C 18 0 C 30 6 C 18 12 C 6 18 C 0 12 C -6 18 C -18 12 C -30 6 C -18 0 C -30 -6 C -18 -12 C -6 -18 C
0 -12 C -6 12 736 5523 L -18 18 C 126 0 C 6 -18 712 5661 L 18 -12 C 30 -6 C 18 0 C 30 6 C 18 12 C 6 18 C 0 12 C -6 18 C -18 12 C
-30 6 C -18 0 C -30 -6 C -18 -12 C -6 -18 C 0 -12 C 0 81 702 5745 L 63 -45 648 5903 L 0 67 C 94 0 648 5903 L
0 5459 9261 1170 L -48 0 9261 1807 L -97 0 9261 2470 L 0 108 9461 2206 L 6 -18 9389 2392 L 18 -12 C 30 -6 C 18 0 C 30 6 C 18 12 C
6 18 C 0 12 C -6 18 C -18 12 C -30 6 C -18 0 C -30 -6 C -18 -12 C -6 -18 C 0 -12 C 6 -6 9503 2488 L 6 6 C -6 6 C -6 -6 C
6 -18 9389 2572 L 18 -12 C 30 -6 C 18 0 C 30 6 C 18 12 C 6 18 C 0 12 C -6 18 C -18 12 C -30 6 C -18 0 C -30 -6 C -18 -12 C -6 -18 C
0 -12 C -6 0 9419 2662 L -12 6 C -6 6 C -6 12 C 0 24 C 6 12 C 6 6 C 12 6 C 12 0 C 12 -6 C 18 -12 C 60 -60 C 0 84 C -48 0 9261 3132 L
-97 0 9261 3795 L 6 -18 9389 3789 L 18 -12 C 30 -6 C 18 0 C 30 6 C 18 12 C 6 18 C 0 12 C -6 18 C -18 12 C -30 6 C -18 0 C -30 -6 C
-18 -12 C -6 -18 C 0 -12 C -48 0 9261 4458 L -97 0 9261 5120 L 6 -18 9389 4964 L 18 -12 C 30 -6 C 18 0 C 30 6 C 18 12 C 6 18 C
0 12 C -6 18 C -18 12 C -30 6 C -18 0 C -30 -6 C -18 -12 C -6 -18 C 0 -12 C 6 -6 9503 5060 L 6 6 C -6 6 C -6 -6 C 6 -18 9389 5144 L
18 -12 C 30 -6 C 18 0 C 30 6 C 18 12 C 6 18 C 0 12 C -6 18 C -18 12 C -30 6 C -18 0 C -30 -6 C -18 -12 C -6 -18 C 0 -12 C
-6 0 9419 5234 L -12 6 C -6 6 C -6 12 C 0 24 C 6 12 C 6 6 C 12 6 C 12 0 C 12 -6 C 18 -12 C 60 -60 C 0 84 C -48 0 9261 5783 L
-97 0 9261 6446 L 6 -18 9389 6290 L 18 -12 C 30 -6 C 18 0 C 30 6 C 18 12 C 6 18 C 0 12 C -6 18 C -18 12 C -30 6 C -18 0 C -30 -6 C
-18 -12 C -6 -18 C 0 -12 C 6 -6 9503 6386 L 6 6 C -6 6 C -6 -6 C 6 -18 9389 6470 L 18 -12 C 30 -6 C 18 0 C 30 6 C 18 12 C 6 18 C
0 12 C -6 18 C -18 12 C -30 6 C -18 0 C -30 -6 C -18 -12 C -6 -18 C 0 -12 C 84 -60 9389 6614 L 0 90 C 126 0 9389 6614 L
61 0 9688 2730 L 0 54 9688 2730 L 6 18 C 6 6 C 12 6 C 12 0 C 12 -6 C 6 -6 C 6 -18 C 0 -54 C 1 0 9748 2772 L -7 -3 9749 2919 L
-6 -6 C -6 -12 C 0 -18 C 6 -12 C 12 -12 C 1 -1 C -12 -6 9748 3024 L -6 -18 C 0 -18 C 6 -18 C 12 -6 C 1 0 C 6 6 9688 3060 L -6 6 C
-6 -6 C 6 -6 C 19 0 9730 3066 L 61 0 9688 3180 L -12 -12 9748 3180 L -6 -12 C 0 -18 C 6 -12 C 12 -12 C 1 -1 C 19 0 9730 3228 L
19 0 9730 3294 L 19 0 9730 3408 L -12 -12 9748 3408 L -6 -12 C 0 -18 C 6 -12 C 12 -12 C 1 -1 C 61 0 9688 3456 L 6 6 9688 3594 L
-6 6 C -6 -6 C 6 -6 C 19 0 9730 3600 L 19 0 9730 3648 L -13 14 9749 3652 L -6 12 C 0 18 C 6 12 C 13 4 C 19 0 9730 3858 L
-12 12 9748 3858 L -6 12 C 0 18 C 6 11 C 12 12 C 1 1 C 19 0 9730 3971 L 19 0 9730 4037 L 61 0 9688 4085 L -12 -6 9748 4193 L
-6 -18 C 0 -18 C 6 -18 C 12 -6 C 1 1 C -7 -4 9749 4299 L -6 -6 C -6 -12 C 0 -18 C 6 -12 C 12 -12 C 1 0 C 19 0 9730 4439 L
-12 12 9748 4439 L -6 12 C 0 18 C 6 12 C 12 12 C 1 1 C -7 -4 9749 4617 L -6 -6 C -6 -12 C 0 -18 C 6 -12 C 12 -12 C 1 0 C
19 0 9730 4661 L -1 0 9749 4667 L -12 12 C -6 12 C 0 18 C 6 6 9688 4733 L -6 6 C -6 -6 C 6 -6 C 19 0 9730 4739 L 6 -12 9730 4811 L
12 -12 C 1 0 C -1 -1 9749 4854 L -12 -12 C -6 -12 C 0 -18 C 61 0 9688 4967 L -12 -12 9748 4967 L -6 -12 C 0 -18 C 6 -12 C 12 -12 C
1 0 C -12 -6 9748 5075 L -6 -18 C 0 -18 C 6 -18 C 12 -6 C 1 1 C
0 -96 3111 7145 L -6 -18 C -6 -6 C -12 -6 C -12 0 C -12 6 C -6 6 C -6 18 C 0 12 C 12 6 3171 7121 L 18 18 C 0 -126 C
-60 -126 3357 7145 L 84 0 3273 7145 L 0 6 3399 7115 L 6 12 C 6 6 C 12 6 C 24 0 C 12 -6 C 6 -6 C 6 -12 C 0 -12 C -6 -12 C -12 -18 C
-60 -60 C 84 0 C 12 6 3531 7121 L 18 18 C 0 -126 C 108 0 3639 7073 L 0 6 3795 7115 L 6 12 C 6 6 C 12 6 C 24 0 C 12 -6 C 6 -6 C
6 -12 C 0 -12 C -6 -12 C -12 -18 C -60 -60 C 84 0 C -60 -84 3969 7145 L 90 0 C 0 -126 3969 7145 L -60 0 4101 7145 L -6 -54 C 6 6 C
18 6 C 18 0 C 18 -6 C 12 -12 C 6 -18 C 0 -12 C -6 -18 C -12 -12 C -18 -6 C -18 0 C -18 6 C -6 6 C -6 12 C -60 -126 4233 7145 L
84 0 4149 7145 L -12 -12 4413 7169 L -12 -18 C -12 -24 C -6 -30 C 0 -24 C 6 -30 C 12 -24 C 12 -18 C 12 -12 C 30 -126 4443 7145 L
-30 -126 4503 7145 L 30 -126 4503 7145 L -30 -126 4563 7145 L 0 -84 4599 7103 L 6 18 4599 7067 L 12 12 C 12 6 C 18 0 C
0 -84 4677 7103 L 18 18 4677 7079 L 12 6 C 18 0 C 12 -6 C 6 -18 C 0 -60 C 18 18 4743 7079 L 12 6 C 18 0 C 12 -6 C 6 -18 C 0 -60 C
-6 12 4917 7085 L -18 6 C -18 0 C -18 -6 C -6 -12 C 6 -12 C 12 -6 C 30 -6 C 12 -6 C 6 -12 C 0 -6 C -6 -12 C -18 -6 C -18 0 C -18 6 C
-6 12 C 108 0 5055 7091 L 108 0 5055 7055 L 12 6 5319 7121 L 18 18 C 0 -126 C -60 -126 5505 7145 L 84 0 5421 7145 L
-6 -6 5553 7031 L 6 -6 C 6 6 C -6 6 C -18 -6 5637 7145 L -12 -18 C -6 -30 C 0 -18 C 6 -30 C 12 -18 C 18 -6 C 12 0 C 18 6 C 12 18 C
6 30 C 0 18 C -6 30 C -12 18 C -18 6 C -12 0 C -18 -6 5757 7145 L -12 -18 C -6 -30 C 0 -18 C 6 -30 C 12 -18 C 18 -6 C 12 0 C 18 6 C
12 18 C 6 30 C 0 18 C -6 30 C -12 18 C -18 6 C -12 0 C -6 12 5919 7127 L -18 6 C -12 0 C -18 -6 C -12 -18 C -6 -30 C 0 -30 C 6 -24 C
12 -12 C 18 -6 C 6 0 C 18 6 C 12 12 C 6 18 C 0 6 C -6 18 C -12 12 C -18 6 C -6 0 C -18 -6 C -12 -12 C -6 -18 C -36 -126 6081 7103 L
-6 -30 6075 7079 L 0 -18 C 12 -12 C 12 0 C 12 6 C 12 12 C 12 24 C -12 -42 6141 7103 L -6 -24 C 0 -12 C 6 -6 C 12 0 C 12 12 C 6 12 C
-6 12 6249 7085 L -18 6 C -18 0 C -18 -6 C -6 -12 C 6 -12 C 12 -6 C 30 -6 C 12 -6 C 6 -12 C 0 -6 C -6 -12 C -18 -6 C -18 0 C -18 6 C
-6 12 C 12 -12 6285 7169 L 12 -18 C 12 -24 C 6 -30 C 0 -24 C -6 -30 C -12 -24 C -12 -18 C -12 -12 C 0 -126 6471 7103 L
12 12 6471 7085 L 12 6 C 18 0 C 12 -6 C 12 -12 C 6 -18 C 0 -12 C -6 -18 C -12 -12 C -12 -6 C -18 0 C -12 6 C -12 12 C
-12 -6 6609 7103 L -12 -12 C -6 -18 C 0 -12 C 6 -18 C 12 -12 C 12 -6 C 18 0 C 12 6 C 12 12 C 6 18 C 0 12 C -6 18 C -12 12 C -12 6 C
-18 0 C -6 12 6759 7085 L -18 6 C -18 0 C -18 -6 C -6 -12 C 6 -12 C 12 -6 C 30 -6 C 12 -6 C 6 -12 C 0 -6 C -6 -12 C -18 -6 C -18 0 C
-18 6 C -6 12 C 0 -102 6807 7145 L 6 -18 C 12 -6 C 12 0 C 42 0 6789 7103 L 108 0 6873 7073 L -12 0 7065 7145 L -12 -6 C -6 -18 C
0 -102 C 42 0 7017 7103 L 6 -6 7095 7145 L 6 6 C -6 6 C -6 -6 C 0 -84 7101 7103 L 0 -102 7155 7145 L 6 -18 C 12 -6 C 12 0 C
42 0 7137 7103 L 0 -126 4491 672 L 48 -126 4491 672 L -48 -126 4587 672 L 0 -126 4587 672 L 0 -96 4683 672 L -6 -18 C -6 -6 C
-12 -6 C -12 0 C -12 6 C -6 6 C -6 18 C 0 12 C 0 -126 4731 672 L 42 0 4731 672 L 18 -6 C 12 -12 C 6 -12 C 6 -18 C 0 -30 C -6 -18 C
-6 -12 C -12 -12 C -18 -6 C -42 0 C 108 0 4857 600 L -60 0 5079 672 L -6 -54 C 6 6 C 18 6 C 18 0 C 18 -6 C 12 -12 C 6 -18 C 0 -12 C
-6 -18 C -12 -12 C -18 -6 C -18 0 C -18 6 C -6 6 C -6 12 C -60 -84 5187 672 L 90 0 C 0 -126 5187 672 L -60 -84 5307 672 L 90 0 C
0 -126 5307 672 L -18 -6 5403 672 L -12 -18 C -6 -30 C 0 -18 C 6 -30 C 12 -18 C 18 -6 C 12 0 C 18 6 C 12 18 C 6 30 C 0 18 C -6 30 C
-12 18 C -18 6 C -12 0 C -6 12 5565 654 L -18 6 C -12 0 C -18 -6 C -12 -18 C -6 -30 C 0 -30 C 6 -24 C 12 -12 C 18 -6 C 6 0 C 18 6 C
12 12 C 6 18 C 0 6 C -6 18 C -12 12 C -18 6 C -6 0 C -18 -6 C -12 -12 C -6 -18 C -6 -6 5619 558 L 6 -6 C 6 6 C -6 6 C
-6 12 5745 654 L -18 6 C -12 0 C -18 -6 C -12 -18 C -6 -30 C 0 -30 C 6 -24 C 12 -12 C 18 -6 C 6 0 C 18 6 C 12 12 C 6 18 C 0 6 C
-6 18 C -12 12 C -18 6 C -6 0 C -18 -6 C -12 -12 C -6 -18 C 126 0 420 2895 L 0 54 420 2895 L 6 18 C 6 6 C 12 6 C 18 0 C 12 -6 C
6 -6 C 6 -18 C 0 -54 C 6 -12 462 3045 L 12 -12 C 18 -6 C 12 0 C 18 6 C 12 12 C 6 12 C 0 18 C -6 12 C -12 12 C -18 6 C -12 0 C
-18 -6 C -12 -12 C -6 -12 C 0 -18 C -12 -6 480 3195 L -6 -18 C 0 -18 C 6 -18 C 12 -6 C 12 6 C 6 12 C 6 30 C 6 12 C 12 6 C 6 0 C
12 -6 C 6 -18 C 0 -18 C -6 -18 C -12 -6 C 102 0 420 3243 L 18 6 C 6 12 C 0 12 C 0 42 462 3225 L 0 -12 420 3345 L 6 -12 C 18 -6 C
102 0 C 0 42 462 3297 L 6 6 420 3375 L -6 6 C -6 -6 C 6 -6 C 84 0 462 3381 L 102 0 420 3435 L 18 6 C 6 12 C 0 12 C 0 42 462 3417 L
126 0 420 3597 L 0 54 420 3597 L 6 18 C 6 6 C 12 6 C 12 0 C 12 -6 C 6 -6 C 6 -18 C 0 -54 C 66 42 480 3639 L 0 72 498 3717 L -12 0 C
-12 -6 C -6 -6 C -6 -12 C 0 -18 C 6 -12 C 12 -12 C 18 -6 C 12 0 C 18 6 C 12 12 C 6 12 C 0 18 C -6 12 C -12 12 C -12 -6 480 3891 L
-6 -18 C 0 -18 C 6 -18 C 12 -6 C 12 6 C 6 12 C 6 30 C 6 12 C 12 6 C 6 0 C 12 -6 C 6 -18 C 0 -18 C -6 -18 C -12 -6 C 6 6 420 3926 L
-6 6 C -6 -6 C 6 -6 C 84 0 462 3932 L 126 0 420 4046 L -12 -12 480 4046 L -6 -12 C 0 -18 C 6 -12 C 12 -12 C 18 -6 C 12 0 C 18 6 C
12 12 C 6 12 C 0 18 C -6 12 C -12 12 C 60 0 462 4094 L 18 6 C 6 12 C 0 18 C -6 12 C -18 18 C 84 0 462 4160 L 84 0 462 4274 L
-12 -12 480 4274 L -6 -12 C 0 -18 C 6 -12 C 12 -12 C 18 -6 C 12 0 C 18 6 C 12 12 C 6 12 C 0 18 C -6 12 C -12 12 C 126 0 420 4322 L
12 -12 396 4508 L 18 -12 C 24 -12 C 30 -6 C 24 0 C 30 6 C 24 12 C 18 12 C 12 12 C -12 -6 480 4610 L -6 -18 C 0 -18 C 6 -18 C 12 -6 C
12 6 C 6 12 C 6 30 C 6 12 C 12 6 C 6 0 C 12 -6 C 6 -18 C 0 -18 C -6 -18 C -12 -6 C 0 72 498 4646 L -12 0 C -12 -6 C -6 -6 C -6 -12 C
0 -18 C 6 -12 C 12 -12 C 18 -6 C 12 0 C 18 6 C 12 12 C 6 12 C 0 18 C -6 12 C -12 12 C -12 -12 480 4826 L -6 -12 C 0 -18 C 6 -12 C
12 -12 C 18 -6 C 12 0 C 18 6 C 12 12 C 6 12 C 0 18 C -6 12 C -12 12 C 12 12 396 4862 L 18 12 C 24 12 C 30 6 C 24 0 C 30 -6 C
24 -12 C 18 -12 C 12 -12 C
1024 0 0 K 0 1024 0 K
/M16 {MB -4 -4 moveto 0 8 rlineto 8 0 rlineto 0 -8                              
rlineto closepath fill ME} bind def                                             
/MFAC      5.999 def    
1665 2625 M16 1716 3362 M16 1769 4051 M16 1915 3288 M16 1965 4143 M16 2008 5005 M16 2052 2442 M16 2150 3744 M16 2205 4005 M16
2237 4782 M16 2299 4770 M16 2383 3696 M16 2454 4809 M16 2547 2718 M16 2589 3692 M16 2630 4229 M16 2701 3093 M16 2744 3613 M16
2766 4399 M16 2809 4263 M16 2837 2895 M16 2838 3304 M16 2906 4252 M16 2909 4699 M16 2942 4137 M16 2973 4165 M16 3076 3765 M16
3112 5492 M16 3114 2221 M16 3128 3894 M16 3242 2747 M16 3462 3650 M16 3596 2984 M16 3741 4859 M16 3843 2747 M16 3895 2682 M16
3945 3536 M16 4002 2726 M16 4146 4450 M16 4186 2960 M16 4230 4615 M16 4279 3887 M16 4292 3518 M16 4382 3268 M16 4434 1625 M16
4468 3819 M16 4475 3477 M16 4477 4197 M16 4480 3601 M16 4529 3513 M16 4534 3860 M16 4551 3389 M16 4589 3872 M16 4591 4576 M16
4611 3619 M16 4613 3798 M16 4619 3523 M16 4657 3784 M16 4663 3965 M16 4682 3997 M16 4701 3759 M16 4728 3557 M16 4746 3230 M16
4749 3683 M16 4766 3925 M16 4781 3810 M16 4799 4043 M16 4808 5498 M16 4880 4900 M16 4941 4139 M16 4973 4163 M16 4975 4473 M16
4984 4146 M16 4995 4227 M16 5015 4000 M16 5031 3975 M16 5108 3807 M16 5111 4211 M16 5151 4070 M16 5189 2832 M16 5244 3540 M16
5282 5619 M16 5335 3996 M16 5337 2871 M16 5402 4345 M16 5419 3269 M16 5461 4008 M16 5505 4507 M16 5538 3861 M16 5546 3001 M16
5561 3662 M16 5586 3451 M16 5603 3517 M16 5626 3716 M16 5628 3170 M16 5660 3966 M16 5699 4016 M16 5715 4170 M16 5741 3007 M16
5772 3650 M16 5781 3899 M16 5812 3374 M16 5817 3100 M16 5849 3542 M16 5869 4888 M16 5914 3221 M16 5919 3936 M16 5939 3319 M16
6001 3675 M16 6031 3336 M16 6041 2604 M16 6062 2896 M16 6095 4417 M16 6130 4291 M16 6139 4545 M16 6164 3524 M16 6166 3546 M16
6191 6174 M16 6235 3375 M16 6304 3760 M16 6306 3647 M16 6312 3956 M16 6334 4090 M16 6350 3850 M16 6387 3730 M16 6436 3649 M16
6516 3994 M16 6551 4092 M16 6572 4152 M16 6709 3820 M16 6736 3668 M16 6808 3696 M16 6854 3710 M16 6897 3945 M16 6969 3829 M16
7059 3851 M16 7155 4216 M16 7210 3815 M16 7262 3664 M16 7460 3967 M16 7511 3991 M16 7550 3850 M16 7624 3414 M16 7681 3852 M16
7751 3807 M16 7829 3710 M16 7831 4077 M16 7835 3658 M16 8339 3756 M16 8571 3786 M16
45 0 1643 1946 L 0 1358 1665 1946 L 45 0 1643 3304 L 45 0 1693 2519 L 0 1686 1716 2519 L 45 0 1693 4205 L 45 0 1746 2940 L
0 2222 1769 2940 L 45 0 1746 5162 L 45 0 1893 2623 L 0 1331 1915 2623 L 45 0 1893 3954 L 45 0 1943 3023 L 0 2240 1965 3023 L
45 0 1943 5263 L 45 0 1986 4299 L 0 1411 2008 4299 L 45 0 1986 5710 L 45 0 2030 1488 L 0 1909 2052 1488 L 45 0 2030 3397 L
45 0 2128 2834 L 0 1820 2150 2834 L 45 0 2128 4654 L 45 0 2182 3059 L 0 1892 2205 3059 L 45 0 2182 4951 L 45 0 2215 3961 L
0 1642 2237 3961 L 45 0 2215 5603 L 45 0 2277 4237 L 0 1067 2299 4237 L 45 0 2277 5304 L 45 0 2361 2990 L 0 1411 2383 2990 L
45 0 2361 4401 L 45 0 2432 3846 L 0 1927 2454 3846 L 45 0 2432 5773 L 45 0 2525 2101 L 0 1234 2547 2101 L 45 0 2525 3335 L
45 0 2566 3053 L 0 1278 2589 3053 L 45 0 2566 4331 L 45 0 2608 3404 L 0 1650 2630 3404 L 45 0 2608 5054 L 45 0 2678 2285 L
0 1615 2701 2285 L 45 0 2678 3900 L 45 0 2721 2983 L 0 1261 2744 2983 L 45 0 2721 4244 L 45 0 2743 3588 L 0 1623 2766 3588 L
45 0 2743 5211 L 45 0 2786 3712 L 0 1102 2809 3712 L 45 0 2786 4814 L 45 0 2814 1537 L 0 2716 2837 1537 L 45 0 2814 4253 L
45 0 2816 2528 L 0 1552 2838 2528 L 45 0 2816 4080 L 45 0 2884 3502 L 0 1500 2906 3502 L 45 0 2884 5002 L 45 0 2887 3932 L
0 1535 2909 3932 L 45 0 2887 5467 L 45 0 2919 3489 L 0 1296 2942 3489 L 45 0 2919 4785 L 45 0 2950 3451 L 0 1429 2973 3451 L
45 0 2950 4880 L 45 0 3054 3365 L 0 801 3076 3365 L 45 0 3054 4166 L 45 0 3089 4645 L 0 1695 3112 4645 L 45 0 3089 6340 L
45 0 3092 1239 L 0 1963 3114 1239 L 45 0 3092 3202 L 45 0 3105 2899 L 0 1990 3128 2899 L 45 0 3105 4889 L 45 0 3219 2187 L
0 1120 3242 2187 L 45 0 3219 3307 L 45 0 3439 3090 L 0 1120 3462 3090 L 45 0 3439 4210 L 45 0 3574 1801 L 0 2366 3596 1801 L
45 0 3574 4167 L 45 0 3718 3735 L 0 2249 3741 3735 L 45 0 3718 5984 L 45 0 3820 1949 L 0 1597 3843 1949 L 45 0 3820 3546 L
45 0 3872 1744 L 0 1876 3895 1744 L 45 0 3872 3620 L 45 0 3922 2497 L 0 2077 3945 2497 L 45 0 3922 4574 L 45 0 3980 1771 L
0 1911 4002 1771 L 45 0 3980 3682 L 45 0 4123 4073 L 0 754 4146 4073 L 45 0 4123 4827 L 45 0 4163 2522 L 0 877 4186 2522 L
45 0 4163 3399 L 45 0 4208 3515 L 0 2200 4230 3515 L 45 0 4208 5715 L 45 0 4256 3300 L 0 1174 4279 3300 L 45 0 4256 4474 L
45 0 4270 3257 L 0 522 4292 3257 L 45 0 4270 3779 L 45 0 4360 2159 L 0 2217 4382 2159 L 45 0 4360 4376 L 0 1524 4434 1170 L
45 0 4411 2694 L 45 0 4445 3642 L 0 354 4468 3642 L 45 0 4445 3996 L 45 0 4453 3300 L 0 355 4475 3300 L 45 0 4453 3655 L
45 0 4454 3080 L 0 2235 4477 3080 L 45 0 4454 5315 L 45 0 4457 3423 L 0 356 4480 3423 L 45 0 4457 3779 L 45 0 4506 3333 L
0 360 4529 3333 L 45 0 4506 3693 L 45 0 4512 3679 L 0 362 4534 3679 L 45 0 4512 4041 L 45 0 4528 3208 L 0 363 4551 3208 L
45 0 4528 3571 L 45 0 4567 3622 L 0 500 4589 3622 L 45 0 4567 4122 L 45 0 4568 3743 L 0 1665 4591 3743 L 45 0 4568 5408 L
45 0 4589 3416 L 0 407 4611 3416 L 45 0 4589 3823 L 45 0 4590 3598 L 0 400 4613 3598 L 45 0 4590 3998 L 45 0 4596 3324 L
0 398 4619 3324 L 45 0 4596 3722 L 45 0 4635 3604 L 0 360 4657 3604 L 45 0 4635 3964 L 45 0 4640 3726 L 0 479 4663 3726 L
45 0 4640 4205 L 45 0 4660 3790 L 0 414 4682 3790 L 45 0 4660 4204 L 45 0 4679 3584 L 0 351 4701 3584 L 45 0 4679 3935 L
45 0 4705 3367 L 0 380 4728 3367 L 45 0 4705 3747 L 45 0 4723 2656 L 0 1148 4746 2656 L 45 0 4723 3804 L 45 0 4726 3479 L
0 409 4749 3479 L 45 0 4726 3888 L 45 0 4744 3747 L 0 355 4766 3747 L 45 0 4744 4102 L 45 0 4759 3632 L 0 355 4781 3632 L
45 0 4759 3987 L 45 0 4776 3863 L 0 360 4799 3863 L 45 0 4776 4223 L 45 0 4785 4179 L 0 2450 4808 4179 L 45 0 4858 4265 L
0 1270 4880 4265 L 45 0 4858 5535 L 45 0 4918 3958 L 0 361 4941 3958 L 45 0 4918 4319 L 45 0 4951 3681 L 0 964 4973 3681 L
45 0 4951 4645 L 45 0 4952 3754 L 0 1437 4975 3754 L 45 0 4952 5191 L 45 0 4961 3969 L 0 354 4984 3969 L 45 0 4961 4323 L
45 0 4973 4041 L 0 371 4995 4041 L 45 0 4973 4412 L 45 0 4992 3277 L 0 1446 5015 3277 L 45 0 4992 4723 L 45 0 5008 3792 L
0 366 5031 3792 L 45 0 5008 4158 L 45 0 5085 3220 L 0 1174 5108 3220 L 45 0 5085 4394 L 45 0 5088 4028 L 0 365 5111 4028 L
45 0 5088 4393 L 45 0 5128 3894 L 0 351 5151 3894 L 45 0 5128 4245 L 45 0 5166 1421 L 0 2822 5189 1421 L 45 0 5166 4243 L
45 0 5221 2782 L 0 1516 5244 2782 L 45 0 5221 4298 L 45 0 5260 4926 L 0 1385 5282 4926 L 45 0 5260 6311 L 45 0 5313 3820 L
0 352 5335 3820 L 45 0 5313 4172 L 45 0 5314 1824 L 0 2094 5337 1824 L 45 0 5314 3918 L 45 0 5379 4164 L 0 362 5402 4164 L
45 0 5379 4526 L 45 0 5397 2769 L 0 999 5419 2769 L 45 0 5397 3768 L 45 0 5438 2978 L 0 2060 5461 2978 L 45 0 5438 5038 L
45 0 5483 3578 L 0 1858 5505 3578 L 45 0 5483 5436 L 45 0 5515 3676 L 0 371 5538 3676 L 45 0 5515 4047 L 45 0 5524 2449 L
0 1104 5546 2449 L 45 0 5524 3553 L 45 0 5539 3489 L 0 347 5561 3489 L 45 0 5539 3836 L 45 0 5564 2846 L 0 1209 5586 2846 L
45 0 5564 4055 L 45 0 5580 3342 L 0 349 5603 3342 L 45 0 5580 3691 L 45 0 5604 3538 L 0 357 5626 3538 L 45 0 5604 3895 L
45 0 5605 2373 L 0 1595 5628 2373 L 45 0 5605 3968 L 45 0 5638 3782 L 0 369 5660 3782 L 45 0 5638 4151 L 45 0 5676 3842 L
0 348 5699 3842 L 45 0 5676 4190 L 45 0 5692 3996 L 0 347 5715 3996 L 45 0 5692 4343 L 45 0 5719 2464 L 0 1087 5741 2464 L
45 0 5719 3551 L 45 0 5750 2984 L 0 1332 5772 2984 L 45 0 5750 4316 L 45 0 5759 3557 L 0 684 5781 3557 L 45 0 5759 4241 L
45 0 5790 3196 L 0 356 5812 3196 L 45 0 5790 3552 L 45 0 5794 2071 L 0 2059 5817 2071 L 45 0 5794 4130 L 45 0 5827 3347 L
0 390 5849 3347 L 45 0 5827 3737 L 45 0 5846 3951 L 0 1875 5869 3951 L 45 0 5846 5826 L 45 0 5892 3040 L 0 363 5914 3040 L
45 0 5892 3403 L 45 0 5896 2840 L 0 2191 5919 2840 L 45 0 5896 5031 L 45 0 5917 2592 L 0 1455 5939 2592 L 45 0 5917 4047 L
45 0 5979 2650 L 0 2050 6001 2650 L 45 0 5979 4700 L 45 0 6009 3158 L 0 356 6031 3158 L 45 0 6009 3514 L 45 0 6019 1618 L
0 1972 6041 1618 L 45 0 6019 3590 L 45 0 6040 2717 L 0 358 6062 2717 L 45 0 6040 3075 L 45 0 6072 3409 L 0 2016 6095 3409 L
45 0 6072 5425 L 45 0 6108 4114 L 0 354 6130 4114 L 45 0 6108 4468 L 45 0 6116 3830 L 0 1429 6139 3830 L 45 0 6116 5259 L
45 0 6142 3351 L 0 346 6164 3351 L 45 0 6142 3697 L 45 0 6143 3372 L 0 348 6166 3372 L 45 0 6143 3720 L 45 0 6168 4776 L
0 1853 6191 4776 L 45 0 6212 2086 L 0 2577 6235 2086 L 45 0 6212 4663 L 45 0 6282 3375 L 0 771 6304 3375 L 45 0 6282 4146 L
45 0 6283 3474 L 0 347 6306 3474 L 45 0 6283 3821 L 45 0 6289 3369 L 0 1175 6312 3369 L 45 0 6289 4544 L 45 0 6311 2771 L
0 2638 6334 2771 L 45 0 6311 5409 L 45 0 6328 3676 L 0 349 6350 3676 L 45 0 6328 4025 L 45 0 6365 3552 L 0 356 6387 3552 L
45 0 6365 3908 L 45 0 6413 3472 L 0 354 6436 3472 L 45 0 6413 3826 L 45 0 6493 3812 L 0 365 6516 3812 L 45 0 6493 4177 L
45 0 6529 3584 L 0 1016 6551 3584 L 45 0 6529 4600 L 45 0 6549 3948 L 0 409 6572 3948 L 45 0 6549 4357 L 45 0 6687 3643 L
0 354 6709 3643 L 45 0 6687 3997 L 45 0 6713 3492 L 0 352 6736 3492 L 45 0 6713 3844 L 45 0 6786 3504 L 0 383 6808 3504 L
45 0 6786 3887 L 45 0 6832 3533 L 0 353 6854 3533 L 45 0 6832 3886 L 45 0 6874 3766 L 0 359 6897 3766 L 45 0 6874 4125 L
45 0 6947 3652 L 0 354 6969 3652 L 45 0 6947 4006 L 45 0 7037 3676 L 0 350 7059 3676 L 45 0 7037 4026 L 45 0 7133 4034 L
0 363 7155 4034 L 45 0 7133 4397 L 45 0 7188 3640 L 0 349 7210 3640 L 45 0 7188 3989 L 45 0 7239 3487 L 0 353 7262 3487 L
45 0 7239 3840 L 45 0 7437 3751 L 0 432 7460 3751 L 45 0 7437 4183 L 45 0 7489 3611 L 0 759 7511 3611 L 45 0 7489 4370 L
45 0 7527 3667 L 0 366 7550 3667 L 45 0 7527 4033 L 45 0 7601 3233 L 0 362 7624 3233 L 45 0 7601 3595 L 45 0 7659 3713 L
0 278 7681 3713 L 45 0 7659 3991 L 45 0 7728 3647 L 0 320 7751 3647 L 45 0 7728 3967 L 45 0 7807 3487 L 0 447 7829 3487 L
45 0 7807 3934 L 45 0 7808 3916 L 0 322 7831 3916 L 45 0 7808 4238 L 45 0 7813 3514 L 0 287 7835 3514 L 45 0 7813 3801 L
45 0 8316 3573 L 0 365 8339 3573 L 45 0 8316 3938 L 45 0 8548 3598 L 0 376 8571 3598 L 45 0 8548 3974 L
1024 0 1024 K 0 1024 1024 K 0 0 0 K
PGPLOT restore showpage
%%PageTrailer
%%PageBoundingBox: 24 17 588 721
 
%%Trailer
%%BoundingBox: 24 17 588 721
%%DocumentFonts: 
%%Pages: 1
%%EOF
