{
    "J1600-3053_Rcvr1_2_GASP_efac": 1.0919916744564166,
    "J1600-3053_Rcvr1_2_GASP_log10_ecorr": -8.0533878390176437,
    "J1600-3053_Rcvr1_2_GASP_log10_equad": -7.4047886691743017,
    "J1600-3053_Rcvr1_2_GUPPI_efac": 1.057922124605698,
    "J1600-3053_Rcvr1_2_GUPPI_log10_ecorr": -6.8674258798797698,
    "J1600-3053_Rcvr1_2_GUPPI_log10_equad": -8.406277484325404,
    "J1600-3053_Rcvr_800_GASP_efac": 1.1473021108192563,
    "J1600-3053_Rcvr_800_GASP_log10_ecorr": -7.0404665898918104,
    "J1600-3053_Rcvr_800_GASP_log10_equad": -8.0605905926408372,
    "J1600-3053_Rcvr_800_GUPPI_efac": 1.1273121474948362,
    "J1600-3053_Rcvr_800_GUPPI_log10_ecorr": -6.1518129043413197,
    "J1600-3053_Rcvr_800_GUPPI_log10_equad": -7.9227554971411447,
    "J1600-3053_dm_gamma": 1.3731767044365015,
    "J1600-3053_dm_kappa": 3.2142688912328841,
    "J1600-3053_dm_lf0": -8.3265988650173686,
    "J1600-3053_dm_log10_A": -13.321885690727235,
    "J1600-3053_gamma": 1.7944183570797352,
    "J1600-3053_log10_A": -15.865064325167159
}