{
    "J1853+1303_430_ASP_efac": 1.0203191128243965,
    "J1853+1303_430_ASP_log10_ecorr": -7.5246439345839624,
    "J1853+1303_430_ASP_log10_equad": -8.1866020279086413,
    "J1853+1303_430_PUPPI_efac": 1.0556225377330102,
    "J1853+1303_430_PUPPI_log10_ecorr": -5.9045340099337205,
    "J1853+1303_430_PUPPI_log10_equad": -7.934586554290382,
    "J1853+1303_L-wide_ASP_efac": 1.0302363422969791,
    "J1853+1303_L-wide_ASP_log10_ecorr": -7.3029534351397176,
    "J1853+1303_L-wide_ASP_log10_equad": -7.9787755092994033,
    "J1853+1303_L-wide_PUPPI_efac": 1.1441532176973366,
    "J1853+1303_L-wide_PUPPI_log10_ecorr": -6.5912417580118863,
    "J1853+1303_L-wide_PUPPI_log10_equad": -8.3826485533844135,
    "J1853+1303_dm_gamma": 3.3269220599692266,
    "J1853+1303_dm_kappa": 3.4991544663393661,
    "J1853+1303_dm_lf0": -7.5419932902463671,
    "J1853+1303_dm_log10_A": -16.137046554164932,
    "J1853+1303_gamma": 3.0170020433680884,
    "J1853+1303_log10_A": -16.294807884824493
}