poln    freq        ndmp   nbin     value
  0 372.500000      0      0       1.0752
  0 372.500000      0      1       0.7488
  0 372.500000      0      2       1.1167
  0 372.500000      0      3       1.5733
  0 372.500000      0      4       1.9802
  0 372.500000      0      5       1.4633
  0 372.500000      0      6       0.7981
  0 372.500000      0      7       0.4948
  0 372.500000      0      8       0.0496
  0 372.500000      0      9       0.2001
  0 372.500000      0     10      -0.1768
  0 372.500000      0     11      -0.1654
  0 372.500000      0     12       0.2493
  0 372.500000      0     13       0.0208
  0 372.500000      0     14      -0.1948
  0 372.500000      0     15      -0.2860
  0 372.500000      0     16      -0.0345
  0 372.500000      0     17       0.0412
  0 372.500000      0     18       0.1873
  0 372.500000      0     19      -0.2050
  0 372.500000      0     20      -0.0962
  0 372.500000      0     21      -0.3441
  0 372.500000      0     22       0.0000
  0 372.500000      0     23       0.0786
  0 372.500000      0     24       0.0260
  0 372.500000      0     25       0.1163
  0 372.500000      0     26      -0.0886
  0 372.500000      0     27       0.1975
  0 372.500000      0     28       0.1132
  0 372.500000      0     29       0.1307
  0 372.500000      0     30       0.2276
  0 372.500000      0     31      -0.0778
  0 372.500000      0     32       0.1986
  0 372.500000      0     33       0.0742
  0 372.500000      0     34       0.1127
  0 372.500000      0     35       0.2308
  0 372.500000      0     36       0.0548
  0 372.500000      0     37      -0.1835
  0 372.500000      0     38      -0.0513
  0 372.500000      0     39      -0.0723
  0 372.500000      0     40      -0.2260
  0 372.500000      0     41       0.3356
  0 372.500000      0     42       0.0465
  0 372.500000      0     43      -0.2510
  0 372.500000      0     44      -0.2512
  0 372.500000      0     45       0.2567
  0 372.500000      0     46       0.1499
  0 372.500000      0     47      -0.0281
  0 372.500000      0     48      -0.1023
  0 372.500000      0     49       0.1576
  0 372.500000      0     50       0.1543
  0 372.500000      0     51      -0.0685
  0 372.500000      0     52      -0.0465
  0 372.500000      0     53      -0.2119
  0 372.500000      0     54      -0.1749
  0 372.500000      0     55      -0.0848
  0 372.500000      0     56      -0.0329
  0 372.500000      0     57       0.0691
  0 372.500000      0     58       0.0818
  0 372.500000      0     59       0.0414
  0 372.500000      0     60      -0.3185
  0 372.500000      0     61      -0.1041
  0 372.500000      0     62       0.2856
  0 372.500000      0     63       0.9035
