poln    freq        ndmp   nbin     value
  0 328.750000      0      0       1.3574
  0 328.750000      0      1       1.1307
  0 328.750000      0      2       1.2135
  0 328.750000      0      3       1.8583
  0 328.750000      0      4       1.9349
  0 328.750000      0      5       1.3604
  0 328.750000      0      6       0.8325
  0 328.750000      0      7       0.3047
  0 328.750000      0      8       0.0143
  0 328.750000      0      9       0.2105
  0 328.750000      0     10      -0.0211
  0 328.750000      0     11       0.1235
  0 328.750000      0     12      -0.0306
  0 328.750000      0     13      -0.0431
  0 328.750000      0     14      -0.3569
  0 328.750000      0     15      -0.0283
  0 328.750000      0     16      -0.0116
  0 328.750000      0     17      -0.0788
  0 328.750000      0     18       0.0694
  0 328.750000      0     19       0.0523
  0 328.750000      0     20       0.1565
  0 328.750000      0     21       0.1776
  0 328.750000      0     22      -0.1385
  0 328.750000      0     23      -0.1466
  0 328.750000      0     24      -0.0570
  0 328.750000      0     25       0.0522
  0 328.750000      0     26      -0.1353
  0 328.750000      0     27       0.1298
  0 328.750000      0     28      -0.1445
  0 328.750000      0     29      -0.0855
  0 328.750000      0     30      -0.1173
  0 328.750000      0     31       0.0009
  0 328.750000      0     32       0.1316
  0 328.750000      0     33       0.0312
  0 328.750000      0     34       0.1805
  0 328.750000      0     35       0.1696
  0 328.750000      0     36      -0.0140
  0 328.750000      0     37      -0.0356
  0 328.750000      0     38       0.1032
  0 328.750000      0     39      -0.1951
  0 328.750000      0     40       0.0202
  0 328.750000      0     41      -0.0077
  0 328.750000      0     42       0.1003
  0 328.750000      0     43       0.1120
  0 328.750000      0     44      -0.0052
  0 328.750000      0     45      -0.1755
  0 328.750000      0     46       0.2439
  0 328.750000      0     47       0.0035
  0 328.750000      0     48      -0.1843
  0 328.750000      0     49       0.0920
  0 328.750000      0     50       0.1366
  0 328.750000      0     51      -0.2125
  0 328.750000      0     52       0.1475
  0 328.750000      0     53      -0.0859
  0 328.750000      0     54      -0.0811
  0 328.750000      0     55      -0.2488
  0 328.750000      0     56      -0.0104
  0 328.750000      0     57      -0.0994
  0 328.750000      0     58       0.0241
  0 328.750000      0     59      -0.0056
  0 328.750000      0     60       0.1776
  0 328.750000      0     61       0.3064
  0 328.750000      0     62       0.5604
  0 328.750000      0     63       1.0020
