%!PS-Adobe-3.0 EPSF-3.0
%%For: bperera
%%Title: PGPLOT PostScript plot
%%Creator: PGPLOT [PSDRIV 6.6]
%%CreationDate: 26-May-2016 15:12
%%BoundingBox: (atend)
%%DocumentFonts: (atend)
%%LanguageLevel: 1
%%Orientation: Landscape
%%Pages: (atend)
%%EndComments
%%BeginProlog
/L {moveto rlineto currentpoint stroke moveto} bind def
/C {rlineto currentpoint stroke moveto} bind def
/D {moveto 0 0 rlineto currentpoint stroke moveto} bind def
/LW {5 mul setlinewidth} bind def
/BP {newpath moveto} bind def
/LP /rlineto load def
/EP {rlineto closepath eofill} bind def
/MB {gsave translate MFAC dup scale 1 setlinewidth 2 setlinecap 0 setlinejoin newpath} bind def
/ME /grestore load def
/CC {0 360 arc stroke} bind def
/FC {0 360 arc fill} bind def
/G {1024 div setgray} bind def
/K {3 -1 roll 1024 div 3 -1 roll 1024 div 3 -1 roll 1024 div setrgbcolor} bind def
% Uncomment next line to convert color to grey shades
%/K {3 -1 roll 3413 div 3 -1 roll 1739 div 3 -1 roll 9309 div add add setgray} bind def
%%EndProlog
%%BeginSetup
/#copies 1 def
%%EndSetup
 
%%Page: 1 1
%%BeginPageSetup
/PGPLOT save def
0.072 0.072 scale
8149 250 translate 90 rotate
1 setlinejoin 1 setlinecap 1 LW 1
%%EndPageSetup
%%PageBoundingBox: (atend)
1024 1024 1024 K 1 LW 0 0 BP 9749 0 LP 0 7799 LP -9749 0 EP 0 0 0 K
8286 0 975 1170 L -8286 0 9261 6629 L 0 -5459 C 0 45 1024 1170 L 0 45 1251 1170 L 0 45 1479 1170 L 0 90 1706 1170 L 0 45 1933 1170 L
0 45 2161 1170 L 0 45 2388 1170 L 0 45 2616 1170 L 0 90 2843 1170 L 0 45 3071 1170 L 0 45 3298 1170 L 0 45 3526 1170 L
0 45 3753 1170 L 0 90 3981 1170 L 0 45 4208 1170 L 0 45 4436 1170 L 0 45 4663 1170 L 0 45 4891 1170 L 0 90 5118 1170 L
0 45 5346 1170 L 0 45 5573 1170 L 0 45 5801 1170 L 0 45 6028 1170 L 0 90 6255 1170 L 0 45 6483 1170 L 0 45 6710 1170 L
0 45 6938 1170 L 0 45 7165 1170 L 0 90 7393 1170 L 0 45 7620 1170 L 0 45 7848 1170 L 0 45 8075 1170 L 0 45 8303 1170 L
0 90 8530 1170 L 0 45 8758 1170 L 0 45 8985 1170 L 0 45 9213 1170 L 0 45 1024 6584 L 0 45 1251 6584 L 0 45 1479 6584 L
0 90 1706 6539 L 0 45 1933 6584 L 0 45 2161 6584 L 0 45 2388 6584 L 0 45 2616 6584 L 0 90 2843 6539 L 0 45 3071 6584 L
0 45 3298 6584 L 0 45 3526 6584 L 0 45 3753 6584 L 0 90 3981 6539 L 0 45 4208 6584 L 0 45 4436 6584 L 0 45 4663 6584 L
0 45 4891 6584 L 0 90 5118 6539 L 0 45 5346 6584 L 0 45 5573 6584 L 0 45 5801 6584 L 0 45 6028 6584 L 0 90 6255 6539 L
0 45 6483 6584 L 0 45 6710 6584 L 0 45 6938 6584 L 0 45 7165 6584 L 0 90 7393 6539 L 0 45 7620 6584 L 0 45 7848 6584 L
0 45 8075 6584 L 0 45 8303 6584 L 0 90 8530 6539 L 0 45 8758 6584 L 0 45 8985 6584 L 0 45 9213 6584 L 108 0 1412 990 L
12 6 1580 1038 L 18 18 C 0 -126 C -60 0 1754 1062 L -6 -54 C 6 6 C 18 6 C 18 0 C 18 -6 C 12 -12 C 6 -18 C 0 -12 C -6 -18 C -12 -12 C
-18 -6 C -18 0 C -18 6 C -6 6 C -6 12 C -18 -6 1838 1062 L -12 -18 C -6 -30 C 0 -18 C 6 -30 C 12 -18 C 18 -6 C 12 0 C 18 6 C 12 18 C
6 30 C 0 18 C -6 30 C -12 18 C -18 6 C -12 0 C -18 -6 1958 1062 L -12 -18 C -6 -30 C 0 -18 C 6 -30 C 12 -18 C 18 -6 C 12 0 C 18 6 C
12 18 C 6 30 C 0 18 C -6 30 C -12 18 C -18 6 C -12 0 C 108 0 2549 990 L 12 6 2717 1038 L 18 18 C 0 -126 C -18 -6 2855 1062 L
-12 -18 C -6 -30 C 0 -18 C 6 -30 C 12 -18 C 18 -6 C 12 0 C 18 6 C 12 18 C 6 30 C 0 18 C -6 30 C -12 18 C -18 6 C -12 0 C
-18 -6 2975 1062 L -12 -18 C -6 -30 C 0 -18 C 6 -30 C 12 -18 C 18 -6 C 12 0 C 18 6 C 12 18 C 6 30 C 0 18 C -6 30 C -12 18 C -18 6 C
-12 0 C -18 -6 3095 1062 L -12 -18 C -6 -30 C 0 -18 C 6 -30 C 12 -18 C 18 -6 C 12 0 C 18 6 C 12 18 C 6 30 C 0 18 C -6 30 C -12 18 C
-18 6 C -12 0 C 108 0 3747 990 L -60 0 3969 1062 L -6 -54 C 6 6 C 18 6 C 18 0 C 18 -6 C 12 -12 C 6 -18 C 0 -12 C -6 -18 C -12 -12 C
-18 -6 C -18 0 C -18 6 C -6 6 C -6 12 C -18 -6 4053 1062 L -12 -18 C -6 -30 C 0 -18 C 6 -30 C 12 -18 C 18 -6 C 12 0 C 18 6 C 12 18 C
6 30 C 0 18 C -6 30 C -12 18 C -18 6 C -12 0 C -18 -6 4173 1062 L -12 -18 C -6 -30 C 0 -18 C 6 -30 C 12 -18 C 18 -6 C 12 0 C 18 6 C
12 18 C 6 30 C 0 18 C -6 30 C -12 18 C -18 6 C -12 0 C -18 -6 5112 1062 L -12 -18 C -6 -30 C 0 -18 C 6 -30 C 12 -18 C 18 -6 C 12 0 C
18 6 C 12 18 C 6 30 C 0 18 C -6 30 C -12 18 C -18 6 C -12 0 C -60 0 6165 1062 L -6 -54 C 6 6 C 18 6 C 18 0 C 18 -6 C 12 -12 C
6 -18 C 0 -12 C -6 -18 C -12 -12 C -18 -6 C -18 0 C -18 6 C -6 6 C -6 12 C -18 -6 6249 1062 L -12 -18 C -6 -30 C 0 -18 C 6 -30 C
12 -18 C 18 -6 C 12 0 C 18 6 C 12 18 C 6 30 C 0 18 C -6 30 C -12 18 C -18 6 C -12 0 C -18 -6 6369 1062 L -12 -18 C -6 -30 C 0 -18 C
6 -30 C 12 -18 C 18 -6 C 12 0 C 18 6 C 12 18 C 6 30 C 0 18 C -6 30 C -12 18 C -18 6 C -12 0 C 12 6 7189 1038 L 18 18 C 0 -126 C
-18 -6 7327 1062 L -12 -18 C -6 -30 C 0 -18 C 6 -30 C 12 -18 C 18 -6 C 12 0 C 18 6 C 12 18 C 6 30 C 0 18 C -6 30 C -12 18 C -18 6 C
-12 0 C -18 -6 7447 1062 L -12 -18 C -6 -30 C 0 -18 C 6 -30 C 12 -18 C 18 -6 C 12 0 C 18 6 C 12 18 C 6 30 C 0 18 C -6 30 C -12 18 C
-18 6 C -12 0 C -18 -6 7567 1062 L -12 -18 C -6 -30 C 0 -18 C 6 -30 C 12 -18 C 18 -6 C 12 0 C 18 6 C 12 18 C 6 30 C 0 18 C -6 30 C
-12 18 C -18 6 C -12 0 C 12 6 8326 1038 L 18 18 C 0 -126 C -60 0 8500 1062 L -6 -54 C 6 6 C 18 6 C 18 0 C 18 -6 C 12 -12 C 6 -18 C
0 -12 C -6 -18 C -12 -12 C -18 -6 C -18 0 C -18 6 C -6 6 C -6 12 C -18 -6 8584 1062 L -12 -18 C -6 -30 C 0 -18 C 6 -30 C 12 -18 C
18 -6 C 12 0 C 18 6 C 12 18 C 6 30 C 0 18 C -6 30 C -12 18 C -18 6 C -12 0 C -18 -6 8704 1062 L -12 -18 C -6 -30 C 0 -18 C 6 -30 C
12 -18 C 18 -6 C 12 0 C 18 6 C 12 18 C 6 30 C 0 18 C -6 30 C -12 18 C -18 6 C -12 0 C 90 0 975 1757 L 45 0 975 2466 L
90 0 975 3176 L 45 0 975 3885 L 90 0 975 4594 L 45 0 975 5303 L 90 0 975 6013 L 0 108 784 1374 L -6 0 742 1530 L -12 6 C -6 6 C
-6 12 C 0 24 C 6 12 C 6 6 C 12 6 C 12 0 C 12 -6 C 18 -12 C 60 -60 C 0 84 C 84 84 742 1650 L 84 -84 742 1734 L -6 12 736 1794 L
-18 18 C 126 0 C 6 -18 712 1932 L 18 -12 C 30 -6 C 18 0 C 30 6 C 18 12 C 6 18 C 0 12 C -6 18 C -18 12 C -30 6 C -18 0 C -30 -6 C
-18 -12 C -6 -18 C 0 -12 C 0 81 702 2016 L 0 -45 648 2183 L 40 -5 C -4 5 C -5 13 C 0 14 C 5 13 C 9 9 C 13 5 C 9 0 C 14 -5 C 9 -9 C
4 -13 C 0 -14 C -4 -13 C -5 -5 C -9 -4 C 6 -18 712 3170 L 18 -12 C 30 -6 C 18 0 C 30 6 C 18 12 C 6 18 C 0 12 C -6 18 C -18 12 C
-30 6 C -18 0 C -30 -6 C -18 -12 C -6 -18 C 0 -12 C -6 0 742 4289 L -12 6 C -6 6 C -6 12 C 0 24 C 6 12 C 6 6 C 12 6 C 12 0 C 12 -6 C
18 -12 C 60 -60 C 0 84 C 84 84 742 4409 L 84 -84 742 4493 L -6 12 736 4553 L -18 18 C 126 0 C 6 -18 712 4691 L 18 -12 C 30 -6 C
18 0 C 30 6 C 18 12 C 6 18 C 0 12 C -6 18 C -18 12 C -30 6 C -18 0 C -30 -6 C -18 -12 C -6 -18 C 0 -12 C 0 81 702 4775 L
0 -45 648 4942 L 40 -5 C -4 5 C -5 13 C 0 14 C 5 13 C 9 9 C 13 5 C 9 0 C 14 -5 C 9 -9 C 4 -13 C 0 -14 C -4 -13 C -5 -5 C -9 -4 C
84 -60 712 5762 L 0 90 C 126 0 712 5762 L 84 84 742 5828 L 84 -84 742 5912 L -6 12 736 5972 L -18 18 C 126 0 C 6 -18 712 6110 L
18 -12 C 30 -6 C 18 0 C 30 6 C 18 12 C 6 18 C 0 12 C -6 18 C -18 12 C -30 6 C -18 0 C -30 -6 C -18 -12 C -6 -18 C 0 -12 C
0 81 702 6194 L 0 -45 648 6360 L 40 -4 C -4 4 C -5 14 C 0 13 C 5 14 C 9 9 C 13 4 C 9 0 C 14 -4 C 9 -9 C 4 -14 C 0 -13 C -4 -14 C
-5 -4 C -9 -5 C
0 5459 9261 1170 L -48 0 9261 1232 L -48 0 9261 1510 L -97 0 9261 1787 L 0 108 9461 1405 L 0 -60 9389 1627 L 54 -6 C -6 6 C -6 18 C
0 18 C 6 18 C 12 12 C 18 6 C 12 0 C 18 -6 C 12 -12 C 6 -18 C 0 -18 C -6 -18 C -6 -6 C -12 -6 C 84 84 9419 1681 L 84 -84 9419 1765 L
-6 12 9413 1825 L -18 18 C 126 0 C 6 -18 9389 1963 L 18 -12 C 30 -6 C 18 0 C 30 6 C 18 12 C 6 18 C 0 12 C -6 18 C -18 12 C -30 6 C
-18 0 C -30 -6 C -18 -12 C -6 -18 C 0 -12 C 0 81 9378 2047 L 0 50 9324 2168 L 36 -27 C 0 13 C 5 9 C 4 5 C 14 4 C 9 0 C 13 -4 C
9 -9 C 5 -14 C 0 -13 C -5 -14 C -4 -4 C -9 -5 C -48 0 9261 2065 L -48 0 9261 2343 L -48 0 9261 2620 L -48 0 9261 2898 L
-97 0 9261 3176 L 6 -18 9389 3170 L 18 -12 C 30 -6 C 18 0 C 30 6 C 18 12 C 6 18 C 0 12 C -6 18 C -18 12 C -30 6 C -18 0 C -30 -6 C
-18 -12 C -6 -18 C 0 -12 C -48 0 9261 3453 L -48 0 9261 3731 L -48 0 9261 4009 L -48 0 9261 4286 L -97 0 9261 4564 L
0 -60 9389 4325 L 54 -6 C -6 6 C -6 18 C 0 18 C 6 18 C 12 12 C 18 6 C 12 0 C 18 -6 C 12 -12 C 6 -18 C 0 -18 C -6 -18 C -6 -6 C
-12 -6 C 84 84 9419 4379 L 84 -84 9419 4463 L -6 12 9413 4523 L -18 18 C 126 0 C 6 -18 9389 4661 L 18 -12 C 30 -6 C 18 0 C 30 6 C
18 12 C 6 18 C 0 12 C -6 18 C -18 12 C -30 6 C -18 0 C -30 -6 C -18 -12 C -6 -18 C 0 -12 C 0 81 9378 4745 L 0 49 9324 4867 L
36 -27 C 0 14 C 5 9 C 4 4 C 14 5 C 9 0 C 13 -5 C 9 -9 C 5 -13 C 0 -14 C -5 -13 C -4 -5 C -9 -4 C -48 0 9261 4842 L -48 0 9261 5119 L
-48 0 9261 5397 L -48 0 9261 5675 L -97 0 9261 5952 L 6 -18 9389 5796 L 18 -12 C 30 -6 C 18 0 C 30 6 C 18 12 C 6 18 C 0 12 C -6 18 C
-18 12 C -30 6 C -18 0 C -30 -6 C -18 -12 C -6 -18 C 0 -12 C 6 -6 9503 5892 L 6 6 C -6 6 C -6 -6 C 6 -18 9389 5976 L 18 -12 C
30 -6 C 18 0 C 30 6 C 18 12 C 6 18 C 0 12 C -6 18 C -18 12 C -30 6 C -18 0 C -30 -6 C -18 -12 C -6 -18 C 0 -12 C -6 12 9413 6078 L
-18 18 C 126 0 C -48 0 9261 6230 L -48 0 9261 6508 L
61 0 9688 2730 L 0 54 9688 2730 L 6 18 C 6 6 C 12 6 C 12 0 C 12 -6 C 6 -6 C 6 -18 C 0 -54 C 1 0 9748 2772 L -7 -3 9749 2919 L
-6 -6 C -6 -12 C 0 -18 C 6 -12 C 12 -12 C 1 -1 C -12 -6 9748 3024 L -6 -18 C 0 -18 C 6 -18 C 12 -6 C 1 0 C 6 6 9688 3060 L -6 6 C
-6 -6 C 6 -6 C 19 0 9730 3066 L 61 0 9688 3180 L -12 -12 9748 3180 L -6 -12 C 0 -18 C 6 -12 C 12 -12 C 1 -1 C 19 0 9730 3228 L
19 0 9730 3294 L 19 0 9730 3408 L -12 -12 9748 3408 L -6 -12 C 0 -18 C 6 -12 C 12 -12 C 1 -1 C 61 0 9688 3456 L 6 6 9688 3594 L
-6 6 C -6 -6 C 6 -6 C 19 0 9730 3600 L 19 0 9730 3648 L -13 14 9749 3652 L -6 12 C 0 18 C 6 12 C 13 4 C 19 0 9730 3858 L
-12 12 9748 3858 L -6 12 C 0 18 C 6 11 C 12 12 C 1 1 C 19 0 9730 3971 L 19 0 9730 4037 L 61 0 9688 4085 L -12 -6 9748 4193 L
-6 -18 C 0 -18 C 6 -18 C 12 -6 C 1 1 C -7 -4 9749 4299 L -6 -6 C -6 -12 C 0 -18 C 6 -12 C 12 -12 C 1 0 C 19 0 9730 4439 L
-12 12 9748 4439 L -6 12 C 0 18 C 6 12 C 12 12 C 1 1 C -7 -4 9749 4617 L -6 -6 C -6 -12 C 0 -18 C 6 -12 C 12 -12 C 1 0 C
19 0 9730 4661 L -1 0 9749 4667 L -12 12 C -6 12 C 0 18 C 6 6 9688 4733 L -6 6 C -6 -6 C 6 -6 C 19 0 9730 4739 L 6 -12 9730 4811 L
12 -12 C 1 0 C -1 -1 9749 4854 L -12 -12 C -6 -12 C 0 -18 C 61 0 9688 4967 L -12 -12 9748 4967 L -6 -12 C 0 -18 C 6 -12 C 12 -12 C
1 0 C -12 -6 9748 5075 L -6 -18 C 0 -18 C 6 -18 C 12 -6 C 1 1 C
0 -96 3171 7145 L -6 -18 C -6 -6 C -12 -6 C -12 0 C -12 6 C -6 6 C -6 18 C 0 12 C 12 6 3231 7121 L 18 18 C 0 -126 C
-60 -126 3417 7145 L 84 0 3333 7145 L -60 0 3525 7145 L -6 -54 C 6 6 C 18 6 C 18 0 C 18 -6 C 12 -12 C 6 -18 C 0 -12 C -6 -18 C
-12 -12 C -18 -6 C -18 0 C -18 6 C -6 6 C -6 12 C 12 6 3591 7121 L 18 18 C 0 -126 C 108 0 3699 7073 L 0 6 3855 7115 L 6 12 C 6 6 C
12 6 C 24 0 C 12 -6 C 6 -6 C 6 -12 C 0 -12 C -6 -12 C -12 -18 C -60 -60 C 84 0 C -18 -6 3999 7145 L -6 -12 C 0 -12 C 6 -12 C 12 -6 C
24 -6 C 18 -6 C 12 -12 C 6 -12 C 0 -18 C -6 -12 C -6 -6 C -18 -6 C -24 0 C -18 6 C -6 6 C -6 12 C 0 18 C 6 12 C 12 12 C 18 6 C
24 6 C 12 6 C 6 12 C 0 12 C -6 12 C -18 6 C -24 0 C -60 0 4161 7145 L -6 -54 C 6 6 C 18 6 C 18 0 C 18 -6 C 12 -12 C 6 -18 C 0 -12 C
-6 -18 C -12 -12 C -18 -6 C -18 0 C -18 6 C -6 6 C -6 12 C -60 -126 4293 7145 L 84 0 4209 7145 L -12 -12 4473 7169 L -12 -18 C
-12 -24 C -6 -30 C 0 -24 C 6 -30 C 12 -24 C 12 -18 C 12 -12 C 30 -126 4503 7145 L -30 -126 4563 7145 L 30 -126 4563 7145 L
-30 -126 4623 7145 L 0 -84 4659 7103 L 6 18 4659 7067 L 12 12 C 12 6 C 18 0 C 0 -84 4737 7103 L 18 18 4737 7079 L 12 6 C 18 0 C
12 -6 C 6 -18 C 0 -60 C 18 18 4803 7079 L 12 6 C 18 0 C 12 -6 C 6 -18 C 0 -60 C -6 12 4977 7085 L -18 6 C -18 0 C -18 -6 C -6 -12 C
6 -12 C 12 -6 C 30 -6 C 12 -6 C 6 -12 C 0 -6 C -6 -12 C -18 -6 C -18 0 C -18 6 C -6 12 C 108 0 5115 7091 L 108 0 5115 7055 L
66 0 5373 7145 L -36 -48 C 18 0 C 12 -6 C 6 -6 C 6 -18 C 0 -12 C -6 -18 C -12 -12 C -18 -6 C -18 0 C -18 6 C -6 6 C -6 12 C
-6 -6 5493 7031 L 6 -6 C 6 6 C -6 6 C -18 -6 5577 7145 L -12 -18 C -6 -30 C 0 -18 C 6 -30 C 12 -18 C 18 -6 C 12 0 C 18 6 C 12 18 C
6 30 C 0 18 C -6 30 C -12 18 C -18 6 C -12 0 C 12 6 5679 7121 L 18 18 C 0 -126 C -60 -126 5865 7145 L 84 0 5781 7145 L
-36 -126 6021 7103 L -6 -30 6015 7079 L 0 -18 C 12 -12 C 12 0 C 12 6 C 12 12 C 12 24 C -12 -42 6081 7103 L -6 -24 C 0 -12 C 6 -6 C
12 0 C 12 12 C 6 12 C -6 12 6189 7085 L -18 6 C -18 0 C -18 -6 C -6 -12 C 6 -12 C 12 -6 C 30 -6 C 12 -6 C 6 -12 C 0 -6 C -6 -12 C
-18 -6 C -18 0 C -18 6 C -6 12 C 12 -12 6225 7169 L 12 -18 C 12 -24 C 6 -30 C 0 -24 C -6 -30 C -12 -24 C -12 -18 C -12 -12 C
0 -126 6411 7103 L 12 12 6411 7085 L 12 6 C 18 0 C 12 -6 C 12 -12 C 6 -18 C 0 -12 C -6 -18 C -12 -12 C -12 -6 C -18 0 C -12 6 C
-12 12 C -12 -6 6549 7103 L -12 -12 C -6 -18 C 0 -12 C 6 -18 C 12 -12 C 12 -6 C 18 0 C 12 6 C 12 12 C 6 18 C 0 12 C -6 18 C -12 12 C
-12 6 C -18 0 C -6 12 6699 7085 L -18 6 C -18 0 C -18 -6 C -6 -12 C 6 -12 C 12 -6 C 30 -6 C 12 -6 C 6 -12 C 0 -6 C -6 -12 C -18 -6 C
-18 0 C -18 6 C -6 12 C 0 -102 6747 7145 L 6 -18 C 12 -6 C 12 0 C 42 0 6729 7103 L 108 0 6813 7073 L -12 0 7005 7145 L -12 -6 C
-6 -18 C 0 -102 C 42 0 6957 7103 L 6 -6 7035 7145 L 6 6 C -6 6 C -6 -6 C 0 -84 7041 7103 L 0 -102 7095 7145 L 6 -18 C 12 -6 C 12 0 C
42 0 7077 7103 L 0 -126 4491 672 L 48 -126 4491 672 L -48 -126 4587 672 L 0 -126 4587 672 L 0 -96 4683 672 L -6 -18 C -6 -6 C
-12 -6 C -12 0 C -12 6 C -6 6 C -6 18 C 0 12 C 0 -126 4731 672 L 42 0 4731 672 L 18 -6 C 12 -12 C 6 -12 C 6 -18 C 0 -30 C -6 -18 C
-6 -12 C -12 -12 C -18 -6 C -42 0 C 108 0 4857 600 L -60 0 5079 672 L -6 -54 C 6 6 C 18 6 C 18 0 C 18 -6 C 12 -12 C 6 -18 C 0 -12 C
-6 -18 C -12 -12 C -18 -6 C -18 0 C -18 6 C -6 6 C -6 12 C -60 0 5199 672 L -6 -54 C 6 6 C 18 6 C 18 0 C 18 -6 C 12 -12 C 6 -18 C
0 -12 C -6 -18 C -12 -12 C -18 -6 C -18 0 C -18 6 C -6 6 C -6 12 C 0 6 5253 642 L 6 12 C 6 6 C 12 6 C 24 0 C 12 -6 C 6 -6 C 6 -12 C
0 -12 C -6 -12 C -12 -18 C -60 -60 C 84 0 C -6 12 5445 654 L -18 6 C -12 0 C -18 -6 C -12 -18 C -6 -30 C 0 -30 C 6 -24 C 12 -12 C
18 -6 C 6 0 C 18 6 C 12 12 C 6 18 C 0 6 C -6 18 C -12 12 C -18 6 C -6 0 C -18 -6 C -12 -12 C -6 -18 C -60 -84 5547 672 L 90 0 C
0 -126 5547 672 L -6 -6 5619 558 L 6 -6 C 6 6 C -6 6 C 66 0 5679 672 L -36 -48 C 18 0 C 12 -6 C 6 -6 C 6 -18 C 0 -12 C -6 -18 C
-12 -12 C -18 -6 C -18 0 C -18 6 C -6 6 C -6 12 C 126 0 420 2895 L 0 54 420 2895 L 6 18 C 6 6 C 12 6 C 18 0 C 12 -6 C 6 -6 C 6 -18 C
0 -54 C 6 -12 462 3045 L 12 -12 C 18 -6 C 12 0 C 18 6 C 12 12 C 6 12 C 0 18 C -6 12 C -12 12 C -18 6 C -12 0 C -18 -6 C -12 -12 C
-6 -12 C 0 -18 C -12 -6 480 3195 L -6 -18 C 0 -18 C 6 -18 C 12 -6 C 12 6 C 6 12 C 6 30 C 6 12 C 12 6 C 6 0 C 12 -6 C 6 -18 C 0 -18 C
-6 -18 C -12 -6 C 102 0 420 3243 L 18 6 C 6 12 C 0 12 C 0 42 462 3225 L 0 -12 420 3345 L 6 -12 C 18 -6 C 102 0 C 0 42 462 3297 L
6 6 420 3375 L -6 6 C -6 -6 C 6 -6 C 84 0 462 3381 L 102 0 420 3435 L 18 6 C 6 12 C 0 12 C 0 42 462 3417 L 126 0 420 3597 L
0 54 420 3597 L 6 18 C 6 6 C 12 6 C 12 0 C 12 -6 C 6 -6 C 6 -18 C 0 -54 C 66 42 480 3639 L 0 72 498 3717 L -12 0 C -12 -6 C -6 -6 C
-6 -12 C 0 -18 C 6 -12 C 12 -12 C 18 -6 C 12 0 C 18 6 C 12 12 C 6 12 C 0 18 C -6 12 C -12 12 C -12 -6 480 3891 L -6 -18 C 0 -18 C
6 -18 C 12 -6 C 12 6 C 6 12 C 6 30 C 6 12 C 12 6 C 6 0 C 12 -6 C 6 -18 C 0 -18 C -6 -18 C -12 -6 C 6 6 420 3926 L -6 6 C -6 -6 C
6 -6 C 84 0 462 3932 L 126 0 420 4046 L -12 -12 480 4046 L -6 -12 C 0 -18 C 6 -12 C 12 -12 C 18 -6 C 12 0 C 18 6 C 12 12 C 6 12 C
0 18 C -6 12 C -12 12 C 60 0 462 4094 L 18 6 C 6 12 C 0 18 C -6 12 C -18 18 C 84 0 462 4160 L 84 0 462 4274 L -12 -12 480 4274 L
-6 -12 C 0 -18 C 6 -12 C 12 -12 C 18 -6 C 12 0 C 18 6 C 12 12 C 6 12 C 0 18 C -6 12 C -12 12 C 126 0 420 4322 L 12 -12 396 4508 L
18 -12 C 24 -12 C 30 -6 C 24 0 C 30 6 C 24 12 C 18 12 C 12 12 C -12 -6 480 4610 L -6 -18 C 0 -18 C 6 -18 C 12 -6 C 12 6 C 6 12 C
6 30 C 6 12 C 12 6 C 6 0 C 12 -6 C 6 -18 C 0 -18 C -6 -18 C -12 -6 C 0 72 498 4646 L -12 0 C -12 -6 C -6 -6 C -6 -12 C 0 -18 C
6 -12 C 12 -12 C 18 -6 C 12 0 C 18 6 C 12 12 C 6 12 C 0 18 C -6 12 C -12 12 C -12 -12 480 4826 L -6 -12 C 0 -18 C 6 -12 C 12 -12 C
18 -6 C 12 0 C 18 6 C 12 12 C 6 12 C 0 18 C -6 12 C -12 12 C 12 12 396 4862 L 18 12 C 24 12 C 30 6 C 24 0 C 30 -6 C 24 -12 C
18 -12 C 12 -12 C
1024 0 0 K 0 1024 0 K
/M16 {MB -4 -4 moveto 0 8 rlineto 8 0 rlineto 0 -8                              
rlineto closepath fill ME} bind def                                             
/MFAC      5.999 def    
1665 2874 M16 1675 3459 M16 1681 2835 M16 1688 3124 M16 1695 3678 M16 1722 3286 M16 1756 2671 M16 1770 3510 M16 1829 3403 M16
1913 2839 M16 2164 3243 M16 2303 3308 M16 2403 3805 M16 2484 3295 M16 2555 3999 M16 2586 3766 M16 2689 3429 M16 2713 3335 M16
2811 3467 M16 2934 2511 M16 3076 2945 M16 3163 2888 M16 3378 2661 M16 3414 2699 M16 3503 3764 M16 3553 3025 M16 3600 2631 M16
3775 2966 M16 3845 3170 M16 3909 3211 M16 3972 3159 M16 4088 2478 M16 4213 3105 M16 4349 2361 M16 4363 3154 M16 4395 4125 M16
4413 3151 M16 4428 3255 M16 4476 3069 M16 4478 4120 M16 4528 3042 M16 4544 3423 M16 4603 3271 M16 4642 3286 M16 4666 3550 M16
4685 3218 M16 4728 3260 M16 4730 3469 M16 4742 3172 M16 4796 3404 M16 4819 1880 M16 4912 3368 M16 4928 2906 M16 4937 3310 M16
5018 3127 M16 5086 3304 M16 5098 3682 M16 5129 3069 M16 5157 3142 M16 5170 3322 M16 5218 3326 M16 5218 3542 M16 5272 3197 M16
5309 3346 M16 5347 1625 M16 5393 3226 M16 5431 4819 M16 5477 2393 M16 5542 3399 M16 5545 2542 M16 5572 3143 M16 5610 2568 M16
5642 3139 M16 5719 3116 M16 5742 3020 M16 5794 3561 M16 5808 3437 M16 5849 3131 M16 5905 3121 M16 5939 3031 M16 5971 2941 M16
5987 2989 M16 6023 3062 M16 6037 4312 M16 6046 2867 M16 6066 3430 M16 6094 3462 M16 6096 2978 M16 6143 3112 M16 6196 3191 M16
6223 3384 M16 6230 1918 M16 6289 2966 M16 6300 2748 M16 6325 3231 M16 6329 3112 M16 6339 2777 M16 6420 3393 M16 6448 3153 M16
6509 3253 M16 6563 3597 M16 6590 3346 M16 6620 3332 M16 6627 2570 M16 6638 3154 M16 6649 2936 M16 6677 3092 M16 6683 3374 M16
6740 3194 M16 6747 3212 M16 6806 3131 M16 6908 3090 M16 6951 3180 M16 7055 3225 M16 7087 3373 M16 7108 1930 M16 7128 3305 M16
7146 4802 M16 7148 3272 M16 7182 3372 M16 7194 3056 M16 7239 2993 M16 7287 3061 M16 7391 3135 M16 7561 3097 M16 7654 6174 M16
7720 2790 M16 7766 3463 M16 7861 2185 M16 7922 2797 M16 7927 3314 M16 8049 3026 M16 8095 2764 M16 8115 2670 M16 8131 2982 M16
8187 2782 M16 8199 2730 M16 8249 3383 M16 8287 3516 M16 8414 3286 M16 8451 3313 M16 8500 2961 M16 8505 3213 M16 8571 3179 M16
45 0 1643 2702 L 0 343 1665 2702 L 45 0 1643 3045 L 45 0 1652 3291 L 0 336 1675 3291 L 45 0 1652 3627 L 45 0 1659 2624 L
0 421 1681 2624 L 45 0 1659 3045 L 45 0 1666 2938 L 0 372 1688 2938 L 45 0 1666 3310 L 45 0 1672 3265 L 0 826 1695 3265 L
45 0 1672 4091 L 45 0 1700 2914 L 0 743 1722 2914 L 45 0 1700 3657 L 45 0 1734 2207 L 0 929 1756 2207 L 45 0 1734 3136 L
45 0 1747 3045 L 0 930 1770 3045 L 45 0 1747 3975 L 45 0 1806 3117 L 0 573 1829 3117 L 45 0 1806 3690 L 45 0 1890 2383 L
0 912 1913 2383 L 45 0 1890 3295 L 45 0 2142 2904 L 0 679 2164 2904 L 45 0 2142 3583 L 45 0 2280 2785 L 0 1046 2303 2785 L
45 0 2280 3831 L 45 0 2380 3441 L 0 728 2403 3441 L 45 0 2380 4169 L 45 0 2462 3048 L 0 494 2484 3048 L 45 0 2462 3542 L
45 0 2532 3515 L 0 968 2555 3515 L 45 0 2532 4483 L 45 0 2564 3414 L 0 705 2586 3414 L 45 0 2564 4119 L 45 0 2666 3139 L
0 581 2689 3139 L 45 0 2666 3720 L 45 0 2691 2956 L 0 757 2713 2956 L 45 0 2691 3713 L 45 0 2789 3100 L 0 734 2811 3100 L
45 0 2789 3834 L 45 0 2911 2093 L 0 836 2934 2093 L 45 0 2911 2929 L 45 0 3054 2625 L 0 641 3076 2625 L 45 0 3054 3266 L
45 0 3140 2506 L 0 765 3163 2506 L 45 0 3140 3271 L 45 0 3356 2264 L 0 795 3378 2264 L 45 0 3356 3059 L 45 0 3392 2406 L
0 587 3414 2406 L 45 0 3392 2993 L 45 0 3480 3374 L 0 781 3503 3374 L 45 0 3480 4155 L 45 0 3530 2804 L 0 442 3553 2804 L
45 0 3530 3246 L 45 0 3578 2318 L 0 625 3600 2318 L 45 0 3578 2943 L 45 0 3753 2802 L 0 327 3775 2802 L 45 0 3753 3129 L
45 0 3823 2949 L 0 441 3845 2949 L 45 0 3823 3390 L 45 0 3886 3083 L 0 256 3909 3083 L 45 0 3886 3339 L 45 0 3950 2912 L
0 493 3972 2912 L 45 0 3950 3405 L 45 0 4066 2199 L 0 557 4088 2199 L 45 0 4066 2756 L 45 0 4190 2880 L 0 450 4213 2880 L
45 0 4190 3330 L 45 0 4327 1248 L 0 2227 4349 1248 L 45 0 4327 3475 L 45 0 4340 2944 L 0 420 4363 2944 L 45 0 4340 3364 L
45 0 4372 2617 L 0 3016 4395 2617 L 45 0 4372 5633 L 45 0 4390 2929 L 0 444 4413 2929 L 45 0 4390 3373 L 45 0 4406 2994 L
0 523 4428 2994 L 45 0 4406 3517 L 45 0 4454 2900 L 0 339 4476 2900 L 45 0 4454 3239 L 45 0 4456 3209 L 0 1821 4478 3209 L
45 0 4456 5030 L 45 0 4506 2914 L 0 257 4528 2914 L 45 0 4506 3171 L 45 0 4522 3157 L 0 533 4544 3157 L 45 0 4522 3690 L
45 0 4581 3083 L 0 375 4603 3083 L 45 0 4581 3458 L 45 0 4619 3041 L 0 490 4642 3041 L 45 0 4619 3531 L 45 0 4644 2354 L
0 2392 4666 2354 L 45 0 4644 4746 L 45 0 4662 3007 L 0 421 4685 3007 L 45 0 4662 3428 L 45 0 4705 3041 L 0 438 4728 3041 L
45 0 4705 3479 L 45 0 4708 3263 L 0 411 4730 3263 L 45 0 4708 3674 L 45 0 4719 2905 L 0 535 4742 2905 L 45 0 4719 3440 L
45 0 4773 3157 L 0 494 4796 3157 L 45 0 4773 3651 L 0 2045 4819 1170 L 45 0 4796 3215 L 45 0 4889 3178 L 0 380 4912 3178 L
45 0 4889 3558 L 45 0 4905 2123 L 0 1566 4928 2123 L 45 0 4905 3689 L 45 0 4914 3119 L 0 382 4937 3119 L 45 0 4914 3501 L
45 0 4996 2969 L 0 316 5018 2969 L 45 0 4996 3285 L 45 0 5064 3051 L 0 505 5086 3051 L 45 0 5064 3556 L 45 0 5075 3191 L
0 982 5098 3191 L 45 0 5075 4173 L 45 0 5107 2876 L 0 386 5129 2876 L 45 0 5107 3262 L 45 0 5134 2970 L 0 343 5157 2970 L
45 0 5134 3313 L 45 0 5148 3119 L 0 405 5170 3119 L 45 0 5148 3524 L 45 0 5195 3186 L 0 280 5218 3186 L 45 0 5195 3466 L
45 0 5196 2665 L 0 1753 5218 2665 L 45 0 5196 4418 L 45 0 5250 3020 L 0 355 5272 3020 L 45 0 5250 3375 L 45 0 5286 3049 L
0 595 5309 3049 L 45 0 5286 3644 L 0 1549 5347 1170 L 45 0 5325 2719 L 45 0 5370 2812 L 0 829 5393 2812 L 45 0 5370 3641 L
45 0 5409 3986 L 0 1666 5431 3986 L 45 0 5409 5652 L 0 3733 5477 1170 L 45 0 5454 4903 L 45 0 5520 3027 L 0 745 5542 3027 L
45 0 5520 3772 L 0 3001 5545 1170 L 45 0 5522 4171 L 45 0 5549 3075 L 0 136 5572 3075 L 45 0 5549 3211 L 45 0 5588 1947 L
0 1242 5610 1947 L 45 0 5588 3189 L 45 0 5620 2981 L 0 317 5642 2981 L 45 0 5620 3298 L 45 0 5697 3009 L 0 213 5719 3009 L
45 0 5697 3222 L 45 0 5719 2837 L 0 367 5742 2837 L 45 0 5719 3204 L 45 0 5771 2594 L 0 1933 5794 2594 L 45 0 5771 4527 L
45 0 5785 3199 L 0 477 5808 3199 L 45 0 5785 3676 L 45 0 5826 2933 L 0 396 5849 2933 L 45 0 5826 3329 L 45 0 5883 2934 L
0 375 5905 2934 L 45 0 5883 3309 L 45 0 5917 2862 L 0 339 5939 2862 L 45 0 5917 3201 L 45 0 5949 2591 L 0 701 5971 2591 L
45 0 5949 3292 L 45 0 5964 2795 L 0 389 5987 2795 L 45 0 5964 3184 L 45 0 6001 2798 L 0 529 6023 2798 L 45 0 6001 3327 L
45 0 6014 3326 L 0 1971 6037 3326 L 45 0 6014 5297 L 45 0 6023 2628 L 0 478 6046 2628 L 45 0 6023 3106 L 45 0 6044 3164 L
0 532 6066 3164 L 45 0 6044 3696 L 45 0 6071 3250 L 0 424 6094 3250 L 45 0 6071 3674 L 45 0 6074 2331 L 0 1294 6096 2331 L
45 0 6074 3625 L 45 0 6121 2922 L 0 381 6143 2922 L 45 0 6121 3303 L 45 0 6173 2384 L 0 1614 6196 2384 L 45 0 6173 3998 L
45 0 6200 3162 L 0 444 6223 3162 L 45 0 6200 3606 L 0 2764 6230 1170 L 45 0 6207 3934 L 45 0 6266 1757 L 0 2418 6289 1757 L
45 0 6266 4175 L 44 0 6278 2487 L 0 521 6300 2487 L 44 0 6278 3008 L 45 0 6302 1999 L 0 2465 6325 1999 L 45 0 6302 4464 L
45 0 6307 2950 L 0 323 6329 2950 L 45 0 6307 3273 L 45 0 6316 1771 L 0 2011 6339 1771 L 45 0 6316 3782 L 45 0 6398 3191 L
0 404 6420 3191 L 45 0 6398 3595 L 45 0 6425 2075 L 0 2155 6448 2075 L 45 0 6425 4230 L 45 0 6486 3101 L 0 305 6509 3101 L
45 0 6486 3406 L 45 0 6541 2724 L 0 1747 6563 2724 L 45 0 6541 4471 L 45 0 6568 3120 L 0 453 6590 3120 L 45 0 6568 3573 L
45 0 6597 3179 L 0 306 6620 3179 L 45 0 6597 3485 L 45 0 6604 1529 L 0 2083 6627 1529 L 45 0 6604 3612 L 45 0 6615 3023 L
0 261 6638 3023 L 45 0 6615 3284 L 45 0 6627 2792 L 0 289 6649 2792 L 45 0 6627 3081 L 45 0 6654 2905 L 0 374 6677 2905 L
45 0 6654 3279 L 45 0 6661 3151 L 0 447 6683 3151 L 45 0 6661 3598 L 45 0 6718 3043 L 0 302 6740 3043 L 45 0 6718 3345 L
45 0 6724 2405 L 0 1615 6747 2405 L 45 0 6724 4020 L 45 0 6783 2964 L 0 335 6806 2964 L 45 0 6783 3299 L 45 0 6885 2853 L
0 475 6908 2853 L 45 0 6885 3328 L 45 0 6929 2971 L 0 418 6951 2971 L 45 0 6929 3389 L 45 0 7033 3049 L 0 352 7055 3049 L
45 0 7033 3401 L 45 0 7065 3140 L 0 465 7087 3140 L 45 0 7065 3605 L 0 1661 7108 1170 L 45 0 7085 2831 L 45 0 7106 3079 L
0 451 7128 3079 L 45 0 7106 3530 L 45 0 7124 3853 L 0 1898 7146 3853 L 45 0 7124 5751 L 45 0 7126 3090 L 0 364 7148 3090 L
45 0 7126 3454 L 45 0 7160 3149 L 0 445 7182 3149 L 45 0 7160 3594 L 45 0 7171 2783 L 0 546 7194 2783 L 45 0 7171 3329 L
45 0 7217 2750 L 0 485 7239 2750 L 45 0 7217 3235 L 45 0 7264 2870 L 0 382 7287 2870 L 45 0 7264 3252 L 45 0 7368 2576 L
0 1117 7391 2576 L 45 0 7368 3693 L 45 0 7539 2296 L 0 1602 7561 2296 L 45 0 7539 3898 L 45 0 7632 4929 L 0 1700 7654 4929 L
45 0 7698 2566 L 0 448 7720 2566 L 45 0 7698 3014 L 45 0 7743 2460 L 0 2006 7766 2460 L 45 0 7743 4466 L 0 2403 7861 1170 L
45 0 7838 3573 L 45 0 7900 1985 L 0 1625 7922 1985 L 45 0 7900 3610 L 45 0 7904 3076 L 0 476 7927 3076 L 45 0 7904 3552 L
45 0 8027 2797 L 0 458 8049 2797 L 45 0 8027 3255 L 45 0 8072 2114 L 0 1301 8095 2114 L 45 0 8072 3415 L 45 0 8092 2261 L
0 818 8115 2261 L 45 0 8092 3079 L 45 0 8108 2760 L 0 445 8131 2760 L 45 0 8108 3205 L 45 0 8165 1994 L 0 1575 8187 1994 L
45 0 8165 3569 L 45 0 8176 2493 L 0 474 8199 2493 L 45 0 8176 2967 L 45 0 8226 3176 L 0 413 8249 3176 L 45 0 8226 3589 L
45 0 8265 3340 L 0 352 8287 3340 L 45 0 8265 3692 L 45 0 8392 2724 L 0 1124 8414 2724 L 45 0 8392 3848 L 45 0 8428 3167 L
0 292 8451 3167 L 45 0 8428 3459 L 45 0 8478 2783 L 0 355 8500 2783 L 45 0 8478 3138 L 45 0 8483 1497 L 0 3433 8505 1497 L
45 0 8483 4930 L 45 0 8548 3046 L 0 266 8571 3046 L 45 0 8548 3312 L
1024 0 1024 K 0 1024 1024 K 0 0 0 K
PGPLOT restore showpage
%%PageTrailer
%%PageBoundingBox: 24 17 588 721
 
%%Trailer
%%BoundingBox: 24 17 588 721
%%DocumentFonts: 
%%Pages: 1
%%EOF
