%!PS-Adobe-3.0 EPSF-3.0
%%For: bperera
%%Title: PGPLOT PostScript plot
%%Creator: PGPLOT [PSDRIV 6.6]
%%CreationDate: 18-Jun-2016 10:23
%%BoundingBox: (atend)
%%DocumentFonts: (atend)
%%LanguageLevel: 1
%%Orientation: Landscape
%%Pages: (atend)
%%EndComments
%%BeginProlog
/L {moveto rlineto currentpoint stroke moveto} bind def
/C {rlineto currentpoint stroke moveto} bind def
/D {moveto 0 0 rlineto currentpoint stroke moveto} bind def
/LW {5 mul setlinewidth} bind def
/BP {newpath moveto} bind def
/LP /rlineto load def
/EP {rlineto closepath eofill} bind def
/MB {gsave translate MFAC dup scale 1 setlinewidth 2 setlinecap 0 setlinejoin newpath} bind def
/ME /grestore load def
/CC {0 360 arc stroke} bind def
/FC {0 360 arc fill} bind def
/G {1024 div setgray} bind def
/K {3 -1 roll 1024 div 3 -1 roll 1024 div 3 -1 roll 1024 div setrgbcolor} bind def
% Uncomment next line to convert color to grey shades
%/K {3 -1 roll 3413 div 3 -1 roll 1739 div 3 -1 roll 9309 div add add setgray} bind def
%%EndProlog
%%BeginSetup
/#copies 1 def
%%EndSetup
 
%%Page: 1 1
%%BeginPageSetup
/PGPLOT save def
0.072 0.072 scale
8149 250 translate 90 rotate
1 setlinejoin 1 setlinecap 1 LW 1
%%EndPageSetup
%%PageBoundingBox: (atend)
1024 1024 1024 K 1 LW 0 0 BP 9749 0 LP 0 7799 LP -9749 0 EP 0 0 0 K
8286 0 975 1170 L -8286 0 9261 6629 L 0 -5459 C 0 45 1239 1170 L 0 45 1537 1170 L 0 45 1836 1170 L 0 90 2134 1170 L 0 45 2432 1170 L
0 45 2731 1170 L 0 45 3029 1170 L 0 45 3328 1170 L 0 90 3626 1170 L 0 45 3924 1170 L 0 45 4223 1170 L 0 45 4521 1170 L
0 45 4820 1170 L 0 90 5118 1170 L 0 45 5417 1170 L 0 45 5715 1170 L 0 45 6013 1170 L 0 45 6312 1170 L 0 90 6610 1170 L
0 45 6909 1170 L 0 45 7207 1170 L 0 45 7505 1170 L 0 45 7804 1170 L 0 90 8102 1170 L 0 45 8401 1170 L 0 45 8699 1170 L
0 45 8997 1170 L 0 45 1239 6584 L 0 45 1537 6584 L 0 45 1836 6584 L 0 90 2134 6539 L 0 45 2432 6584 L 0 45 2731 6584 L
0 45 3029 6584 L 0 45 3328 6584 L 0 90 3626 6539 L 0 45 3924 6584 L 0 45 4223 6584 L 0 45 4521 6584 L 0 45 4820 6584 L
0 90 5118 6539 L 0 45 5417 6584 L 0 45 5715 6584 L 0 45 6013 6584 L 0 45 6312 6584 L 0 90 6610 6539 L 0 45 6909 6584 L
0 45 7207 6584 L 0 45 7505 6584 L 0 45 7804 6584 L 0 90 8102 6539 L 0 45 8401 6584 L 0 45 8699 6584 L 0 45 8997 6584 L
108 0 1900 990 L 12 6 2068 1038 L 18 18 C 0 -126 C -18 -6 2206 1062 L -12 -18 C -6 -30 C 0 -18 C 6 -30 C 12 -18 C 18 -6 C 12 0 C
18 6 C 12 18 C 6 30 C 0 18 C -6 30 C -12 18 C -18 6 C -12 0 C -18 -6 2326 1062 L -12 -18 C -6 -30 C 0 -18 C 6 -30 C 12 -18 C 18 -6 C
12 0 C 18 6 C 12 18 C 6 30 C 0 18 C -6 30 C -12 18 C -18 6 C -12 0 C 108 0 3452 990 L -60 0 3674 1062 L -6 -54 C 6 6 C 18 6 C 18 0 C
18 -6 C 12 -12 C 6 -18 C 0 -12 C -6 -18 C -12 -12 C -18 -6 C -18 0 C -18 6 C -6 6 C -6 12 C -18 -6 3758 1062 L -12 -18 C -6 -30 C
0 -18 C 6 -30 C 12 -18 C 18 -6 C 12 0 C 18 6 C 12 18 C 6 30 C 0 18 C -6 30 C -12 18 C -18 6 C -12 0 C -18 -6 5112 1062 L -12 -18 C
-6 -30 C 0 -18 C 6 -30 C 12 -18 C 18 -6 C 12 0 C 18 6 C 12 18 C 6 30 C 0 18 C -6 30 C -12 18 C -18 6 C -12 0 C -60 0 6580 1062 L
-6 -54 C 6 6 C 18 6 C 18 0 C 18 -6 C 12 -12 C 6 -18 C 0 -12 C -6 -18 C -12 -12 C -18 -6 C -18 0 C -18 6 C -6 6 C -6 12 C
-18 -6 6664 1062 L -12 -18 C -6 -30 C 0 -18 C 6 -30 C 12 -18 C 18 -6 C 12 0 C 18 6 C 12 18 C 6 30 C 0 18 C -6 30 C -12 18 C -18 6 C
-12 0 C 12 6 7958 1038 L 18 18 C 0 -126 C -18 -6 8096 1062 L -12 -18 C -6 -30 C 0 -18 C 6 -30 C 12 -18 C 18 -6 C 12 0 C 18 6 C
12 18 C 6 30 C 0 18 C -6 30 C -12 18 C -18 6 C -12 0 C -18 -6 8216 1062 L -12 -18 C -6 -30 C 0 -18 C 6 -30 C 12 -18 C 18 -6 C 12 0 C
18 6 C 12 18 C 6 30 C 0 18 C -6 30 C -12 18 C -18 6 C -12 0 C 45 0 975 1362 L 90 0 975 1640 L 45 0 975 1918 L 45 0 975 2196 L
45 0 975 2474 L 45 0 975 2752 L 90 0 975 3030 L 45 0 975 3308 L 45 0 975 3586 L 45 0 975 3865 L 45 0 975 4143 L 90 0 975 4421 L
45 0 975 4699 L 45 0 975 4977 L 45 0 975 5255 L 45 0 975 5533 L 90 0 975 5811 L 45 0 975 6089 L 45 0 975 6368 L 0 108 784 1257 L
-6 0 742 1413 L -12 6 C -6 6 C -6 12 C 0 24 C 6 12 C 6 6 C 12 6 C 12 0 C 12 -6 C 18 -12 C 60 -60 C 0 84 C 84 84 742 1533 L
84 -84 742 1617 L -6 12 736 1677 L -18 18 C 126 0 C 6 -18 712 1815 L 18 -12 C 30 -6 C 18 0 C 30 6 C 18 12 C 6 18 C 0 12 C -6 18 C
-18 12 C -30 6 C -18 0 C -30 -6 C -18 -12 C -6 -18 C 0 -12 C 0 81 702 1899 L 0 -45 648 2065 L 40 -4 C -4 4 C -5 14 C 0 13 C 5 14 C
9 9 C 13 4 C 9 0 C 14 -4 C 9 -9 C 4 -14 C 0 -13 C -4 -14 C -5 -4 C -9 -5 C 0 107 784 2774 L -6 12 736 2941 L -18 18 C 126 0 C
6 -18 712 3079 L 18 -12 C 30 -6 C 18 0 C 30 6 C 18 12 C 6 18 C 0 12 C -6 18 C -18 12 C -30 6 C -18 0 C -30 -6 C -18 -12 C -6 -18 C
0 -12 C 0 81 702 3163 L 0 -45 648 3330 L 40 -5 C -4 5 C -5 13 C 0 14 C 5 13 C 9 9 C 13 5 C 9 0 C 14 -5 C 9 -9 C 4 -13 C 0 -14 C
-4 -13 C -5 -5 C -9 -4 C 6 -18 712 4415 L 18 -12 C 30 -6 C 18 0 C 30 6 C 18 12 C 6 18 C 0 12 C -6 18 C -18 12 C -30 6 C -18 0 C
-30 -6 C -18 -12 C -6 -18 C 0 -12 C -6 12 736 5645 L -18 18 C 126 0 C 6 -18 712 5783 L 18 -12 C 30 -6 C 18 0 C 30 6 C 18 12 C 6 18 C
0 12 C -6 18 C -18 12 C -30 6 C -18 0 C -30 -6 C -18 -12 C -6 -18 C 0 -12 C 0 81 702 5867 L 0 -45 648 6033 L 40 -4 C -4 4 C -5 14 C
0 13 C 5 14 C 9 9 C 13 4 C 9 0 C 14 -4 C 9 -9 C 4 -14 C 0 -13 C -4 -14 C -5 -4 C -9 -5 C
0 5459 9261 1170 L -48 0 9261 1396 L -48 0 9261 1774 L -48 0 9261 2152 L -97 0 9261 2530 L 0 108 9461 2148 L 0 -60 9389 2370 L
54 -6 C -6 6 C -6 18 C 0 18 C 6 18 C 12 12 C 18 6 C 12 0 C 18 -6 C 12 -12 C 6 -18 C 0 -18 C -6 -18 C -6 -6 C -12 -6 C
84 84 9419 2424 L 84 -84 9419 2508 L -6 11 9413 2568 L -18 18 C 126 0 C 6 -18 9389 2705 L 18 -12 C 30 -6 C 18 0 C 30 6 C 18 12 C
6 18 C 0 12 C -6 18 C -18 12 C -30 6 C -18 0 C -30 -6 C -18 -12 C -6 -18 C 0 -12 C 0 81 9378 2789 L 0 49 9324 2911 L 36 -27 C 0 14 C
5 9 C 4 4 C 14 5 C 9 0 C 13 -5 C 9 -9 C 5 -13 C 0 -14 C -5 -13 C -4 -5 C -9 -4 C -48 0 9261 2908 L -48 0 9261 3287 L
-48 0 9261 3665 L -48 0 9261 4043 L -97 0 9261 4421 L 6 -18 9389 4415 L 18 -12 C 30 -6 C 18 0 C 30 6 C 18 12 C 6 18 C 0 12 C -6 18 C
-18 12 C -30 6 C -18 0 C -30 -6 C -18 -12 C -6 -18 C 0 -12 C -48 0 9261 4799 L -48 0 9261 5177 L -48 0 9261 5555 L -48 0 9261 5933 L
-97 0 9261 6311 L 0 -60 9389 6073 L 54 -6 C -6 6 C -6 18 C 0 18 C 6 18 C 12 12 C 18 6 C 12 0 C 18 -6 C 12 -12 C 6 -18 C 0 -18 C
-6 -18 C -6 -6 C -12 -6 C 84 84 9419 6127 L 84 -84 9419 6211 L -6 12 9413 6271 L -18 18 C 126 0 C 6 -18 9389 6408 L 18 -11 C 30 -6 C
18 0 C 30 6 C 18 11 C 6 18 C 0 12 C -6 18 C -18 12 C -30 6 C -18 0 C -30 -6 C -18 -12 C -6 -18 C 0 -12 C 0 81 9378 6492 L
0 49 9324 6614 L 36 -27 C 0 14 C 5 9 C 4 4 C 14 5 C 9 0 C 13 -5 C 9 -9 C 5 -13 C 0 -14 C -5 -13 C -4 -5 C -9 -4 C
61 0 9688 2730 L 0 54 9688 2730 L 6 18 C 6 6 C 12 6 C 12 0 C 12 -6 C 6 -6 C 6 -18 C 0 -54 C 1 0 9748 2772 L -7 -3 9749 2919 L
-6 -6 C -6 -12 C 0 -18 C 6 -12 C 12 -12 C 1 -1 C -12 -6 9748 3024 L -6 -18 C 0 -18 C 6 -18 C 12 -6 C 1 0 C 6 6 9688 3060 L -6 6 C
-6 -6 C 6 -6 C 19 0 9730 3066 L 61 0 9688 3180 L -12 -12 9748 3180 L -6 -12 C 0 -18 C 6 -12 C 12 -12 C 1 -1 C 19 0 9730 3228 L
19 0 9730 3294 L 19 0 9730 3408 L -12 -12 9748 3408 L -6 -12 C 0 -18 C 6 -12 C 12 -12 C 1 -1 C 61 0 9688 3456 L 6 6 9688 3594 L
-6 6 C -6 -6 C 6 -6 C 19 0 9730 3600 L 19 0 9730 3648 L -13 14 9749 3652 L -6 12 C 0 18 C 6 12 C 13 4 C 19 0 9730 3858 L
-12 12 9748 3858 L -6 12 C 0 18 C 6 11 C 12 12 C 1 1 C 19 0 9730 3971 L 19 0 9730 4037 L 61 0 9688 4085 L -12 -6 9748 4193 L
-6 -18 C 0 -18 C 6 -18 C 12 -6 C 1 1 C -7 -4 9749 4299 L -6 -6 C -6 -12 C 0 -18 C 6 -12 C 12 -12 C 1 0 C 19 0 9730 4439 L
-12 12 9748 4439 L -6 12 C 0 18 C 6 12 C 12 12 C 1 1 C -7 -4 9749 4617 L -6 -6 C -6 -12 C 0 -18 C 6 -12 C 12 -12 C 1 0 C
19 0 9730 4661 L -1 0 9749 4667 L -12 12 C -6 12 C 0 18 C 6 6 9688 4733 L -6 6 C -6 -6 C 6 -6 C 19 0 9730 4739 L 6 -12 9730 4811 L
12 -12 C 1 0 C -1 -1 9749 4854 L -12 -12 C -6 -12 C 0 -18 C 61 0 9688 4967 L -12 -12 9748 4967 L -6 -12 C 0 -18 C 6 -12 C 12 -12 C
1 0 C -12 -6 9748 5075 L -6 -18 C 0 -18 C 6 -18 C 12 -6 C 1 1 C
0 -96 3171 7145 L -6 -18 C -6 -6 C -12 -6 C -12 0 C -12 6 C -6 6 C -6 18 C 0 12 C 12 6 3231 7121 L 18 18 C 0 -126 C
-18 -6 3363 7145 L -6 -12 C 0 -12 C 6 -12 C 12 -6 C 24 -6 C 18 -6 C 12 -12 C 6 -12 C 0 -18 C -6 -12 C -6 -6 C -18 -6 C -24 0 C
-18 6 C -6 6 C -6 12 C 0 18 C 6 12 C 12 12 C 18 6 C 24 6 C 12 6 C 6 12 C 0 12 C -6 12 C -18 6 C -24 0 C 66 0 3465 7145 L -36 -48 C
18 0 C 12 -6 C 6 -6 C 6 -18 C 0 -12 C -6 -18 C -12 -12 C -18 -6 C -18 0 C -18 6 C -6 6 C -6 12 C 0 6 3579 7115 L 6 12 C 6 6 C 12 6 C
24 0 C 12 -6 C 6 -6 C 6 -12 C 0 -12 C -6 -12 C -12 -18 C -60 -60 C 84 0 C 108 0 3699 7073 L -18 -6 3885 7145 L -12 -18 C -6 -30 C
0 -18 C 6 -30 C 12 -18 C 18 -6 C 12 0 C 18 6 C 12 18 C 6 30 C 0 18 C -6 30 C -12 18 C -18 6 C -12 0 C -18 -6 3999 7145 L -6 -12 C
0 -12 C 6 -12 C 12 -6 C 24 -6 C 18 -6 C 12 -12 C 6 -12 C 0 -18 C -6 -12 C -6 -6 C -18 -6 C -24 0 C -18 6 C -6 6 C -6 12 C 0 18 C
6 12 C 12 12 C 18 6 C 24 6 C 12 6 C 6 12 C 0 12 C -6 12 C -18 6 C -24 0 C 66 0 4101 7145 L -36 -48 C 18 0 C 12 -6 C 6 -6 C 6 -18 C
0 -12 C -6 -18 C -12 -12 C -18 -6 C -18 0 C -18 6 C -6 6 C -6 12 C -6 12 4287 7127 L -18 6 C -12 0 C -18 -6 C -12 -18 C -6 -30 C
0 -30 C 6 -24 C 12 -12 C 18 -6 C 6 0 C 18 6 C 12 12 C 6 18 C 0 6 C -6 18 C -12 12 C -18 6 C -6 0 C -18 -6 C -12 -12 C -6 -18 C
-12 -12 4473 7169 L -12 -18 C -12 -24 C -6 -30 C 0 -24 C 6 -30 C 12 -24 C 12 -18 C 12 -12 C 30 -126 4503 7145 L -30 -126 4563 7145 L
30 -126 4563 7145 L -30 -126 4623 7145 L 0 -84 4659 7103 L 6 18 4659 7067 L 12 12 C 12 6 C 18 0 C 0 -84 4737 7103 L
18 18 4737 7079 L 12 6 C 18 0 C 12 -6 C 6 -18 C 0 -60 C 18 18 4803 7079 L 12 6 C 18 0 C 12 -6 C 6 -18 C 0 -60 C -6 12 4977 7085 L
-18 6 C -18 0 C -18 -6 C -6 -12 C 6 -12 C 12 -6 C 30 -6 C 12 -6 C 6 -12 C 0 -6 C -6 -12 C -18 -6 C -18 0 C -18 6 C -6 12 C
108 0 5115 7091 L 108 0 5115 7055 L 12 6 5379 7121 L 18 18 C 0 -126 C -6 -6 5493 7031 L 6 -6 C 6 6 C -6 6 C -18 -6 5571 7145 L
-6 -12 C 0 -12 C 6 -12 C 12 -6 C 24 -6 C 18 -6 C 12 -12 C 6 -12 C 0 -18 C -6 -12 C -6 -6 C -18 -6 C -24 0 C -18 6 C -6 6 C -6 12 C
0 18 C 6 12 C 12 12 C 18 6 C 24 6 C 12 6 C 6 12 C 0 12 C -6 12 C -18 6 C -24 0 C 66 0 5673 7145 L -36 -48 C 18 0 C 12 -6 C 6 -6 C
6 -18 C 0 -12 C -6 -18 C -12 -12 C -18 -6 C -18 0 C -18 6 C -6 6 C -6 12 C -60 -84 5841 7145 L 90 0 C 0 -126 5841 7145 L
-36 -126 6021 7103 L -6 -30 6015 7079 L 0 -18 C 12 -12 C 12 0 C 12 6 C 12 12 C 12 24 C -12 -42 6081 7103 L -6 -24 C 0 -12 C 6 -6 C
12 0 C 12 12 C 6 12 C -6 12 6189 7085 L -18 6 C -18 0 C -18 -6 C -6 -12 C 6 -12 C 12 -6 C 30 -6 C 12 -6 C 6 -12 C 0 -6 C -6 -12 C
-18 -6 C -18 0 C -18 6 C -6 12 C 12 -12 6225 7169 L 12 -18 C 12 -24 C 6 -30 C 0 -24 C -6 -30 C -12 -24 C -12 -18 C -12 -12 C
0 -126 6411 7103 L 12 12 6411 7085 L 12 6 C 18 0 C 12 -6 C 12 -12 C 6 -18 C 0 -12 C -6 -18 C -12 -12 C -12 -6 C -18 0 C -12 6 C
-12 12 C -12 -6 6549 7103 L -12 -12 C -6 -18 C 0 -12 C 6 -18 C 12 -12 C 12 -6 C 18 0 C 12 6 C 12 12 C 6 18 C 0 12 C -6 18 C -12 12 C
-12 6 C -18 0 C -6 12 6699 7085 L -18 6 C -18 0 C -18 -6 C -6 -12 C 6 -12 C 12 -6 C 30 -6 C 12 -6 C 6 -12 C 0 -6 C -6 -12 C -18 -6 C
-18 0 C -18 6 C -6 12 C 0 -102 6747 7145 L 6 -18 C 12 -6 C 12 0 C 42 0 6729 7103 L 108 0 6813 7073 L -12 0 7005 7145 L -12 -6 C
-6 -18 C 0 -102 C 42 0 6957 7103 L 6 -6 7035 7145 L 6 6 C -6 6 C -6 -6 C 0 -84 7041 7103 L 0 -102 7095 7145 L 6 -18 C 12 -6 C 12 0 C
42 0 7077 7103 L 0 -126 4491 672 L 48 -126 4491 672 L -48 -126 4587 672 L 0 -126 4587 672 L 0 -96 4683 672 L -6 -18 C -6 -6 C
-12 -6 C -12 0 C -12 6 C -6 6 C -6 18 C 0 12 C 0 -126 4731 672 L 42 0 4731 672 L 18 -6 C 12 -12 C 6 -12 C 6 -18 C 0 -30 C -6 -18 C
-6 -12 C -12 -12 C -18 -6 C -42 0 C 108 0 4857 600 L -60 0 5079 672 L -6 -54 C 6 6 C 18 6 C 18 0 C 18 -6 C 12 -12 C 6 -18 C 0 -12 C
-6 -18 C -12 -12 C -18 -6 C -18 0 C -18 6 C -6 6 C -6 12 C -6 12 5205 654 L -18 6 C -12 0 C -18 -6 C -12 -18 C -6 -30 C 0 -30 C
6 -24 C 12 -12 C 18 -6 C 6 0 C 18 6 C 12 12 C 6 18 C 0 6 C -6 18 C -12 12 C -18 6 C -6 0 C -18 -6 C -12 -12 C -6 -18 C
-60 -84 5307 672 L 90 0 C 0 -126 5307 672 L -60 -126 5451 672 L 84 0 5367 672 L -18 -6 5523 672 L -12 -18 C -6 -30 C 0 -18 C 6 -30 C
12 -18 C 18 -6 C 12 0 C 18 6 C 12 18 C 6 30 C 0 18 C -6 30 C -12 18 C -18 6 C -12 0 C -6 -6 5619 558 L 6 -6 C 6 6 C -6 6 C
0 6 5673 642 L 6 12 C 6 6 C 12 6 C 24 0 C 12 -6 C 6 -6 C 6 -12 C 0 -12 C -6 -12 C -12 -18 C -60 -60 C 84 0 C 126 0 420 2895 L
0 54 420 2895 L 6 18 C 6 6 C 12 6 C 18 0 C 12 -6 C 6 -6 C 6 -18 C 0 -54 C 6 -12 462 3045 L 12 -12 C 18 -6 C 12 0 C 18 6 C 12 12 C
6 12 C 0 18 C -6 12 C -12 12 C -18 6 C -12 0 C -18 -6 C -12 -12 C -6 -12 C 0 -18 C -12 -6 480 3195 L -6 -18 C 0 -18 C 6 -18 C
12 -6 C 12 6 C 6 12 C 6 30 C 6 12 C 12 6 C 6 0 C 12 -6 C 6 -18 C 0 -18 C -6 -18 C -12 -6 C 102 0 420 3243 L 18 6 C 6 12 C 0 12 C
0 42 462 3225 L 0 -12 420 3345 L 6 -12 C 18 -6 C 102 0 C 0 42 462 3297 L 6 6 420 3375 L -6 6 C -6 -6 C 6 -6 C 84 0 462 3381 L
102 0 420 3435 L 18 6 C 6 12 C 0 12 C 0 42 462 3417 L 126 0 420 3597 L 0 54 420 3597 L 6 18 C 6 6 C 12 6 C 12 0 C 12 -6 C 6 -6 C
6 -18 C 0 -54 C 66 42 480 3639 L 0 72 498 3717 L -12 0 C -12 -6 C -6 -6 C -6 -12 C 0 -18 C 6 -12 C 12 -12 C 18 -6 C 12 0 C 18 6 C
12 12 C 6 12 C 0 18 C -6 12 C -12 12 C -12 -6 480 3891 L -6 -18 C 0 -18 C 6 -18 C 12 -6 C 12 6 C 6 12 C 6 30 C 6 12 C 12 6 C 6 0 C
12 -6 C 6 -18 C 0 -18 C -6 -18 C -12 -6 C 6 6 420 3926 L -6 6 C -6 -6 C 6 -6 C 84 0 462 3932 L 126 0 420 4046 L -12 -12 480 4046 L
-6 -12 C 0 -18 C 6 -12 C 12 -12 C 18 -6 C 12 0 C 18 6 C 12 12 C 6 12 C 0 18 C -6 12 C -12 12 C 60 0 462 4094 L 18 6 C 6 12 C 0 18 C
-6 12 C -18 18 C 84 0 462 4160 L 84 0 462 4274 L -12 -12 480 4274 L -6 -12 C 0 -18 C 6 -12 C 12 -12 C 18 -6 C 12 0 C 18 6 C 12 12 C
6 12 C 0 18 C -6 12 C -12 12 C 126 0 420 4322 L 12 -12 396 4508 L 18 -12 C 24 -12 C 30 -6 C 24 0 C 30 6 C 24 12 C 18 12 C 12 12 C
-12 -6 480 4610 L -6 -18 C 0 -18 C 6 -18 C 12 -6 C 12 6 C 6 12 C 6 30 C 6 12 C 12 6 C 6 0 C 12 -6 C 6 -18 C 0 -18 C -6 -18 C
-12 -6 C 0 72 498 4646 L -12 0 C -12 -6 C -6 -6 C -6 -12 C 0 -18 C 6 -12 C 12 -12 C 18 -6 C 12 0 C 18 6 C 12 12 C 6 12 C 0 18 C
-6 12 C -12 12 C -12 -12 480 4826 L -6 -12 C 0 -18 C 6 -12 C 12 -12 C 18 -6 C 12 0 C 18 6 C 12 12 C 6 12 C 0 18 C -6 12 C -12 12 C
12 12 396 4862 L 18 12 C 24 12 C 30 6 C 24 0 C 30 -6 C 24 -12 C 18 -12 C 12 -12 C
1024 0 0 K
/M16 {MB -4 -4 moveto 0 8 rlineto 8 0 rlineto 0 -8                              
rlineto closepath fill ME} bind def                                             
/MFAC      5.999 def    
1665 4345 M16 1665 4878 M16 1665 4077 M16 1665 4219 M16 1665 3234 M16 1665 4414 M16 1665 4203 M16 1665 3709 M16 1665 4891 M16
1665 4867 M16 1665 4137 M16 1665 3679 M16 1665 5068 M16 1665 4558 M16 1665 4215 M16 1665 4550 M16 1665 4644 M16 1665 4412 M16
1665 5019 M16 1665 3400 M16 1665 3928 M16 1665 5747 M16 1665 4824 M16 1665 5087 M16 1665 3995 M16 1665 3886 M16 1665 2689 M16
1665 4624 M16 1665 2986 M16 1665 4735 M16 1665 4105 M16 1665 4649 M16 1665 4973 M16 1665 5266 M16 1665 4183 M16 1665 4270 M16
1665 4185 M16 1665 5568 M16 1665 4332 M16 1665 5835 M16 1665 5354 M16 1665 3681 M16 1665 3939 M16 1665 3912 M16 1665 4661 M16
1665 3929 M16 1665 4494 M16 1665 4863 M16 1665 3564 M16 1665 4303 M16 1665 4036 M16 2082 4774 M16 2082 3753 M16 2082 4194 M16
2082 3702 M16 2082 4612 M16 2082 4877 M16 2082 4195 M16 2082 4170 M16 2082 4875 M16 2082 4308 M16 2082 6174 M16 2082 3978 M16
2082 4683 M16 2082 3890 M16 2082 3322 M16 2082 5428 M16 2082 4342 M16 2082 4051 M16 2082 5547 M16 2082 4981 M16 2082 4788 M16
2082 4885 M16 2649 3929 M16 2649 3773 M16 2649 5119 M16 2649 2748 M16 2649 4389 M16 2649 5234 M16 2649 4728 M16 2649 5208 M16
2649 4104 M16 2649 3013 M16 2649 4160 M16 2649 4341 M16 2649 4338 M16 2649 4647 M16 2649 4286 M16 2649 4112 M16 2649 4255 M16
2649 3626 M16 2649 4963 M16 2649 4918 M16 2649 4772 M16 2649 3653 M16 2649 3946 M16 2649 4595 M16 2649 4915 M16 2649 5255 M16
2649 4308 M16 2649 4341 M16 2649 4656 M16 2649 4431 M16 2649 4397 M16 2649 4433 M16 2649 4130 M16 2649 4118 M16 2649 4200 M16
2649 5182 M16 2649 4072 M16 2649 5523 M16 2649 3375 M16 2649 4211 M16 2649 4099 M16 2649 4554 M16 2649 4476 M16 2649 4749 M16
2649 3652 M16 2649 4337 M16 2649 4899 M16 2649 5527 M16 2649 4634 M16 2649 4164 M16 2649 3769 M16 2649 5282 M16 2649 4013 M16
2649 5312 M16 2649 4650 M16 2649 4337 M16 3241 5062 M16 3241 4162 M16 3241 5378 M16 3241 3881 M16 3241 4695 M16 3241 4710 M16
3241 4526 M16 3241 4656 M16 3241 3805 M16 3241 3720 M16 3241 4497 M16 3241 4652 M16 3241 4531 M16 3241 4453 M16 3241 4161 M16
3241 3932 M16 3241 4474 M16 3241 3880 M16 3241 5737 M16 3241 4550 M16 3241 4822 M16 3241 3820 M16 3241 4385 M16 3241 3945 M16
3241 3956 M16 3241 5071 M16 3241 4851 M16 3241 3287 M16 3241 4749 M16 3241 4665 M16 3241 4637 M16 3241 4644 M16 3241 4902 M16
3241 5098 M16 3241 4828 M16 3241 4209 M16 3241 4389 M16 3241 4258 M16 3241 3880 M16 3241 4821 M16 3241 4859 M16 3241 3999 M16
3241 4505 M16 3241 4423 M16 3241 4558 M16 3241 3955 M16 3241 4632 M16 3241 4331 M16 3241 4580 M16 3241 3475 M16 3241 4533 M16
3241 4809 M16 3241 5132 M16 3241 3621 M16 3241 5216 M16 3241 4591 M16 3241 4549 M16 3958 4211 M16 3958 4485 M16 3958 3939 M16
3958 4246 M16 3958 5013 M16 3958 5053 M16 3958 3089 M16 3958 4033 M16 3958 4021 M16 3958 4866 M16 3958 4232 M16 3958 4946 M16
3958 3686 M16 3958 3754 M16 3958 4110 M16 3958 4433 M16 3958 4680 M16 3958 4436 M16 3958 4282 M16 3958 4371 M16 3958 3940 M16
3958 4322 M16 3958 4346 M16 3958 4363 M16 3958 3519 M16 3958 3885 M16 3958 4295 M16 3958 4546 M16 3958 4090 M16 3958 4600 M16
3958 3729 M16 3958 5526 M16 3958 4361 M16 3958 4728 M16 3958 4191 M16 3958 4021 M16 3958 4546 M16 3958 4119 M16 3958 4750 M16
3958 4559 M16 3958 5882 M16 3958 4348 M16 3958 4148 M16 3958 4599 M16 3958 4637 M16 3958 4999 M16 3958 5027 M16 3958 3911 M16
3958 4718 M16 3958 4567 M16 3958 4260 M16 3958 3991 M16 3958 4221 M16 3958 4626 M16 3958 4906 M16 3958 4513 M16 3958 4898 M16
3958 4420 M16 4521 3950 M16 4521 5047 M16 4521 4518 M16 4521 4432 M16 4521 3375 M16 4521 4590 M16 4521 6019 M16 4521 4210 M16
4521 5167 M16 4521 3963 M16 4521 4154 M16 4521 5304 M16 4521 4203 M16 4521 4257 M16 4521 5240 M16 4521 3951 M16 4521 5835 M16
4521 5394 M16 4521 5300 M16 4521 4675 M16 4521 4414 M16 4521 3809 M16 4521 4771 M16 4521 4944 M16 4521 5806 M16 4521 4505 M16
4521 3943 M16 4521 4531 M16 4521 3729 M16 4521 4496 M16 4521 3832 M16 4521 3562 M16 4521 3988 M16 4521 4847 M16 4521 3623 M16
4521 3042 M16 4521 4217 M16 4521 4374 M16 4521 4516 M16 4521 5232 M16 4521 4295 M16 4521 4083 M16 4521 4920 M16 5148 5564 M16
5148 3753 M16 5148 5708 M16 5148 4444 M16 5148 4355 M16 5148 4474 M16 5148 4571 M16 5148 4297 M16 5148 5770 M16 5148 4189 M16
5148 4779 M16 5148 4495 M16 5148 4909 M16 5148 5253 M16 5148 4095 M16 5148 3984 M16 5148 4343 M16 5148 4209 M16 5148 4017 M16
5148 3544 M16 5148 3617 M16 5148 4728 M16 5148 4601 M16 5148 4074 M16 5148 4698 M16 5148 4593 M16 5148 4849 M16 5148 3659 M16
5148 4163 M16 5148 4837 M16 5148 3799 M16 5148 3368 M16 5148 4300 M16 5148 4856 M16 5148 4238 M16 5148 4404 M16 5148 4609 M16
5148 4901 M16 5148 4531 M16 5148 3467 M16 5148 4932 M16 5148 4142 M16 5148 4653 M16 5148 4956 M16 5148 4741 M16 5148 4578 M16
5148 4417 M16 5148 4231 M16 5148 4913 M16 5148 4702 M16 5148 4104 M16 5148 4965 M16 5148 4266 M16 5148 4831 M16 5148 3487 M16
5148 4609 M16 5804 3994 M16 5804 4573 M16 5804 4427 M16 5804 4508 M16 5804 4337 M16 5804 4665 M16 5804 4815 M16 5804 3811 M16
5804 4644 M16 5804 4730 M16 5804 5016 M16 5804 3899 M16 5804 3967 M16 5804 4341 M16 5804 3967 M16 5804 4317 M16 5804 4089 M16
5804 4803 M16 5804 5528 M16 5804 4525 M16 5804 4416 M16 5804 5174 M16 5804 4639 M16 5804 4049 M16 5804 3541 M16 5804 4329 M16
5804 4729 M16 5804 4265 M16 5804 4298 M16 5804 4723 M16 5804 3918 M16 5804 3785 M16 5804 3870 M16 5804 3802 M16 5804 4979 M16
5804 4453 M16 5804 5324 M16 5804 3976 M16 5804 4803 M16 5804 4605 M16 5804 4401 M16 5804 4345 M16 5804 4527 M16 5804 5348 M16
5804 4438 M16 5804 5264 M16 5804 4400 M16 5804 4864 M16 5804 4424 M16 5804 4449 M16 5804 4770 M16 5804 4950 M16 5804 3834 M16
5804 4103 M16 5804 4120 M16 5804 3197 M16 6667 3140 M16 6667 4621 M16 6667 5032 M16 7530 2960 M16 7530 5604 M16 7530 4473 M16
7530 4065 M16 7530 4322 M16 7530 4471 M16 7530 4289 M16 7530 4130 M16 7530 4524 M16 7530 4374 M16 7530 4432 M16 7530 4494 M16
7530 4427 M16 7530 4038 M16 7530 4239 M16 7530 4363 M16 7530 4588 M16 7530 4250 M16 7530 5020 M16 7530 4267 M16 7530 4088 M16
7530 5038 M16 7530 3522 M16 7530 4445 M16 7530 4135 M16 7530 3244 M16 7530 4806 M16 7530 3812 M16 7530 4264 M16 7530 4258 M16
7530 3553 M16 7530 4339 M16 7530 3906 M16 7530 4374 M16 7530 4339 M16 7530 4093 M16 7530 4440 M16 7530 5145 M16 7530 4442 M16
7530 4110 M16 7530 4149 M16 7530 4121 M16 7530 5746 M16 7530 4859 M16 7530 5036 M16 7530 4046 M16 7530 4779 M16 7530 5295 M16
7530 3866 M16 7530 4038 M16 7530 4728 M16 7530 4888 M16 7530 4625 M16 7530 4082 M16 7530 4399 M16 7530 5149 M16 7530 4120 M16
7530 3993 M16 7530 4050 M16 7530 4953 M16 7530 3843 M16 7530 4250 M16 7530 5142 M16 7530 4695 M16 7530 4516 M16 7530 3780 M16
7530 4566 M16 7530 3811 M16 7530 3763 M16 7530 3947 M16 7530 3228 M16 7530 3842 M16 7530 3851 M16 7530 4027 M16 7530 4197 M16
7530 4303 M16 7530 4042 M16 7530 5272 M16 7530 4139 M16 7530 1625 M16 7530 4145 M16 7530 5228 M16 7530 5345 M16 7530 4750 M16
7530 4568 M16 7530 2540 M16 7530 4608 M16 7530 3954 M16 7530 3696 M16 7530 3730 M16 7530 4944 M16 7530 4407 M16 7530 4572 M16
7530 5203 M16 7530 5215 M16 7530 4330 M16 7530 3912 M16 8571 4449 M16 8571 5864 M16 8571 4896 M16 8571 4340 M16 8571 3782 M16
8571 3339 M16 8571 4967 M16 8571 4414 M16 8571 5057 M16 8571 4810 M16 8571 3720 M16 8571 4868 M16 8571 4384 M16 8571 4951 M16
8571 5776 M16 8571 4022 M16 8571 5487 M16 8571 4116 M16 8571 4618 M16 8571 4218 M16 8571 4629 M16 8571 4830 M16 8571 3811 M16
8571 4272 M16 8571 4020 M16 8571 4746 M16 8571 3575 M16 8571 5041 M16 8571 5169 M16
45 0 1643 3826 L 0 1039 1665 3826 L 45 0 1643 4865 L 45 0 1643 4239 L 0 1278 1665 4239 L 45 0 1643 5517 L 45 0 1643 3542 L
0 1071 1665 3542 L 45 0 1643 4613 L 45 0 1643 3614 L 0 1210 1665 3614 L 45 0 1643 4824 L 45 0 1643 2779 L 0 909 1665 2779 L
45 0 1643 3688 L 45 0 1643 3927 L 0 975 1665 3927 L 45 0 1643 4902 L 45 0 1643 3430 L 0 1546 1665 3430 L 45 0 1643 4976 L
45 0 1643 3097 L 0 1224 1665 3097 L 45 0 1643 4321 L 45 0 1643 4254 L 0 1275 1665 4254 L 45 0 1643 5529 L 45 0 1643 4389 L
0 956 1665 4389 L 45 0 1643 5345 L 45 0 1643 3407 L 0 1461 1665 3407 L 45 0 1643 4868 L 45 0 1643 3112 L 0 1133 1665 3112 L
45 0 1643 4245 L 45 0 1643 4424 L 0 1289 1665 4424 L 45 0 1643 5713 L 45 0 1643 3868 L 0 1380 1665 3868 L 45 0 1643 5248 L
45 0 1643 3655 L 0 1120 1665 3655 L 45 0 1643 4775 L 45 0 1643 3944 L 0 1211 1665 3944 L 45 0 1643 5155 L 45 0 1643 4066 L
0 1157 1665 4066 L 45 0 1643 5223 L 45 0 1643 3765 L 0 1294 1665 3765 L 45 0 1643 5059 L 45 0 1643 4457 L 0 1125 1665 4457 L
45 0 1643 5582 L 45 0 1643 2789 L 0 1223 1665 2789 L 45 0 1643 4012 L 45 0 1643 3308 L 0 1240 1665 3308 L 45 0 1643 4548 L
45 0 1643 5039 L 0 1415 1665 5039 L 45 0 1643 6454 L 45 0 1643 4162 L 0 1324 1665 4162 L 45 0 1643 5486 L 45 0 1643 4320 L
0 1534 1665 4320 L 45 0 1643 5854 L 45 0 1643 3473 L 0 1045 1665 3473 L 45 0 1643 4518 L 45 0 1643 3344 L 0 1085 1665 3344 L
45 0 1643 4429 L 45 0 1643 2123 L 0 1133 1665 2123 L 45 0 1643 3256 L 45 0 1643 4056 L 0 1135 1665 4056 L 45 0 1643 5191 L
45 0 1643 2368 L 0 1236 1665 2368 L 45 0 1643 3604 L 45 0 1643 3979 L 0 1513 1665 3979 L 45 0 1643 5492 L 45 0 1643 3417 L
0 1375 1665 3417 L 45 0 1643 4792 L 45 0 1643 3922 L 0 1454 1665 3922 L 45 0 1643 5376 L 45 0 1643 4387 L 0 1172 1665 4387 L
45 0 1643 5559 L 45 0 1643 4633 L 0 1266 1665 4633 L 45 0 1643 5899 L 45 0 1643 3617 L 0 1133 1665 3617 L 45 0 1643 4750 L
45 0 1643 3639 L 0 1263 1665 3639 L 45 0 1643 4902 L 45 0 1643 3603 L 0 1164 1665 3603 L 45 0 1643 4767 L 45 0 1643 4927 L
0 1281 1665 4927 L 45 0 1643 6208 L 45 0 1643 3662 L 0 1341 1665 3662 L 45 0 1643 5003 L 45 0 1643 5165 L 0 1341 1665 5165 L
45 0 1643 6506 L 45 0 1643 4693 L 0 1321 1665 4693 L 45 0 1643 6014 L 45 0 1643 2975 L 0 1412 1665 2975 L 45 0 1643 4387 L
45 0 1643 3344 L 0 1191 1665 3344 L 45 0 1643 4535 L 45 0 1643 3172 L 0 1480 1665 3172 L 45 0 1643 4652 L 45 0 1643 4055 L
0 1212 1665 4055 L 45 0 1643 5267 L 45 0 1643 3158 L 0 1542 1665 3158 L 45 0 1643 4700 L 45 0 1643 3852 L 0 1283 1665 3852 L
45 0 1643 5135 L 45 0 1643 4158 L 0 1410 1665 4158 L 45 0 1643 5568 L 45 0 1643 2923 L 0 1282 1665 2923 L 45 0 1643 4205 L
45 0 1643 3672 L 0 1262 1665 3672 L 45 0 1643 4934 L 45 0 1643 3396 L 0 1279 1665 3396 L 45 0 1643 4675 L 45 0 2060 4211 L
0 1127 2082 4211 L 45 0 2060 5338 L 45 0 2060 3038 L 0 1429 2082 3038 L 45 0 2060 4467 L 45 0 2060 3596 L 0 1197 2082 3596 L
45 0 2060 4793 L 45 0 2060 3002 L 0 1400 2082 3002 L 45 0 2060 4402 L 45 0 2060 4076 L 0 1071 2082 4076 L 45 0 2060 5147 L
45 0 2060 4182 L 0 1389 2082 4182 L 45 0 2060 5571 L 45 0 2060 3650 L 0 1089 2082 3650 L 45 0 2060 4739 L 45 0 2060 3526 L
0 1288 2082 3526 L 45 0 2060 4814 L 45 0 2060 3963 L 0 1823 2082 3963 L 45 0 2060 5786 L 45 0 2060 3700 L 0 1215 2082 3700 L
45 0 2060 4915 L 45 0 2060 5393 L 0 1236 2082 5393 L 45 0 2060 3068 L 0 1820 2082 3068 L 45 0 2060 4888 L 45 0 2060 3891 L
0 1585 2082 3891 L 45 0 2060 5476 L 45 0 2060 3182 L 0 1416 2082 3182 L 45 0 2060 4598 L 45 0 2060 2655 L 0 1334 2082 2655 L
45 0 2060 3989 L 45 0 2060 4842 L 0 1172 2082 4842 L 45 0 2060 6014 L 45 0 2060 3692 L 0 1300 2082 3692 L 45 0 2060 4992 L
45 0 2060 3344 L 0 1414 2082 3344 L 45 0 2060 4758 L 45 0 2060 5060 L 0 974 2082 5060 L 45 0 2060 6034 L 45 0 2060 4290 L
0 1381 2082 4290 L 45 0 2060 5671 L 45 0 2060 4018 L 0 1541 2082 4018 L 45 0 2060 5559 L 45 0 2060 4201 L 0 1369 2082 4201 L
45 0 2060 5570 L 45 0 2626 3191 L 0 1476 2649 3191 L 45 0 2626 4667 L 45 0 2626 3355 L 0 835 2649 3355 L 45 0 2626 4190 L
45 0 2626 4600 L 0 1039 2649 4600 L 45 0 2626 5639 L 45 0 2626 2228 L 0 1041 2649 2228 L 45 0 2626 3269 L 45 0 2626 3953 L
0 871 2649 3953 L 45 0 2626 4824 L 45 0 2626 4600 L 0 1269 2649 4600 L 45 0 2626 5869 L 45 0 2626 4281 L 0 893 2649 4281 L
45 0 2626 5174 L 45 0 2626 4787 L 0 842 2649 4787 L 45 0 2626 5629 L 45 0 2626 3687 L 0 834 2649 3687 L 45 0 2626 4521 L
45 0 2626 2260 L 0 1506 2649 2260 L 45 0 2626 3766 L 45 0 2626 3683 L 0 954 2649 3683 L 45 0 2626 4637 L 45 0 2626 3818 L
0 1045 2649 3818 L 45 0 2626 4863 L 45 0 2626 3597 L 0 1481 2649 3597 L 45 0 2626 5078 L 45 0 2626 4020 L 0 1255 2649 4020 L
45 0 2626 5275 L 45 0 2626 3752 L 0 1068 2649 3752 L 45 0 2626 4820 L 45 0 2626 3625 L 0 974 2649 3625 L 45 0 2626 4599 L
45 0 2626 3882 L 0 746 2649 3882 L 45 0 2626 4628 L 45 0 2626 3067 L 0 1118 2649 3067 L 45 0 2626 4185 L 45 0 2626 4421 L
0 1084 2649 4421 L 45 0 2626 5505 L 45 0 2626 4315 L 0 1206 2649 4315 L 45 0 2626 5521 L 45 0 2626 4136 L 0 1272 2649 4136 L
45 0 2626 5408 L 45 0 2626 3077 L 0 1151 2649 3077 L 45 0 2626 4228 L 45 0 2626 3337 L 0 1219 2649 3337 L 45 0 2626 4556 L
45 0 2626 4024 L 0 1142 2649 4024 L 45 0 2626 5166 L 45 0 2626 4392 L 0 1046 2649 4392 L 45 0 2626 5438 L 45 0 2626 4720 L
0 1071 2649 4720 L 45 0 2626 5791 L 45 0 2626 3842 L 0 932 2649 3842 L 45 0 2626 4774 L 45 0 2626 3716 L 0 1249 2649 3716 L
45 0 2626 4965 L 45 0 2626 4005 L 0 1302 2649 4005 L 45 0 2626 5307 L 45 0 2626 4010 L 0 841 2649 4010 L 45 0 2626 4851 L
45 0 2626 3992 L 0 810 2649 3992 L 45 0 2626 4802 L 45 0 2626 3762 L 0 1343 2649 3762 L 45 0 2626 5105 L 45 0 2626 3618 L
0 1023 2649 3618 L 45 0 2626 4641 L 45 0 2626 3549 L 0 1138 2649 3549 L 45 0 2626 4687 L 45 0 2626 3765 L 0 870 2649 3765 L
45 0 2626 4635 L 45 0 2626 4547 L 0 1270 2649 4547 L 45 0 2626 5817 L 45 0 2626 3539 L 0 1066 2649 3539 L 45 0 2626 4605 L
45 0 2626 4975 L 0 1096 2649 4975 L 45 0 2626 6071 L 45 0 2626 2723 L 0 1304 2649 2723 L 45 0 2626 4027 L 45 0 2626 3705 L
0 1013 2649 3705 L 45 0 2626 4718 L 45 0 2626 3513 L 0 1173 2649 3513 L 45 0 2626 4686 L 45 0 2626 3922 L 0 1264 2649 3922 L
45 0 2626 5186 L 45 0 2626 3786 L 0 1379 2649 3786 L 45 0 2626 5165 L 45 0 2626 4185 L 0 1127 2649 4185 L 45 0 2626 5312 L
45 0 2626 2984 L 0 1336 2649 2984 L 45 0 2626 4320 L 45 0 2626 3919 L 0 836 2649 3919 L 45 0 2626 4755 L 45 0 2626 4129 L
0 1540 2649 4129 L 45 0 2626 5669 L 45 0 2626 4867 L 0 1320 2649 4867 L 45 0 2626 6187 L 45 0 2626 3920 L 0 1428 2649 3920 L
45 0 2626 5348 L 45 0 2626 3586 L 0 1156 2649 3586 L 45 0 2626 4742 L 45 0 2626 3273 L 0 992 2649 3273 L 45 0 2626 4265 L
45 0 2626 4486 L 0 1593 2649 4486 L 45 0 2626 6079 L 45 0 2626 3461 L 0 1103 2649 3461 L 45 0 2626 4564 L 45 0 2626 4455 L
0 1713 2649 4455 L 45 0 2626 6168 L 45 0 2626 4081 L 0 1139 2649 4081 L 45 0 2626 5220 L 45 0 2626 3573 L 0 1527 2649 3573 L
45 0 2626 5100 L 45 0 3219 4543 L 0 1039 3241 4543 L 45 0 3219 5582 L 45 0 3219 3709 L 0 906 3241 3709 L 45 0 3219 4615 L
45 0 3219 4953 L 0 850 3241 4953 L 45 0 3219 5803 L 45 0 3219 3389 L 0 984 3241 3389 L 45 0 3219 4373 L 45 0 3219 4205 L
0 980 3241 4205 L 45 0 3219 5185 L 45 0 3219 4228 L 0 965 3241 4228 L 45 0 3219 5193 L 45 0 3219 3972 L 0 1109 3241 3972 L
45 0 3219 5081 L 45 0 3219 4061 L 0 1191 3241 4061 L 45 0 3219 5252 L 45 0 3219 3379 L 0 853 3241 3379 L 45 0 3219 4232 L
45 0 3219 3018 L 0 1404 3241 3018 L 45 0 3219 4422 L 45 0 3219 3907 L 0 1179 3241 3907 L 45 0 3219 5086 L 45 0 3219 3866 L
0 1572 3241 3866 L 45 0 3219 5438 L 45 0 3219 4055 L 0 951 3241 4055 L 45 0 3219 5006 L 45 0 3219 4073 L 0 760 3241 4073 L
45 0 3219 4833 L 45 0 3219 3618 L 0 1087 3241 3618 L 45 0 3219 4705 L 45 0 3219 3563 L 0 739 3241 3563 L 45 0 3219 4302 L
45 0 3219 4036 L 0 877 3241 4036 L 45 0 3219 4913 L 45 0 3219 3455 L 0 850 3241 3455 L 45 0 3219 4305 L 45 0 3219 5095 L
0 1283 3241 5095 L 45 0 3219 6378 L 45 0 3219 3966 L 0 1168 3241 3966 L 45 0 3219 5134 L 45 0 3219 4349 L 0 946 3241 4349 L
45 0 3219 5295 L 45 0 3219 3361 L 0 917 3241 3361 L 45 0 3219 4278 L 45 0 3219 3903 L 0 964 3241 3903 L 45 0 3219 4867 L
45 0 3219 3554 L 0 781 3241 3554 L 45 0 3219 4335 L 45 0 3219 3566 L 0 780 3241 3566 L 45 0 3219 4346 L 45 0 3219 4522 L
0 1097 3241 4522 L 45 0 3219 5619 L 45 0 3219 4312 L 0 1078 3241 4312 L 45 0 3219 5390 L 45 0 3219 2742 L 0 1091 3241 2742 L
45 0 3219 3833 L 45 0 3219 4277 L 0 945 3241 4277 L 45 0 3219 5222 L 45 0 3219 4073 L 0 1185 3241 4073 L 45 0 3219 5258 L
45 0 3219 4228 L 0 818 3241 4228 L 45 0 3219 5046 L 45 0 3219 4118 L 0 1052 3241 4118 L 45 0 3219 5170 L 45 0 3219 4399 L
0 1006 3241 4399 L 45 0 3219 5405 L 45 0 3219 4670 L 0 856 3241 4670 L 45 0 3219 5526 L 45 0 3219 4386 L 0 883 3241 4386 L
45 0 3219 5269 L 45 0 3219 3666 L 0 1087 3241 3666 L 45 0 3219 4753 L 45 0 3219 3884 L 0 1010 3241 3884 L 45 0 3219 4894 L
45 0 3219 3740 L 0 1036 3241 3740 L 45 0 3219 4776 L 45 0 3219 3460 L 0 841 3241 3460 L 45 0 3219 4301 L 45 0 3219 4173 L
0 1297 3241 4173 L 45 0 3219 5470 L 45 0 3219 4152 L 0 1414 3241 4152 L 45 0 3219 5566 L 45 0 3219 3471 L 0 1056 3241 3471 L
45 0 3219 4527 L 45 0 3219 3928 L 0 1155 3241 3928 L 45 0 3219 5083 L 45 0 3219 3907 L 0 1032 3241 3907 L 45 0 3219 4939 L
45 0 3219 4153 L 0 811 3241 4153 L 45 0 3219 4964 L 45 0 3219 3536 L 0 837 3241 3536 L 45 0 3219 4373 L 45 0 3219 4208 L
0 848 3241 4208 L 45 0 3219 5056 L 45 0 3219 3893 L 0 877 3241 3893 L 45 0 3219 4770 L 45 0 3219 4096 L 0 967 3241 4096 L
45 0 3219 5063 L 45 0 3219 2857 L 0 1237 3241 2857 L 45 0 3219 4094 L 45 0 3219 3999 L 0 1069 3241 3999 L 45 0 3219 5068 L
45 0 3219 4387 L 0 844 3241 4387 L 45 0 3219 5231 L 45 0 3219 4604 L 0 1057 3241 4604 L 45 0 3219 5661 L 45 0 3219 3115 L
0 1012 3241 3115 L 45 0 3219 4127 L 45 0 3219 4713 L 0 1007 3241 4713 L 45 0 3219 5720 L 45 0 3219 4051 L 0 1081 3241 4051 L
45 0 3219 5132 L 45 0 3219 4184 L 0 730 3241 4184 L 45 0 3219 4914 L 45 0 3936 3786 L 0 851 3958 3786 L 45 0 3936 4637 L
45 0 3936 3995 L 0 979 3958 3995 L 45 0 3936 4974 L 45 0 3936 3331 L 0 1216 3958 3331 L 45 0 3936 4547 L 45 0 3936 3743 L
0 1005 3958 3743 L 45 0 3936 4748 L 45 0 3936 4642 L 0 742 3958 4642 L 45 0 3936 5384 L 45 0 3936 4673 L 0 759 3958 4673 L
45 0 3936 5432 L 45 0 3936 2640 L 0 897 3958 2640 L 45 0 3936 3537 L 45 0 3936 3723 L 0 620 3958 3723 L 45 0 3936 4343 L
45 0 3936 3595 L 0 853 3958 3595 L 45 0 3936 4448 L 45 0 3936 4305 L 0 1122 3958 4305 L 45 0 3936 5427 L 45 0 3936 3553 L
0 1358 3958 3553 L 45 0 3936 4911 L 45 0 3936 4454 L 0 983 3958 4454 L 45 0 3936 5437 L 45 0 3936 3123 L 0 1127 3958 3123 L
45 0 3936 4250 L 45 0 3936 3265 L 0 978 3958 3265 L 45 0 3936 4243 L 45 0 3936 3734 L 0 751 3958 3734 L 45 0 3936 4485 L
45 0 3936 4066 L 0 735 3958 4066 L 45 0 3936 4801 L 45 0 3936 4192 L 0 976 3958 4192 L 45 0 3936 5168 L 45 0 3936 3999 L
0 874 3958 3999 L 45 0 3936 4873 L 45 0 3936 3791 L 0 983 3958 3791 L 45 0 3936 4774 L 45 0 3936 3978 L 0 785 3958 3978 L
45 0 3936 4763 L 45 0 3936 3520 L 0 840 3958 3520 L 45 0 3936 4360 L 45 0 3936 3827 L 0 990 3958 3827 L 45 0 3936 4817 L
45 0 3936 3791 L 0 1111 3958 3791 L 45 0 3936 4902 L 45 0 3936 3803 L 0 1119 3958 3803 L 45 0 3936 4922 L 45 0 3936 3046 L
0 945 3958 3046 L 45 0 3936 3991 L 45 0 3936 3432 L 0 905 3958 3432 L 45 0 3936 4337 L 45 0 3936 3650 L 0 1290 3958 3650 L
45 0 3936 4940 L 45 0 3936 3914 L 0 1263 3958 3914 L 45 0 3936 5177 L 45 0 3936 3647 L 0 886 3958 3647 L 45 0 3936 4533 L
45 0 3936 4107 L 0 985 3958 4107 L 45 0 3936 5092 L 45 0 3936 3206 L 0 1047 3958 3206 L 45 0 3936 4253 L 45 0 3936 5027 L
0 998 3958 5027 L 45 0 3936 6025 L 45 0 3936 3733 L 0 1257 3958 3733 L 45 0 3936 4990 L 45 0 3936 4243 L 0 971 3958 4243 L
45 0 3936 5214 L 45 0 3936 3751 L 0 881 3958 3751 L 45 0 3936 4632 L 45 0 3936 3495 L 0 1052 3958 3495 L 45 0 3936 4547 L
45 0 3936 4051 L 0 990 3958 4051 L 45 0 3936 5041 L 45 0 3936 3709 L 0 821 3958 3709 L 45 0 3936 4530 L 45 0 3936 4329 L
0 841 3958 4329 L 45 0 3936 5170 L 45 0 3936 4203 L 0 712 3958 4203 L 45 0 3936 4915 L 45 0 3936 5283 L 0 1198 3958 5283 L
45 0 3936 6481 L 45 0 3936 3837 L 0 1023 3958 3837 L 45 0 3936 4860 L 45 0 3936 3800 L 0 696 3958 3800 L 45 0 3936 4496 L
45 0 3936 4193 L 0 812 3958 4193 L 45 0 3936 5005 L 45 0 3936 4212 L 0 851 3958 4212 L 45 0 3936 5063 L 45 0 3936 4581 L
0 835 3958 4581 L 45 0 3936 5416 L 45 0 3936 4405 L 0 1243 3958 4405 L 45 0 3936 5648 L 45 0 3936 3535 L 0 751 3958 3535 L
45 0 3936 4286 L 45 0 3936 4286 L 0 864 3958 4286 L 45 0 3936 5150 L 45 0 3936 4102 L 0 930 3958 4102 L 45 0 3936 5032 L
45 0 3936 3773 L 0 973 3958 3773 L 45 0 3936 4746 L 45 0 3936 3343 L 0 1295 3958 3343 L 45 0 3936 4638 L 45 0 3936 3743 L
0 955 3958 3743 L 45 0 3936 4698 L 45 0 3936 4199 L 0 854 3958 4199 L 45 0 3936 5053 L 45 0 3936 4257 L 0 1299 3958 4257 L
45 0 3936 5556 L 45 0 3936 4181 L 0 664 3958 4181 L 45 0 3936 4845 L 45 0 3936 4446 L 0 904 3958 4446 L 45 0 3936 5350 L
45 0 3936 3928 L 0 984 3958 3928 L 45 0 3936 4912 L 45 0 4499 3300 L 0 1300 4521 3300 L 45 0 4499 4600 L 45 0 4499 4595 L
0 905 4521 4595 L 45 0 4499 5500 L 45 0 4499 3998 L 0 1039 4521 3998 L 45 0 4499 5037 L 45 0 4499 3993 L 0 878 4521 3993 L
45 0 4499 4871 L 45 0 4499 2803 L 0 1144 4521 2803 L 45 0 4499 3947 L 45 0 4499 3963 L 0 1255 4521 3963 L 45 0 4499 5218 L
45 0 4499 5150 L 0 1479 4521 5150 L 45 0 4499 3636 L 0 1148 4521 3636 L 45 0 4499 4784 L 45 0 4499 4611 L 0 1113 4521 4611 L
45 0 4499 5724 L 45 0 4499 3335 L 0 1256 4521 3335 L 45 0 4499 4591 L 45 0 4499 3572 L 0 1164 4521 3572 L 45 0 4499 4736 L
45 0 4499 4639 L 0 1331 4521 4639 L 45 0 4499 5970 L 45 0 4499 3671 L 0 1064 4521 3671 L 45 0 4499 4735 L 45 0 4499 3678 L
0 1158 4521 3678 L 45 0 4499 4836 L 45 0 4499 4622 L 0 1235 4521 4622 L 45 0 4499 5857 L 45 0 4499 3299 L 0 1304 4521 3299 L
45 0 4499 4603 L 45 0 4499 5229 L 0 1212 4521 5229 L 45 0 4499 6441 L 45 0 4499 4692 L 0 1403 4521 4692 L 45 0 4499 6095 L
45 0 4499 4613 L 0 1375 4521 4613 L 45 0 4499 5988 L 45 0 4499 4209 L 0 931 4521 4209 L 45 0 4499 5140 L 45 0 4499 3625 L
0 1578 4521 3625 L 45 0 4499 5203 L 45 0 4499 3296 L 0 1025 4521 3296 L 45 0 4499 4321 L 45 0 4499 4029 L 0 1485 4521 4029 L
45 0 4499 5514 L 45 0 4499 4345 L 0 1197 4521 4345 L 45 0 4499 5542 L 45 0 4499 5015 L 0 1583 4521 5015 L 45 0 4499 6598 L
45 0 4499 3958 L 0 1094 4521 3958 L 45 0 4499 5052 L 45 0 4499 3420 L 0 1046 4521 3420 L 45 0 4499 4466 L 45 0 4499 3915 L
0 1232 4521 3915 L 45 0 4499 5147 L 45 0 4499 3161 L 0 1136 4521 3161 L 45 0 4499 4297 L 45 0 4499 3782 L 0 1428 4521 3782 L
45 0 4499 5210 L 45 0 4499 3267 L 0 1130 4521 3267 L 45 0 4499 4397 L 45 0 4499 2926 L 0 1273 4521 2926 L 45 0 4499 4199 L
45 0 4499 3356 L 0 1265 4521 3356 L 45 0 4499 4621 L 45 0 4499 4235 L 0 1224 4521 4235 L 45 0 4499 5459 L 45 0 4499 2935 L
0 1377 4521 2935 L 45 0 4499 4312 L 45 0 4499 2328 L 0 1429 4521 2328 L 45 0 4499 3757 L 45 0 4499 3465 L 0 1504 4521 3465 L
45 0 4499 4969 L 45 0 4499 3787 L 0 1174 4521 3787 L 45 0 4499 4961 L 45 0 4499 3874 L 0 1285 4521 3874 L 45 0 4499 5159 L
45 0 4499 4653 L 0 1157 4521 4653 L 45 0 4499 5810 L 45 0 4499 3669 L 0 1252 4521 3669 L 45 0 4499 4921 L 45 0 4499 3498 L
0 1169 4521 3498 L 45 0 4499 4667 L 45 0 4499 4225 L 0 1390 4521 4225 L 45 0 4499 5615 L 45 0 5125 4973 L 0 1183 5148 4973 L
45 0 5125 6156 L 45 0 5125 3252 L 0 1002 5148 3252 L 45 0 5125 4254 L 45 0 5125 5127 L 0 1161 5148 5127 L 45 0 5125 6288 L
45 0 5125 3929 L 0 1030 5148 3929 L 45 0 5125 4959 L 45 0 5125 3692 L 0 1326 5148 3692 L 45 0 5125 5018 L 45 0 5125 3750 L
0 1448 5148 3750 L 45 0 5125 5198 L 45 0 5125 4115 L 0 913 5148 4115 L 45 0 5125 5028 L 45 0 5125 3847 L 0 899 5148 3847 L
45 0 5125 4746 L 45 0 5125 5236 L 0 1068 5148 5236 L 45 0 5125 6304 L 45 0 5125 3712 L 0 955 5148 3712 L 45 0 5125 4667 L
45 0 5125 4079 L 0 1400 5148 4079 L 45 0 5125 5479 L 45 0 5125 4017 L 0 957 5148 4017 L 45 0 5125 4974 L 45 0 5125 4399 L
0 1020 5148 4399 L 45 0 5125 5419 L 45 0 5125 4667 L 0 1172 5148 4667 L 45 0 5125 5839 L 45 0 5125 3548 L 0 1093 5148 3548 L
45 0 5125 4641 L 45 0 5125 3405 L 0 1159 5148 3405 L 45 0 5125 4564 L 45 0 5125 3950 L 0 786 5148 3950 L 45 0 5125 4736 L
45 0 5125 3804 L 0 810 5148 3804 L 45 0 5125 4614 L 45 0 5125 3526 L 0 982 5148 3526 L 45 0 5125 4508 L 45 0 5125 2993 L
0 1101 5148 2993 L 45 0 5125 4094 L 45 0 5125 2967 L 0 1300 5148 2967 L 45 0 5125 4267 L 45 0 5125 4200 L 0 1055 5148 4200 L
45 0 5125 5255 L 45 0 5125 4226 L 0 750 5148 4226 L 45 0 5125 4976 L 45 0 5125 3670 L 0 807 5148 3670 L 45 0 5125 4477 L
45 0 5125 4339 L 0 719 5148 4339 L 45 0 5125 5058 L 45 0 5125 4161 L 0 864 5148 4161 L 45 0 5125 5025 L 45 0 5125 4330 L
0 1038 5148 4330 L 45 0 5125 5368 L 45 0 5125 3133 L 0 1051 5148 3133 L 45 0 5125 4184 L 45 0 5125 3697 L 0 933 5148 3697 L
45 0 5125 4630 L 45 0 5125 4443 L 0 788 5148 4443 L 45 0 5125 5231 L 45 0 5125 3283 L 0 1033 5148 3283 L 45 0 5125 4316 L
45 0 5125 2677 L 0 1382 5148 2677 L 45 0 5125 4059 L 45 0 5125 3769 L 0 1062 5148 3769 L 45 0 5125 4831 L 45 0 5125 4362 L
0 988 5148 4362 L 45 0 5125 5350 L 45 0 5125 3720 L 0 1037 5148 3720 L 45 0 5125 4757 L 45 0 5125 4004 L 0 799 5148 4004 L
45 0 5125 4803 L 45 0 5125 4157 L 0 904 5148 4157 L 45 0 5125 5061 L 45 0 5125 4229 L 0 1343 5148 4229 L 45 0 5125 5572 L
45 0 5125 4039 L 0 983 5148 4039 L 45 0 5125 5022 L 45 0 5125 3017 L 0 899 5148 3017 L 45 0 5125 3916 L 45 0 5125 4509 L
0 846 5148 4509 L 45 0 5125 5355 L 45 0 5125 3738 L 0 809 5148 3738 L 45 0 5125 4547 L 45 0 5125 4309 L 0 688 5148 4309 L
45 0 5125 4997 L 45 0 5125 4439 L 0 1033 5148 4439 L 45 0 5125 5472 L 45 0 5125 4106 L 0 1269 5148 4106 L 45 0 5125 5375 L
45 0 5125 4138 L 0 880 5148 4138 L 45 0 5125 5018 L 45 0 5125 3909 L 0 1015 5148 3909 L 45 0 5125 4924 L 45 0 5125 3746 L
0 970 5148 3746 L 45 0 5125 4716 L 45 0 5125 4488 L 0 851 5148 4488 L 45 0 5125 5339 L 45 0 5125 4239 L 0 927 5148 4239 L
45 0 5125 5166 L 45 0 5125 3509 L 0 1191 5148 3509 L 45 0 5125 4700 L 45 0 5125 4356 L 0 1218 5148 4356 L 45 0 5125 5574 L
45 0 5125 3870 L 0 791 5148 3870 L 45 0 5125 4661 L 45 0 5125 4270 L 0 1122 5148 4270 L 45 0 5125 5392 L 45 0 5125 3054 L
0 865 5148 3054 L 45 0 5125 3919 L 45 0 5125 4156 L 0 905 5148 4156 L 45 0 5125 5061 L 45 0 5782 3629 L 0 731 5804 3629 L
45 0 5782 4360 L 45 0 5782 4270 L 0 606 5804 4270 L 45 0 5782 4876 L 45 0 5782 4084 L 0 686 5804 4084 L 45 0 5782 4770 L
45 0 5782 4211 L 0 593 5804 4211 L 45 0 5782 4804 L 45 0 5782 3939 L 0 796 5804 3939 L 45 0 5782 4735 L 45 0 5782 4377 L
0 576 5804 4377 L 45 0 5782 4953 L 45 0 5782 4445 L 0 740 5804 4445 L 45 0 5782 5185 L 45 0 5782 3246 L 0 1130 5804 3246 L
45 0 5782 4376 L 45 0 5782 4264 L 0 759 5804 4264 L 45 0 5782 5023 L 45 0 5782 4396 L 0 669 5804 4396 L 45 0 5782 5065 L
45 0 5782 4430 L 0 1172 5804 4430 L 45 0 5782 5602 L 45 0 5782 3553 L 0 693 5804 3553 L 45 0 5782 4246 L 45 0 5782 3565 L
0 803 5804 3565 L 45 0 5782 4368 L 45 0 5782 3775 L 0 1132 5804 3775 L 45 0 5782 4907 L 45 0 5782 3440 L 0 1053 5804 3440 L
45 0 5782 4493 L 45 0 5782 3888 L 0 858 5804 3888 L 45 0 5782 4746 L 45 0 5782 3604 L 0 971 5804 3604 L 45 0 5782 4575 L
45 0 5782 4307 L 0 993 5804 4307 L 45 0 5782 5300 L 45 0 5782 4977 L 0 1101 5804 4977 L 45 0 5782 6078 L 45 0 5782 4168 L
0 714 5804 4168 L 45 0 5782 4882 L 45 0 5782 4049 L 0 735 5804 4049 L 45 0 5782 4784 L 45 0 5782 4675 L 0 999 5804 4675 L
45 0 5782 5674 L 45 0 5782 4232 L 0 814 5804 4232 L 45 0 5782 5046 L 45 0 5782 3486 L 0 1126 5804 3486 L 45 0 5782 4612 L
45 0 5782 3141 L 0 800 5804 3141 L 45 0 5782 3941 L 45 0 5782 3953 L 0 751 5804 3953 L 45 0 5782 4704 L 45 0 5782 4253 L
0 952 5804 4253 L 45 0 5782 5205 L 45 0 5782 3823 L 0 885 5804 3823 L 45 0 5782 4708 L 45 0 5782 3914 L 0 767 5804 3914 L
45 0 5782 4681 L 45 0 5782 4353 L 0 740 5804 4353 L 45 0 5782 5093 L 45 0 5782 3445 L 0 946 5804 3445 L 45 0 5782 4391 L
45 0 5782 3356 L 0 857 5804 3356 L 45 0 5782 4213 L 45 0 5782 3384 L 0 972 5804 3384 L 45 0 5782 4356 L 45 0 5782 3376 L
0 851 5804 3376 L 45 0 5782 4227 L 45 0 5782 4374 L 0 1211 5804 4374 L 45 0 5782 5585 L 45 0 5782 4048 L 0 809 5804 4048 L
45 0 5782 4857 L 45 0 5782 4571 L 0 1505 5804 4571 L 45 0 5782 6076 L 45 0 5782 3450 L 0 1053 5804 3450 L 45 0 5782 4503 L
45 0 5782 4195 L 0 1217 5804 4195 L 45 0 5782 5412 L 45 0 5782 4208 L 0 794 5804 4208 L 45 0 5782 5002 L 45 0 5782 3935 L
0 931 5804 3935 L 45 0 5782 4866 L 45 0 5782 3924 L 0 842 5804 3924 L 45 0 5782 4766 L 45 0 5782 3976 L 0 1102 5804 3976 L
45 0 5782 5078 L 45 0 5782 4843 L 0 1009 5804 4843 L 45 0 5782 5852 L 45 0 5782 4048 L 0 780 5804 4048 L 45 0 5782 4828 L
45 0 5782 4879 L 0 770 5804 4879 L 45 0 5782 5649 L 45 0 5782 3909 L 0 982 5804 3909 L 45 0 5782 4891 L 45 0 5782 4404 L
0 920 5804 4404 L 45 0 5782 5324 L 45 0 5782 3965 L 0 917 5804 3965 L 45 0 5782 4882 L 45 0 5782 4121 L 0 657 5804 4121 L
45 0 5782 4778 L 45 0 5782 4258 L 0 1025 5804 4258 L 45 0 5782 5283 L 45 0 5782 4497 L 0 906 5804 4497 L 45 0 5782 5403 L
45 0 5782 3216 L 0 1237 5804 3216 L 45 0 5782 4453 L 45 0 5782 3514 L 0 1178 5804 3514 L 45 0 5782 4692 L 45 0 5782 3745 L
0 751 5804 3745 L 45 0 5782 4496 L 45 0 5782 2560 L 0 1273 5804 2560 L 45 0 5782 3833 L 45 0 6644 2371 L 0 1538 6667 2371 L
45 0 6644 3909 L 45 0 6644 4004 L 0 1233 6667 4004 L 45 0 6644 5237 L 45 0 6644 4334 L 0 1396 6667 4334 L 45 0 6644 5730 L
45 0 7507 2382 L 0 1156 7530 2382 L 45 0 7507 3538 L 45 0 7507 5088 L 0 1031 7530 5088 L 45 0 7507 6119 L 45 0 7507 4021 L
0 904 7530 4021 L 45 0 7507 4925 L 45 0 7507 3376 L 0 1378 7530 3376 L 45 0 7507 4754 L 45 0 7507 3708 L 0 1228 7530 3708 L
45 0 7507 4936 L 45 0 7507 3959 L 0 1024 7530 3959 L 45 0 7507 4983 L 45 0 7507 3831 L 0 917 7530 3831 L 45 0 7507 4748 L
45 0 7507 3769 L 0 722 7530 3769 L 45 0 7507 4491 L 45 0 7507 4160 L 0 727 7530 4160 L 45 0 7507 4887 L 45 0 7507 4008 L
0 733 7530 4008 L 45 0 7507 4741 L 45 0 7507 4035 L 0 793 7530 4035 L 45 0 7507 4828 L 45 0 7507 4042 L 0 905 7530 4042 L
45 0 7507 4947 L 45 0 7507 3911 L 0 1032 7530 3911 L 45 0 7507 4943 L 45 0 7507 3399 L 0 1278 7530 3399 L 45 0 7507 4677 L
45 0 7507 3776 L 0 926 7530 3776 L 45 0 7507 4702 L 45 0 7507 3908 L 0 910 7530 3908 L 45 0 7507 4818 L 45 0 7507 4062 L
0 1052 7530 4062 L 45 0 7507 5114 L 45 0 7507 3666 L 0 1168 7530 3666 L 45 0 7507 4834 L 45 0 7507 4305 L 0 1430 7530 4305 L
45 0 7507 5735 L 45 0 7507 3646 L 0 1242 7530 3646 L 45 0 7507 4888 L 45 0 7507 3352 L 0 1471 7530 3352 L 45 0 7507 4823 L
45 0 7507 4487 L 0 1102 7530 4487 L 45 0 7507 5589 L 45 0 7507 2966 L 0 1111 7530 2966 L 45 0 7507 4077 L 45 0 7507 3730 L
0 1430 7530 3730 L 45 0 7507 5160 L 45 0 7507 3535 L 0 1201 7530 3535 L 45 0 7507 4736 L 45 0 7507 2687 L 0 1114 7530 2687 L
45 0 7507 3801 L 45 0 7507 4112 L 0 1388 7530 4112 L 45 0 7507 5500 L 45 0 7507 3276 L 0 1073 7530 3276 L 45 0 7507 4349 L
45 0 7507 3720 L 0 1087 7530 3720 L 45 0 7507 4807 L 45 0 7507 3610 L 0 1295 7530 3610 L 45 0 7507 4905 L 45 0 7507 2923 L
0 1260 7530 2923 L 45 0 7507 4183 L 45 0 7507 3806 L 0 1067 7530 3806 L 45 0 7507 4873 L 45 0 7507 3198 L 0 1415 7530 3198 L
45 0 7507 4613 L 45 0 7507 3798 L 0 1153 7530 3798 L 45 0 7507 4951 L 45 0 7507 3722 L 0 1234 7530 3722 L 45 0 7507 4956 L
45 0 7507 3431 L 0 1325 7530 3431 L 45 0 7507 4756 L 45 0 7507 3790 L 0 1300 7530 3790 L 45 0 7507 5090 L 45 0 7507 4519 L
0 1252 7530 4519 L 45 0 7507 5771 L 45 0 7507 3722 L 0 1439 7530 3722 L 45 0 7507 5161 L 45 0 7507 3344 L 0 1531 7530 3344 L
45 0 7507 4875 L 45 0 7507 3614 L 0 1069 7530 3614 L 45 0 7507 4683 L 45 0 7507 3448 L 0 1347 7530 3448 L 45 0 7507 4795 L
45 0 7507 5072 L 0 1348 7530 5072 L 45 0 7507 6420 L 45 0 7507 4216 L 0 1287 7530 4216 L 45 0 7507 5503 L 45 0 7507 4280 L
0 1512 7530 4280 L 45 0 7507 5792 L 45 0 7507 3425 L 0 1242 7530 3425 L 45 0 7507 4667 L 45 0 7507 4194 L 0 1171 7530 4194 L
45 0 7507 5365 L 45 0 7507 4604 L 0 1382 7530 4604 L 45 0 7507 5986 L 45 0 7508 3251 L 0 1231 7530 3251 L 45 0 7508 4482 L
45 0 7508 3655 L 0 767 7530 3655 L 45 0 7508 4422 L 45 0 7508 4223 L 0 1010 7530 4223 L 45 0 7508 5233 L 45 0 7508 4325 L
0 1125 7530 4325 L 45 0 7508 5450 L 45 0 7508 4043 L 0 1163 7530 4043 L 45 0 7508 5206 L 45 0 7508 3349 L 0 1466 7530 3349 L
45 0 7508 4815 L 45 0 7508 3672 L 0 1454 7530 3672 L 45 0 7508 5126 L 45 0 7508 4718 L 0 862 7530 4718 L 45 0 7508 5580 L
45 0 7508 3661 L 0 917 7530 3661 L 45 0 7508 4578 L 45 0 7508 3483 L 0 1020 7530 3483 L 45 0 7508 4503 L 45 0 7508 3528 L
0 1045 7530 3528 L 45 0 7508 4573 L 45 0 7508 4382 L 0 1142 7530 4382 L 45 0 7508 5524 L 45 0 7508 3126 L 0 1433 7530 3126 L
45 0 7508 4559 L 45 0 7508 3597 L 0 1305 7530 3597 L 45 0 7508 4902 L 45 0 7508 4685 L 0 913 7530 4685 L 45 0 7508 5598 L
45 0 7508 3959 L 0 1472 7530 3959 L 45 0 7508 5431 L 45 0 7508 3813 L 0 1406 7530 3813 L 45 0 7508 5219 L 45 0 7508 3058 L
0 1444 7530 3058 L 45 0 7508 4502 L 45 0 7508 3551 L 0 2029 7530 3551 L 45 0 7508 5580 L 45 0 7508 3178 L 0 1266 7530 3178 L
45 0 7508 4444 L 45 0 7508 3315 L 0 897 7530 3315 L 45 0 7508 4212 L 45 0 7508 3356 L 0 1182 7530 3356 L 45 0 7508 4538 L
45 0 7508 2685 L 0 1085 7530 2685 L 45 0 7508 3770 L 45 0 7508 3286 L 0 1112 7530 3286 L 45 0 7508 4398 L 45 0 7508 3353 L
0 995 7530 3353 L 45 0 7508 4348 L 45 0 7508 3527 L 0 1001 7530 3527 L 45 0 7508 4528 L 45 0 7508 3581 L 0 1231 7530 3581 L
45 0 7508 4812 L 45 0 7508 3689 L 0 1228 7530 3689 L 45 0 7508 4917 L 45 0 7508 3479 L 0 1126 7530 3479 L 45 0 7508 4605 L
45 0 7508 4766 L 0 1012 7530 4766 L 45 0 7508 5778 L 45 0 7508 3652 L 0 974 7530 3652 L 45 0 7508 4626 L 0 1327 7530 1170 L
45 0 7508 2497 L 45 0 7508 3598 L 0 1095 7530 3598 L 45 0 7508 4693 L 45 0 7508 4788 L 0 879 7530 4788 L 45 0 7508 5667 L
45 0 7508 4719 L 0 1252 7530 4719 L 45 0 7508 5971 L 45 0 7508 4007 L 0 1486 7530 4007 L 45 0 7508 5493 L 45 0 7508 4048 L
0 1039 7530 4048 L 45 0 7508 5087 L 45 0 7508 1885 L 0 1310 7530 1885 L 45 0 7508 3195 L 45 0 7508 3801 L 0 1615 7530 3801 L
45 0 7508 5416 L 45 0 7508 3284 L 0 1341 7530 3284 L 45 0 7508 4625 L 45 0 7508 3244 L 0 904 7530 3244 L 45 0 7508 4148 L
45 0 7508 3082 L 0 1296 7530 3082 L 45 0 7508 4378 L 45 0 7508 4511 L 0 866 7530 4511 L 45 0 7508 5377 L 45 0 7508 3703 L
0 1407 7530 3703 L 45 0 7508 5110 L 45 0 7508 3979 L 0 1185 7530 3979 L 45 0 7508 5164 L 45 0 7508 4506 L 0 1395 7530 4506 L
45 0 7508 5901 L 45 0 7508 4656 L 0 1119 7530 4656 L 45 0 7508 5775 L 45 0 7508 3666 L 0 1327 7530 3666 L 45 0 7508 4993 L
45 0 7508 3155 L 0 1514 7530 3155 L 45 0 7508 4669 L 45 0 8548 3903 L 0 1092 8571 3903 L 45 0 8548 4995 L 45 0 8548 5194 L
0 1341 8571 5194 L 45 0 8548 6535 L 45 0 8548 4159 L 0 1474 8571 4159 L 45 0 8548 5633 L 45 0 8548 3774 L 0 1132 8571 3774 L
45 0 8548 4906 L 45 0 8548 3148 L 0 1269 8571 3148 L 45 0 8548 4417 L 45 0 8548 2585 L 0 1508 8571 2585 L 45 0 8548 4093 L
45 0 8548 4367 L 0 1199 8571 4367 L 45 0 8548 5566 L 45 0 8548 3541 L 0 1746 8571 3541 L 45 0 8548 5287 L 45 0 8548 4398 L
0 1318 8571 4398 L 45 0 8548 5716 L 45 0 8548 4287 L 0 1045 8571 4287 L 45 0 8548 5332 L 45 0 8548 3195 L 0 1051 8571 3195 L
45 0 8548 4246 L 45 0 8548 4233 L 0 1270 8571 4233 L 45 0 8548 5503 L 45 0 8548 3833 L 0 1103 8571 3833 L 45 0 8548 4936 L
45 0 8548 4348 L 0 1207 8571 4348 L 45 0 8548 5555 L 45 0 8548 5070 L 0 1412 8571 5070 L 45 0 8548 6482 L 45 0 8548 3402 L
0 1240 8571 3402 L 45 0 8548 4642 L 45 0 8548 4929 L 0 1116 8571 4929 L 45 0 8548 6045 L 45 0 8548 3372 L 0 1489 8571 3372 L
45 0 8548 4861 L 45 0 8548 4071 L 0 1093 8571 4071 L 45 0 8548 5164 L 45 0 8548 3528 L 0 1379 8571 3528 L 45 0 8548 4907 L
45 0 8548 4036 L 0 1187 8571 4036 L 45 0 8548 5223 L 45 0 8548 4260 L 0 1140 8571 4260 L 45 0 8548 5400 L 45 0 8548 3223 L
0 1177 8571 3223 L 45 0 8548 4400 L 45 0 8548 3558 L 0 1428 8571 3558 L 45 0 8548 4986 L 45 0 8548 3288 L 0 1464 8571 3288 L
45 0 8548 4752 L 45 0 8548 4107 L 0 1277 8571 4107 L 45 0 8548 5384 L 45 0 8548 2876 L 0 1399 8571 2876 L 45 0 8548 4275 L
45 0 8548 4401 L 0 1280 8571 4401 L 45 0 8548 5681 L 45 0 8548 4455 L 0 1427 8571 4455 L 45 0 8548 5882 L
0 1024 0 K 2053 4726 M16 2053 4722 M16 2053 4369 M16 2053 4439 M16 2053 4679 M16 2053 4833 M16 2053 4733 M16 2053 4516 M16
2053 4219 M16 2053 4630 M16 2053 3617 M16 2053 4571 M16 2053 4967 M16 2053 4609 M16 2053 4476 M16 2053 4206 M16 2053 4220 M16
2053 4079 M16 2053 4984 M16 2053 5201 M16 2053 4209 M16 2053 4383 M16 2053 4401 M16 2053 4336 M16 2053 4125 M16 2053 4276 M16
2053 4435 M16 2053 4797 M16 2053 5124 M16 2053 4254 M16 2053 4440 M16 2053 4340 M16 2053 4628 M16 2053 4327 M16 2053 4406 M16
2766 4212 M16 2766 4429 M16 2766 4218 M16 2766 4697 M16 2766 4549 M16 2766 4405 M16 2766 4419 M16 2766 4743 M16 2766 4917 M16
2766 4240 M16 2766 4784 M16 2766 4357 M16 2766 4116 M16 2766 4112 M16 2766 4564 M16 2766 4410 M16 2766 4574 M16 2766 4558 M16
2766 4202 M16 2766 4158 M16 2766 4298 M16 2766 4575 M16 2766 4426 M16 2766 4467 M16 2766 4316 M16 2766 4422 M16 2766 4239 M16
2766 4402 M16 2766 4515 M16 2766 4701 M16 2766 4472 M16 2766 4763 M16 2766 4173 M16 2766 4312 M16 2766 4506 M16 2766 4584 M16
2766 4415 M16 3335 4553 M16 3335 4258 M16 3335 4729 M16 3335 4621 M16 3335 4643 M16 3335 4358 M16 3335 4122 M16 3335 3709 M16
3335 4349 M16 3335 4320 M16 3335 4153 M16 3335 4415 M16 3335 4505 M16 3335 4308 M16 3335 4344 M16 3335 4566 M16 3335 4116 M16
3335 4468 M16 3335 4264 M16 3335 4244 M16 3335 4353 M16 3335 4483 M16 3335 4297 M16 3335 5075 M16 3335 4648 M16 3335 4321 M16
3335 4372 M16 3335 4613 M16 3335 4634 M16 3335 3974 M16 3335 4086 M16 3335 4843 M16 3335 4379 M16 3335 4225 M16 3335 4463 M16
3335 4779 M16 3990 4273 M16 3990 4301 M16 3990 4293 M16 3990 4572 M16 3990 4689 M16 3990 4894 M16 3990 4577 M16 3990 4358 M16
3990 4448 M16 3990 4439 M16 3990 4370 M16 3990 4441 M16 3990 4582 M16 3990 4243 M16 3990 4459 M16 3990 4318 M16 3990 4450 M16
3990 4555 M16 3990 4359 M16 3990 4451 M16 3990 4359 M16 3990 3976 M16 3990 4070 M16 3990 4366 M16 3990 4240 M16 3990 4456 M16
3990 4628 M16 3990 4295 M16 3990 4299 M16 3990 4330 M16 3990 4379 M16 3990 4393 M16 3990 4469 M16 3990 4120 M16 3990 4348 M16
3990 4468 M16 4555 4121 M16 4555 4175 M16 4555 4167 M16 4555 3882 M16 4555 4685 M16 4555 4216 M16 4555 4602 M16 4555 4619 M16
4555 4478 M16 4555 4262 M16 4555 4113 M16 4555 4428 M16 4555 4267 M16 4555 4451 M16 4555 4524 M16 4555 4386 M16 4555 3959 M16
4555 4174 M16 4555 3903 M16 4555 4212 M16 4555 4032 M16 4555 4651 M16 4555 3880 M16 4555 4471 M16 4555 4497 M16 4555 3953 M16
4555 4787 M16 4555 4877 M16 4555 4531 M16 4555 4225 M16 4555 4637 M16 4555 4329 M16 4555 4690 M16 4555 4531 M16 5176 4414 M16
5176 4486 M16 5176 4721 M16 5176 4245 M16 5176 4166 M16 5176 4235 M16 5176 4513 M16 5176 4705 M16 5176 4653 M16 5176 4318 M16
5176 4063 M16 5176 4224 M16 5176 4557 M16 5176 4354 M16 5176 4006 M16 5176 4317 M16 5176 4337 M16 5176 4422 M16 5176 5002 M16
5176 4373 M16 5176 4393 M16 5176 4630 M16 5176 4318 M16 5176 3961 M16 5176 4533 M16 5176 4156 M16 5176 4866 M16 5176 4034 M16
5176 4681 M16 5176 4454 M16 5176 4574 M16 5176 4262 M16 5176 4509 M16 5176 4416 M16 5176 4280 M16 5176 4613 M16 5776 4436 M16
5776 4415 M16 5776 4013 M16 5776 4203 M16 5776 4372 M16 5776 4455 M16 5776 4210 M16 5776 4231 M16 5776 4551 M16 5776 4456 M16
5776 4202 M16 5776 4255 M16 5776 4762 M16 5776 4404 M16 5776 4495 M16 5776 4534 M16 5776 4084 M16 5776 4445 M16 5776 4313 M16
5776 4711 M16 5776 4649 M16 5776 4416 M16 5776 4014 M16 5776 4226 M16 5776 4412 M16 5776 4229 M16 5776 4444 M16 5776 4252 M16
5776 4576 M16 5776 4515 M16 5776 4599 M16 5776 3961 M16 5776 4449 M16 5776 4322 M16 5776 4527 M16 5776 4510 M16 6697 4523 M16
6697 4955 M16 6697 3716 M16 6697 4512 M16 6697 5015 M16 6697 4126 M16 6697 4515 M16 6697 4425 M16 6697 3867 M16 6697 4452 M16
6697 4602 M16 6697 4411 M16 6697 4414 M16 6697 4436 M16 6697 4019 M16 6697 3946 M16 6697 3979 M16 6697 4599 M16 6697 5100 M16
6697 4263 M16 6697 4418 M16 6697 4460 M16 6697 4578 M16 6697 4584 M16 6697 4009 M16 6697 4630 M16 6697 4432 M16 6697 4688 M16
6697 4663 M16 6697 4388 M16 6697 4852 M16 6697 4051 M16 6697 4441 M16 6697 4434 M16 6697 4734 M16 6697 4289 M16 6697 5489 M16
6697 3961 M16 7469 4331 M16 7469 4550 M16 7469 4451 M16 7469 4551 M16 7469 4156 M16 7469 4626 M16 7469 4429 M16 7469 4797 M16
7469 4353 M16 7469 4435 M16 7469 4346 M16 7469 4553 M16 7469 4384 M16 7469 4065 M16 7469 4253 M16 7469 4577 M16 7469 4394 M16
7469 4574 M16 7469 4487 M16 7469 4284 M16 7469 4520 M16 7469 4435 M16 7469 4243 M16 7469 4635 M16 7469 4674 M16 7469 4729 M16
7469 4379 M16 7469 4583 M16 7469 4150 M16 7469 4282 M16 7469 4282 M16 7469 4178 M16 7469 4290 M16 7469 4812 M16 7469 4164 M16
7469 5121 M16 7469 4485 M16 7469 4539 M16 7469 4405 M16 7469 4447 M16 7469 4634 M16 7469 3917 M16 7469 4576 M16 7469 4250 M16
7469 4387 M16 7469 4735 M16 7469 4851 M16 7469 4262 M16 7469 4484 M16 7469 4644 M16 7469 4431 M16 7469 4213 M16 7469 4345 M16
7469 4467 M16 7469 4486 M16 7469 4312 M16 7469 4247 M16 7469 4563 M16 7469 4371 M16 7469 4535 M16 7469 4898 M16 7469 4831 M16
7469 4771 M16 7469 4222 M16 7469 4171 M16 7469 4306 M16 7469 4393 M16 7469 4573 M16 7469 4653 M16 7469 4493 M16 7469 4427 M16
7469 3822 M16 7469 4245 M16 7469 3909 M16 8540 4052 M16 8540 4228 M16 8540 4210 M16 8540 4142 M16 8540 4768 M16 8540 4164 M16
8540 4086 M16 8540 3911 M16 8540 4160 M16 8540 5312 M16 8540 4497 M16 8540 4282 M16 8540 4420 M16 8540 4409 M16 8540 4776 M16
8540 4596 M16 8540 4359 M16 8540 4199 M16 8540 4714 M16 8540 4357 M16 8540 4348 M16 8540 4693 M16 8540 4184 M16 8540 4381 M16
8540 4370 M16 8540 4984 M16 8540 4146 M16 8540 4655 M16 8540 5074 M16 8540 4448 M16 8540 4290 M16 8540 4128 M16 8540 4902 M16
8540 4018 M16 8540 4310 M16 8540 4476 M16 8540 4559 M16 8541 4247 M16 8541 4582 M16 8541 4239 M16 8541 4534 M16 8541 4088 M16
8541 4346 M16 8541 4482 M16 8541 4780 M16 8541 3896 M16 8541 5193 M16 8541 4443 M16 8541 4462 M16 8541 5079 M16 8541 4346 M16
8541 4083 M16 8541 3780 M16 8541 4376 M16 8541 4689 M16 8541 4093 M16 8541 4900 M16 8541 4102 M16 8541 4930 M16 8541 4478 M16
8541 4152 M16 8541 4289 M16 8541 4063 M16 8541 4282 M16 8541 4464 M16 8541 4651 M16 8541 4507 M16 8541 4547 M16 8541 4722 M16
8541 4478 M16 8541 4509 M16 8541 4354 M16
45 0 2030 4327 L 0 799 2053 4327 L 45 0 2030 5126 L 45 0 2030 4440 L 0 564 2053 4440 L 45 0 2030 5004 L 45 0 2030 4032 L
0 673 2053 4032 L 45 0 2030 4705 L 45 0 2030 4020 L 0 837 2053 4020 L 45 0 2030 4857 L 45 0 2030 4368 L 0 622 2053 4368 L
45 0 2030 4990 L 45 0 2030 4590 L 0 487 2053 4590 L 45 0 2030 5077 L 45 0 2030 4374 L 0 719 2053 4374 L 45 0 2030 5093 L
45 0 2030 4293 L 0 446 2053 4293 L 45 0 2030 4739 L 45 0 2030 3976 L 0 486 2053 3976 L 45 0 2030 4462 L 45 0 2030 4455 L
0 349 2053 4455 L 45 0 2030 4804 L 45 0 2030 3287 L 0 659 2053 3287 L 45 0 2030 3946 L 45 0 2030 4357 L 0 428 2053 4357 L
45 0 2030 4785 L 45 0 2030 4636 L 0 661 2053 4636 L 45 0 2030 5297 L 45 0 2030 4386 L 0 446 2053 4386 L 45 0 2030 4832 L
45 0 2030 4206 L 0 541 2053 4206 L 45 0 2030 4747 L 45 0 2030 3923 L 0 565 2053 3923 L 45 0 2030 4488 L 45 0 2030 4036 L
0 368 2053 4036 L 45 0 2030 4404 L 45 0 2030 3871 L 0 417 2053 3871 L 45 0 2030 4288 L 45 0 2030 4721 L 0 526 2053 4721 L
45 0 2030 5247 L 45 0 2030 4807 L 0 787 2053 4807 L 45 0 2030 5594 L 45 0 2030 4021 L 0 376 2053 4021 L 45 0 2030 4397 L
45 0 2030 4102 L 0 562 2053 4102 L 45 0 2030 4664 L 45 0 2030 4200 L 0 403 2053 4200 L 45 0 2030 4603 L 45 0 2030 4154 L
0 364 2053 4154 L 45 0 2030 4518 L 45 0 2030 3971 L 0 308 2053 3971 L 45 0 2030 4279 L 45 0 2030 4033 L 0 486 2053 4033 L
45 0 2030 4519 L 45 0 2030 4262 L 0 346 2053 4262 L 45 0 2030 4608 L 45 0 2030 4525 L 0 544 2053 4525 L 45 0 2030 5069 L
45 0 2030 4839 L 0 570 2053 4839 L 45 0 2030 5409 L 45 0 2030 3993 L 0 522 2053 3993 L 45 0 2030 4515 L 45 0 2030 4222 L
0 436 2053 4222 L 45 0 2030 4658 L 45 0 2030 4122 L 0 436 2053 4122 L 45 0 2030 4558 L 45 0 2030 4516 L 0 223 2053 4516 L
45 0 2030 4739 L 45 0 2030 4208 L 0 239 2053 4208 L 45 0 2030 4447 L 45 0 2030 4192 L 0 427 2053 4192 L 45 0 2030 4619 L
45 0 2743 3929 L 0 565 2766 3929 L 45 0 2743 4494 L 45 0 2743 4227 L 0 403 2766 4227 L 45 0 2743 4630 L 45 0 2743 4052 L
0 332 2766 4052 L 45 0 2743 4384 L 45 0 2743 4471 L 0 451 2766 4471 L 45 0 2743 4922 L 45 0 2743 4223 L 0 651 2766 4223 L
45 0 2743 4874 L 45 0 2743 4228 L 0 355 2766 4228 L 45 0 2743 4583 L 45 0 2743 4269 L 0 300 2766 4269 L 45 0 2743 4569 L
45 0 2743 4472 L 0 542 2766 4472 L 45 0 2743 5014 L 45 0 2743 4717 L 0 400 2766 4717 L 45 0 2743 5117 L 45 0 2743 4064 L
0 352 2766 4064 L 45 0 2743 4416 L 45 0 2743 4598 L 0 372 2766 4598 L 45 0 2743 4970 L 45 0 2743 4246 L 0 222 2766 4246 L
45 0 2743 4468 L 45 0 2743 3955 L 0 322 2766 3955 L 45 0 2743 4277 L 45 0 2743 3938 L 0 348 2766 3938 L 45 0 2743 4286 L
45 0 2743 4397 L 0 334 2766 4397 L 45 0 2743 4731 L 45 0 2743 4235 L 0 351 2766 4235 L 45 0 2743 4586 L 45 0 2743 4114 L
0 919 2766 4114 L 45 0 2743 5033 L 45 0 2743 4424 L 0 267 2766 4424 L 45 0 2743 4691 L 45 0 2743 4051 L 0 303 2766 4051 L
45 0 2743 4354 L 45 0 2743 3989 L 0 338 2766 3989 L 45 0 2743 4327 L 45 0 2743 4145 L 0 305 2766 4145 L 45 0 2743 4450 L
45 0 2743 4347 L 0 456 2766 4347 L 45 0 2743 4803 L 45 0 2743 4312 L 0 227 2766 4312 L 45 0 2743 4539 L 45 0 2743 4325 L
0 284 2766 4325 L 45 0 2743 4609 L 45 0 2743 4159 L 0 314 2766 4159 L 45 0 2743 4473 L 45 0 2743 4285 L 0 274 2766 4285 L
45 0 2743 4559 L 45 0 2743 4155 L 0 168 2766 4155 L 45 0 2743 4323 L 45 0 2743 4309 L 0 185 2766 4309 L 45 0 2743 4494 L
45 0 2743 4364 L 0 302 2766 4364 L 45 0 2743 4666 L 45 0 2743 4386 L 0 630 2766 4386 L 45 0 2743 5016 L 45 0 2743 4323 L
0 299 2766 4323 L 45 0 2743 4622 L 45 0 2743 4460 L 0 606 2766 4460 L 45 0 2743 5066 L 45 0 2743 3964 L 0 418 2766 3964 L
45 0 2743 4382 L 45 0 2743 4200 L 0 224 2766 4200 L 45 0 2743 4424 L 45 0 2743 4358 L 0 296 2766 4358 L 45 0 2743 4654 L
45 0 2743 4332 L 0 504 2766 4332 L 45 0 2743 4836 L 45 0 2743 4195 L 0 441 2766 4195 L 45 0 2743 4636 L 45 0 3313 4348 L
0 409 3335 4348 L 45 0 3313 4757 L 45 0 3313 4011 L 0 493 3335 4011 L 45 0 3313 4504 L 45 0 3313 4493 L 0 472 3335 4493 L
45 0 3313 4965 L 45 0 3313 4422 L 0 399 3335 4422 L 45 0 3313 4821 L 45 0 3313 4422 L 0 441 3335 4422 L 45 0 3313 4863 L
45 0 3313 4131 L 0 455 3335 4131 L 45 0 3313 4586 L 45 0 3313 3924 L 0 395 3335 3924 L 45 0 3313 4319 L 45 0 3313 3389 L
0 639 3335 3389 L 45 0 3313 4028 L 45 0 3313 4154 L 0 390 3335 4154 L 45 0 3313 4544 L 45 0 3313 4153 L 0 335 3335 4153 L
45 0 3313 4488 L 45 0 3313 4004 L 0 298 3335 4004 L 45 0 3313 4302 L 45 0 3313 4225 L 0 381 3335 4225 L 45 0 3313 4606 L
45 0 3313 4330 L 0 351 3335 4330 L 45 0 3313 4681 L 45 0 3313 4130 L 0 355 3335 4130 L 45 0 3313 4485 L 45 0 3313 4179 L
0 331 3335 4179 L 45 0 3313 4510 L 45 0 3313 4359 L 0 414 3335 4359 L 45 0 3313 4773 L 45 0 3313 3517 L 0 1198 3335 3517 L
45 0 3313 4715 L 45 0 3313 4277 L 0 382 3335 4277 L 45 0 3313 4659 L 45 0 3313 4133 L 0 261 3335 4133 L 45 0 3313 4394 L
45 0 3313 4017 L 0 454 3335 4017 L 45 0 3313 4471 L 45 0 3313 4201 L 0 305 3335 4201 L 45 0 3313 4506 L 45 0 3313 4302 L
0 363 3335 4302 L 45 0 3313 4665 L 45 0 3313 4097 L 0 400 3335 4097 L 45 0 3313 4497 L 45 0 3313 4692 L 0 765 3335 4692 L
45 0 3313 5457 L 45 0 3313 4419 L 0 458 3335 4419 L 45 0 3313 4877 L 45 0 3313 4046 L 0 550 3335 4046 L 45 0 3313 4596 L
45 0 3313 4165 L 0 414 3335 4165 L 45 0 3313 4579 L 45 0 3313 4306 L 0 614 3335 4306 L 45 0 3313 4920 L 45 0 3313 4224 L
0 820 3335 4224 L 45 0 3313 5044 L 45 0 3313 3606 L 0 737 3335 3606 L 45 0 3313 4343 L 45 0 3313 3652 L 0 869 3335 3652 L
45 0 3313 4521 L 45 0 3313 4689 L 0 307 3335 4689 L 45 0 3313 4996 L 45 0 3313 4176 L 0 406 3335 4176 L 45 0 3313 4582 L
45 0 3313 4035 L 0 381 3335 4035 L 45 0 3313 4416 L 45 0 3313 4344 L 0 237 3335 4344 L 45 0 3313 4581 L 45 0 3313 4556 L
0 447 3335 4556 L 45 0 3313 5003 L 45 0 3968 4065 L 0 415 3990 4065 L 45 0 3968 4480 L 45 0 3968 4143 L 0 316 3990 4143 L
45 0 3968 4459 L 45 0 3968 4109 L 0 368 3990 4109 L 45 0 3968 4477 L 45 0 3968 4374 L 0 397 3990 4374 L 45 0 3968 4771 L
45 0 3968 4545 L 0 288 3990 4545 L 45 0 3968 4833 L 45 0 3968 4705 L 0 379 3990 4705 L 45 0 3968 5084 L 45 0 3968 4311 L
0 532 3990 4311 L 45 0 3968 4843 L 45 0 3968 4112 L 0 492 3990 4112 L 45 0 3968 4604 L 45 0 3968 4207 L 0 483 3990 4207 L
45 0 3968 4690 L 45 0 3968 4311 L 0 256 3990 4311 L 45 0 3968 4567 L 45 0 3968 4219 L 0 301 3990 4219 L 45 0 3968 4520 L
45 0 3968 4343 L 0 195 3990 4343 L 45 0 3968 4538 L 45 0 3968 4394 L 0 376 3990 4394 L 45 0 3968 4770 L 45 0 3968 4047 L
0 393 3990 4047 L 45 0 3968 4440 L 45 0 3968 4356 L 0 206 3990 4356 L 45 0 3968 4562 L 45 0 3968 4190 L 0 256 3990 4190 L
45 0 3968 4446 L 45 0 3968 4266 L 0 369 3990 4266 L 45 0 3968 4635 L 45 0 3968 4369 L 0 372 3990 4369 L 45 0 3968 4741 L
45 0 3968 4192 L 0 334 3990 4192 L 45 0 3968 4526 L 45 0 3968 4261 L 0 380 3990 4261 L 45 0 3968 4641 L 45 0 3968 4047 L
0 624 3990 4047 L 45 0 3968 4671 L 45 0 3968 3724 L 0 504 3990 3724 L 45 0 3968 4228 L 45 0 3968 3791 L 0 557 3990 3791 L
45 0 3968 4348 L 45 0 3968 4178 L 0 377 3990 4178 L 45 0 3968 4555 L 45 0 3968 4082 L 0 316 3990 4082 L 45 0 3968 4398 L
45 0 3968 4356 L 0 201 3990 4356 L 45 0 3968 4557 L 45 0 3968 4452 L 0 352 3990 4452 L 45 0 3968 4804 L 45 0 3968 4083 L
0 425 3990 4083 L 45 0 3968 4508 L 45 0 3968 4115 L 0 367 3990 4115 L 45 0 3968 4482 L 45 0 3968 4224 L 0 212 3990 4224 L
45 0 3968 4436 L 45 0 3968 4281 L 0 196 3990 4281 L 45 0 3968 4477 L 45 0 3968 4309 L 0 169 3990 4309 L 45 0 3968 4478 L
45 0 3968 4254 L 0 429 3990 4254 L 45 0 3968 4683 L 45 0 3968 3943 L 0 355 3990 3943 L 45 0 3968 4298 L 45 0 3968 4166 L
0 365 3990 4166 L 45 0 3968 4531 L 45 0 3968 4313 L 0 309 3990 4313 L 45 0 3968 4622 L 45 0 4533 3679 L 0 884 4555 3679 L
45 0 4533 4563 L 45 0 4533 3737 L 0 876 4555 3737 L 45 0 4533 4613 L 45 0 4533 3829 L 0 676 4555 3829 L 45 0 4533 4505 L
45 0 4533 3508 L 0 748 4555 3508 L 45 0 4533 4256 L 45 0 4533 4273 L 0 825 4555 4273 L 45 0 4533 5098 L 45 0 4533 3902 L
0 628 4555 3902 L 45 0 4533 4530 L 45 0 4533 4284 L 0 637 4555 4284 L 45 0 4533 4921 L 45 0 4533 4269 L 0 700 4555 4269 L
45 0 4533 4969 L 45 0 4533 4228 L 0 500 4555 4228 L 45 0 4533 4728 L 45 0 4533 4039 L 0 446 4555 4039 L 45 0 4533 4485 L
45 0 4533 3894 L 0 437 4555 3894 L 45 0 4533 4331 L 45 0 4533 4139 L 0 578 4555 4139 L 45 0 4533 4717 L 45 0 4533 3991 L
0 552 4555 3991 L 45 0 4533 4543 L 45 0 4533 4232 L 0 438 4555 4232 L 45 0 4533 4670 L 45 0 4533 4224 L 0 601 4555 4224 L
45 0 4533 4825 L 45 0 4533 4138 L 0 496 4555 4138 L 45 0 4533 4634 L 45 0 4533 3675 L 0 568 4555 3675 L 45 0 4533 4243 L
45 0 4533 3781 L 0 785 4555 3781 L 45 0 4533 4566 L 45 0 4533 3503 L 0 800 4555 3503 L 45 0 4533 4303 L 45 0 4533 3962 L
0 500 4555 3962 L 45 0 4533 4462 L 45 0 4533 3710 L 0 643 4555 3710 L 45 0 4533 4353 L 45 0 4533 4383 L 0 536 4555 4383 L
45 0 4533 4919 L 45 0 4533 3580 L 0 599 4555 3580 L 45 0 4533 4179 L 45 0 4533 4263 L 0 416 4555 4263 L 45 0 4533 4679 L
45 0 4533 4260 L 0 474 4555 4260 L 45 0 4533 4734 L 45 0 4533 3615 L 0 676 4555 3615 L 45 0 4533 4291 L 45 0 4533 4456 L
0 661 4555 4456 L 45 0 4533 5117 L 45 0 4533 4569 L 0 616 4555 4569 L 45 0 4533 5185 L 45 0 4533 4236 L 0 591 4555 4236 L
45 0 4533 4827 L 45 0 4533 4005 L 0 440 4555 4005 L 45 0 4533 4445 L 45 0 4533 4423 L 0 427 4555 4423 L 45 0 4533 4850 L
45 0 4533 4171 L 0 315 4555 4171 L 45 0 4533 4486 L 45 0 4533 4489 L 0 403 4555 4489 L 45 0 4533 4892 L 45 0 4533 4300 L
0 462 4555 4300 L 45 0 4533 4762 L 45 0 5154 4077 L 0 674 5176 4077 L 45 0 5154 4751 L 45 0 5154 4217 L 0 537 5176 4217 L
45 0 5154 4754 L 45 0 5154 4456 L 0 531 5176 4456 L 45 0 5154 4987 L 45 0 5154 3981 L 0 529 5176 3981 L 45 0 5154 4510 L
45 0 5154 3944 L 0 443 5176 3944 L 45 0 5154 4387 L 45 0 5154 4029 L 0 412 5176 4029 L 45 0 5154 4441 L 45 0 5154 4166 L
0 694 5176 4166 L 45 0 5154 4860 L 45 0 5154 4206 L 0 999 5176 4206 L 45 0 5154 5205 L 45 0 5154 4419 L 0 468 5176 4419 L
45 0 5154 4887 L 45 0 5154 4068 L 0 500 5176 4068 L 45 0 5154 4568 L 45 0 5154 3852 L 0 422 5176 3852 L 45 0 5154 4274 L
45 0 5154 4086 L 0 277 5176 4086 L 45 0 5154 4363 L 45 0 5154 4335 L 0 445 5176 4335 L 45 0 5154 4780 L 45 0 5154 4169 L
0 371 5176 4169 L 45 0 5154 4540 L 45 0 5154 3665 L 0 682 5176 3665 L 45 0 5154 4347 L 45 0 5154 4152 L 0 331 5176 4152 L
45 0 5154 4483 L 45 0 5154 4194 L 0 286 5176 4194 L 45 0 5154 4480 L 45 0 5154 4196 L 0 452 5176 4196 L 45 0 5154 4648 L
45 0 5154 4658 L 0 688 5176 4658 L 45 0 5154 5346 L 45 0 5154 4147 L 0 451 5176 4147 L 45 0 5154 4598 L 45 0 5154 3960 L
0 866 5176 3960 L 45 0 5154 4826 L 45 0 5154 4379 L 0 503 5176 4379 L 45 0 5154 4882 L 45 0 5154 4149 L 0 337 5176 4149 L
45 0 5154 4486 L 45 0 5154 3554 L 0 814 5176 3554 L 45 0 5154 4368 L 45 0 5154 4273 L 0 520 5176 4273 L 45 0 5154 4793 L
45 0 5154 3987 L 0 337 5176 3987 L 45 0 5154 4324 L 45 0 5154 4615 L 0 502 5176 4615 L 45 0 5154 5117 L 45 0 5154 3608 L
0 852 5176 3608 L 45 0 5154 4460 L 45 0 5154 4281 L 0 799 5176 4281 L 45 0 5154 5080 L 45 0 5154 4232 L 0 444 5176 4232 L
45 0 5154 4676 L 45 0 5154 4439 L 0 270 5176 4439 L 45 0 5154 4709 L 45 0 5154 4074 L 0 376 5176 4074 L 45 0 5154 4450 L
45 0 5154 4276 L 0 466 5176 4276 L 45 0 5154 4742 L 45 0 5154 4268 L 0 297 5176 4268 L 45 0 5154 4565 L 45 0 5154 4067 L
0 426 5176 4067 L 45 0 5154 4493 L 45 0 5154 4373 L 0 481 5176 4373 L 45 0 5154 4854 L 44 0 5754 4230 L 0 412 5776 4230 L
44 0 5754 4642 L 44 0 5754 4200 L 0 429 5776 4200 L 44 0 5754 4629 L 44 0 5754 3848 L 0 329 5776 3848 L 44 0 5754 4177 L
44 0 5754 4040 L 0 326 5776 4040 L 44 0 5754 4366 L 44 0 5754 4238 L 0 267 5776 4238 L 44 0 5754 4505 L 44 0 5754 4254 L
0 403 5776 4254 L 44 0 5754 4657 L 44 0 5754 3994 L 0 432 5776 3994 L 44 0 5754 4426 L 44 0 5754 4066 L 0 329 5776 4066 L
44 0 5754 4395 L 44 0 5754 4363 L 0 375 5776 4363 L 44 0 5754 4738 L 44 0 5754 4200 L 0 513 5776 4200 L 44 0 5754 4713 L
44 0 5754 4029 L 0 346 5776 4029 L 44 0 5754 4375 L 44 0 5754 4076 L 0 358 5776 4076 L 44 0 5754 4434 L 44 0 5754 4553 L
0 419 5776 4553 L 44 0 5754 4972 L 44 0 5754 4297 L 0 214 5776 4297 L 44 0 5754 4511 L 44 0 5754 4326 L 0 338 5776 4326 L
44 0 5754 4664 L 44 0 5754 4408 L 0 251 5776 4408 L 44 0 5754 4659 L 44 0 5754 3766 L 0 636 5776 3766 L 44 0 5754 4402 L
44 0 5754 4279 L 0 333 5776 4279 L 44 0 5754 4612 L 44 0 5754 4148 L 0 329 5776 4148 L 44 0 5754 4477 L 44 0 5754 4548 L
0 326 5776 4548 L 44 0 5754 4874 L 44 0 5754 4510 L 0 278 5776 4510 L 44 0 5754 4788 L 44 0 5754 4192 L 0 447 5776 4192 L
44 0 5754 4639 L 44 0 5754 3631 L 0 766 5776 3631 L 44 0 5754 4397 L 44 0 5754 3962 L 0 528 5776 3962 L 44 0 5754 4490 L
44 0 5754 4062 L 0 700 5776 4062 L 44 0 5754 4762 L 44 0 5754 4095 L 0 268 5776 4095 L 44 0 5754 4363 L 44 0 5754 4232 L
0 424 5776 4232 L 44 0 5754 4656 L 44 0 5754 4005 L 0 494 5776 4005 L 44 0 5754 4499 L 44 0 5754 4344 L 0 463 5776 4344 L
44 0 5754 4807 L 44 0 5754 4378 L 0 274 5776 4378 L 44 0 5754 4652 L 44 0 5754 4380 L 0 438 5776 4380 L 44 0 5754 4818 L
44 0 5754 3744 L 0 433 5776 3744 L 44 0 5754 4177 L 44 0 5754 4378 L 0 142 5776 4378 L 44 0 5754 4520 L 44 0 5754 4203 L
0 238 5776 4203 L 44 0 5754 4441 L 44 0 5754 4306 L 0 441 5776 4306 L 44 0 5754 4747 L 44 0 5754 4087 L 0 846 5776 4087 L
44 0 5754 4933 L 45 0 6675 4210 L 0 627 6697 4210 L 45 0 6675 4837 L 45 0 6675 4755 L 0 401 6697 4755 L 45 0 6675 5156 L
45 0 6675 3468 L 0 495 6697 3468 L 45 0 6675 3963 L 45 0 6675 4213 L 0 597 6697 4213 L 45 0 6675 4810 L 45 0 6675 4720 L
0 590 6697 4720 L 45 0 6675 5310 L 45 0 6675 3902 L 0 447 6697 3902 L 45 0 6675 4349 L 45 0 6675 4213 L 0 604 6697 4213 L
45 0 6675 4817 L 45 0 6675 4129 L 0 592 6697 4129 L 45 0 6675 4721 L 45 0 6675 3582 L 0 571 6697 3582 L 45 0 6675 4153 L
45 0 6675 4238 L 0 428 6697 4238 L 45 0 6675 4666 L 45 0 6675 4439 L 0 325 6697 4439 L 45 0 6675 4764 L 45 0 6675 4093 L
0 637 6697 4093 L 45 0 6675 4730 L 45 0 6675 4197 L 0 434 6697 4197 L 45 0 6675 4631 L 45 0 6675 4327 L 0 218 6697 4327 L
45 0 6675 4545 L 45 0 6675 3759 L 0 520 6697 3759 L 45 0 6675 4279 L 45 0 6675 3486 L 0 919 6697 3486 L 45 0 6675 4405 L
45 0 6675 3628 L 0 702 6697 3628 L 45 0 6675 4330 L 45 0 6675 4426 L 0 347 6697 4426 L 45 0 6675 4773 L 45 0 6675 4741 L
0 717 6697 4741 L 45 0 6675 5458 L 45 0 6675 4010 L 0 505 6697 4010 L 45 0 6675 4515 L 45 0 6675 4258 L 0 319 6697 4258 L
45 0 6675 4577 L 45 0 6675 4276 L 0 368 6697 4276 L 45 0 6675 4644 L 45 0 6675 4404 L 0 347 6697 4404 L 45 0 6675 4751 L
45 0 6675 4256 L 0 657 6697 4256 L 45 0 6675 4913 L 45 0 6675 3746 L 0 526 6697 3746 L 45 0 6675 4272 L 45 0 6675 4444 L
0 372 6697 4444 L 45 0 6675 4816 L 45 0 6675 4268 L 0 328 6697 4268 L 45 0 6675 4596 L 45 0 6675 4506 L 0 364 6697 4506 L
45 0 6675 4870 L 45 0 6675 4400 L 0 526 6697 4400 L 45 0 6675 4926 L 45 0 6675 4204 L 0 369 6697 4204 L 45 0 6675 4573 L
45 0 6675 4608 L 0 488 6697 4608 L 45 0 6675 5096 L 45 0 6675 3766 L 0 570 6697 3766 L 45 0 6675 4336 L 45 0 6675 4208 L
0 467 6697 4208 L 45 0 6675 4675 L 45 0 6675 4319 L 0 230 6697 4319 L 45 0 6675 4549 L 45 0 6675 4492 L 0 484 6697 4492 L
45 0 6675 4976 L 45 0 6675 4160 L 0 259 6697 4160 L 45 0 6675 4419 L 45 0 6675 5138 L 0 703 6697 5138 L 45 0 6675 5841 L
45 0 6675 3558 L 0 806 6697 3558 L 45 0 6675 4364 L 45 0 7446 4081 L 0 499 7469 4081 L 45 0 7446 4580 L 45 0 7446 4306 L
0 487 7469 4306 L 45 0 7446 4793 L 45 0 7446 4217 L 0 468 7469 4217 L 45 0 7446 4685 L 45 0 7446 4324 L 0 455 7469 4324 L
45 0 7446 4779 L 45 0 7446 3943 L 0 427 7469 3943 L 45 0 7446 4370 L 45 0 7446 4434 L 0 383 7469 4434 L 45 0 7446 4817 L
45 0 7446 4291 L 0 276 7469 4291 L 45 0 7446 4567 L 45 0 7446 4575 L 0 444 7469 4575 L 45 0 7446 5019 L 45 0 7446 4088 L
0 529 7469 4088 L 45 0 7446 4617 L 45 0 7446 4251 L 0 368 7469 4251 L 45 0 7446 4619 L 45 0 7446 4085 L 0 522 7469 4085 L
45 0 7446 4607 L 45 0 7446 4356 L 0 394 7469 4356 L 45 0 7446 4750 L 45 0 7446 4250 L 0 268 7469 4250 L 45 0 7446 4518 L
45 0 7446 3867 L 0 396 7469 3867 L 45 0 7446 4263 L 45 0 7446 4107 L 0 292 7469 4107 L 45 0 7446 4399 L 45 0 7446 4373 L
0 408 7469 4373 L 45 0 7446 4781 L 45 0 7446 4200 L 0 388 7469 4200 L 45 0 7446 4588 L 45 0 7446 4335 L 0 478 7469 4335 L
45 0 7446 4813 L 45 0 7446 4336 L 0 302 7469 4336 L 45 0 7446 4638 L 45 0 7446 4088 L 0 392 7469 4088 L 45 0 7446 4480 L
45 0 7446 4175 L 0 689 7469 4175 L 45 0 7446 4864 L 45 0 7446 4135 L 0 601 7469 4135 L 45 0 7446 4736 L 45 0 7446 4085 L
0 315 7469 4085 L 45 0 7446 4400 L 45 0 7446 4422 L 0 426 7469 4422 L 45 0 7446 4848 L 45 0 7446 4508 L 0 332 7469 4508 L
45 0 7446 4840 L 45 0 7446 4418 L 0 622 7469 4418 L 45 0 7446 5040 L 45 0 7446 4064 L 0 630 7469 4064 L 45 0 7446 4694 L
45 0 7446 4280 L 0 606 7469 4280 L 45 0 7446 4886 L 45 0 7446 3780 L 0 741 7469 3780 L 45 0 7446 4521 L 45 0 7446 4001 L
0 561 7469 4001 L 45 0 7446 4562 L 45 0 7446 4073 L 0 419 7469 4073 L 45 0 7446 4492 L 45 0 7446 4004 L 0 349 7469 4004 L
45 0 7446 4353 L 45 0 7446 3975 L 0 629 7469 3975 L 45 0 7446 4604 L 45 0 7446 4455 L 0 714 7469 4455 L 45 0 7446 5169 L
45 0 7446 4011 L 0 306 7469 4011 L 45 0 7446 4317 L 45 0 7446 4726 L 0 790 7469 4726 L 45 0 7446 5516 L 45 0 7446 4229 L
0 512 7469 4229 L 45 0 7446 4741 L 45 0 7446 3985 L 0 1109 7469 3985 L 45 0 7446 5094 L 45 0 7447 4108 L 0 594 7469 4108 L
45 0 7447 4702 L 45 0 7447 4229 L 0 437 7469 4229 L 45 0 7447 4666 L 45 0 7447 4338 L 0 592 7469 4338 L 45 0 7447 4930 L
45 0 7447 3611 L 0 611 7469 3611 L 45 0 7447 4222 L 45 0 7447 4386 L 0 380 7469 4386 L 45 0 7447 4766 L 45 0 7447 4007 L
0 487 7469 4007 L 45 0 7447 4494 L 45 0 7447 4141 L 0 492 7469 4141 L 45 0 7447 4633 L 45 0 7447 4427 L 0 615 7469 4427 L
45 0 7447 5042 L 45 0 7447 4534 L 0 634 7469 4534 L 45 0 7447 5168 L 45 0 7447 3894 L 0 735 7469 3894 L 45 0 7447 4629 L
45 0 7447 4202 L 0 563 7469 4202 L 45 0 7447 4765 L 45 0 7447 4318 L 0 653 7469 4318 L 45 0 7447 4971 L 45 0 7447 4240 L
0 383 7469 4240 L 45 0 7447 4623 L 45 0 7447 3972 L 0 481 7469 3972 L 45 0 7447 4453 L 45 0 7447 4180 L 0 331 7469 4180 L
45 0 7447 4511 L 45 0 7447 4235 L 0 465 7469 4235 L 45 0 7447 4700 L 45 0 7447 4220 L 0 531 7469 4220 L 45 0 7447 4751 L
45 0 7447 4156 L 0 312 7469 4156 L 45 0 7447 4468 L 45 0 7447 4107 L 0 280 7469 4107 L 45 0 7447 4387 L 45 0 7447 4343 L
0 440 7469 4343 L 45 0 7447 4783 L 45 0 7447 4043 L 0 656 7469 4043 L 45 0 7447 4699 L 45 0 7447 4281 L 0 508 7469 4281 L
45 0 7447 4789 L 45 0 7447 4682 L 0 433 7469 4682 L 45 0 7447 5115 L 45 0 7447 4529 L 0 603 7469 4529 L 45 0 7447 5132 L
45 0 7447 4533 L 0 475 7469 4533 L 45 0 7447 5008 L 45 0 7447 3962 L 0 520 7469 3962 L 45 0 7447 4482 L 45 0 7447 3995 L
0 352 7469 3995 L 45 0 7447 4347 L 45 0 7447 3937 L 0 738 7469 3937 L 45 0 7447 4675 L 45 0 7447 4063 L 0 661 7469 4063 L
45 0 7447 4724 L 45 0 7447 4223 L 0 700 7469 4223 L 45 0 7447 4923 L 45 0 7447 4404 L 0 498 7469 4404 L 45 0 7447 4902 L
45 0 7447 4148 L 0 691 7469 4148 L 45 0 7447 4839 L 45 0 7447 4261 L 0 332 7469 4261 L 45 0 7447 4593 L 45 0 7447 3539 L
0 567 7469 3539 L 45 0 7447 4106 L 45 0 7447 3863 L 0 765 7469 3863 L 45 0 7447 4628 L 45 0 7447 3496 L 0 826 7469 3496 L
45 0 7447 4322 L 45 0 8518 3586 L 0 932 8540 3586 L 45 0 8518 4518 L 45 0 8518 3992 L 0 472 8540 3992 L 45 0 8518 4464 L
45 0 8518 3854 L 0 713 8540 3854 L 45 0 8518 4567 L 45 0 8518 3802 L 0 680 8540 3802 L 45 0 8518 4482 L 45 0 8518 4480 L
0 576 8540 4480 L 45 0 8518 5056 L 45 0 8518 3932 L 0 464 8540 3932 L 45 0 8518 4396 L 45 0 8518 3846 L 0 480 8540 3846 L
45 0 8518 4326 L 45 0 8518 3633 L 0 556 8540 3633 L 45 0 8518 4189 L 45 0 8518 3635 L 0 1051 8540 3635 L 45 0 8518 4686 L
45 0 8518 4970 L 0 685 8540 4970 L 45 0 8518 5655 L 45 0 8518 4280 L 0 434 8540 4280 L 45 0 8518 4714 L 45 0 8518 4017 L
0 531 8540 4017 L 45 0 8518 4548 L 45 0 8518 4125 L 0 589 8540 4125 L 45 0 8518 4714 L 45 0 8518 4241 L 0 336 8540 4241 L
45 0 8518 4577 L 45 0 8518 4423 L 0 707 8540 4423 L 45 0 8518 5130 L 45 0 8518 4145 L 0 903 8540 4145 L 45 0 8518 5048 L
45 0 8518 4071 L 0 576 8540 4071 L 45 0 8518 4647 L 45 0 8518 3950 L 0 499 8540 3950 L 45 0 8518 4449 L 45 0 8518 4530 L
0 367 8540 4530 L 45 0 8518 4897 L 45 0 8518 3905 L 0 904 8540 3905 L 45 0 8518 4809 L 45 0 8518 4058 L 0 580 8540 4058 L
45 0 8518 4638 L 45 0 8518 4034 L 0 1319 8540 4034 L 45 0 8518 5353 L 45 0 8518 3674 L 0 1021 8540 3674 L 45 0 8518 4695 L
45 0 8518 4094 L 0 575 8540 4094 L 45 0 8518 4669 L 45 0 8518 4167 L 0 406 8540 4167 L 45 0 8518 4573 L 45 0 8518 4548 L
0 871 8540 4548 L 45 0 8518 5419 L 45 0 8518 3854 L 0 584 8540 3854 L 45 0 8518 4438 L 45 0 8518 4407 L 0 495 8540 4407 L
45 0 8518 4902 L 45 0 8518 4669 L 0 809 8540 4669 L 45 0 8518 5478 L 45 0 8518 4295 L 0 306 8540 4295 L 45 0 8518 4601 L
45 0 8518 4039 L 0 502 8540 4039 L 45 0 8518 4541 L 45 0 8518 3663 L 0 930 8540 3663 L 45 0 8518 4593 L 45 0 8518 4577 L
0 650 8540 4577 L 45 0 8518 5227 L 45 0 8518 3667 L 0 703 8540 3667 L 45 0 8518 4370 L 45 0 8518 4211 L 0 198 8540 4211 L
45 0 8518 4409 L 45 0 8518 4267 L 0 418 8540 4267 L 45 0 8518 4685 L 45 0 8518 4323 L 0 473 8540 4323 L 45 0 8518 4796 L
45 0 8518 3844 L 0 805 8541 3844 L 45 0 8518 4649 L 45 0 8518 4156 L 0 852 8541 4156 L 45 0 8518 5008 L 45 0 8518 3930 L
0 618 8541 3930 L 45 0 8518 4548 L 45 0 8518 4162 L 0 744 8541 4162 L 45 0 8518 4906 L 45 0 8518 3803 L 0 569 8541 3803 L
45 0 8518 4372 L 45 0 8518 4027 L 0 638 8541 4027 L 45 0 8518 4665 L 45 0 8518 4197 L 0 571 8541 4197 L 45 0 8518 4768 L
45 0 8518 4428 L 0 705 8541 4428 L 45 0 8518 5133 L 45 0 8518 3476 L 0 840 8541 3476 L 45 0 8518 4316 L 45 0 8518 4848 L
0 689 8541 4848 L 45 0 8518 5537 L 45 0 8518 4292 L 0 302 8541 4292 L 45 0 8518 4594 L 45 0 8518 4113 L 0 697 8541 4113 L
45 0 8518 4810 L 45 0 8518 4750 L 0 658 8541 4750 L 45 0 8518 5408 L 45 0 8518 4090 L 0 513 8541 4090 L 45 0 8518 4603 L
45 0 8518 3722 L 0 722 8541 3722 L 45 0 8518 4444 L 45 0 8518 3379 L 0 801 8541 3379 L 45 0 8518 4180 L 45 0 8518 4047 L
0 657 8541 4047 L 45 0 8518 4704 L 45 0 8518 4445 L 0 488 8541 4445 L 45 0 8518 4933 L 45 0 8518 3704 L 0 778 8541 3704 L
45 0 8518 4482 L 45 0 8518 4357 L 0 1086 8541 4357 L 45 0 8518 5443 L 45 0 8518 3886 L 0 432 8541 3886 L 45 0 8518 4318 L
45 0 8518 4637 L 0 586 8541 4637 L 45 0 8518 5223 L 45 0 8518 4225 L 0 506 8541 4225 L 45 0 8518 4731 L 45 0 8518 3913 L
0 479 8541 3913 L 45 0 8518 4392 L 45 0 8518 4057 L 0 464 8541 4057 L 45 0 8518 4521 L 45 0 8518 3681 L 0 765 8541 3681 L
45 0 8518 4446 L 45 0 8518 4061 L 0 443 8541 4061 L 45 0 8518 4504 L 45 0 8518 4322 L 0 283 8541 4322 L 45 0 8518 4605 L
45 0 8518 4450 L 0 403 8541 4450 L 45 0 8518 4853 L 45 0 8518 4200 L 0 614 8541 4200 L 45 0 8518 4814 L 45 0 8518 4310 L
0 475 8541 4310 L 45 0 8518 4785 L 45 0 8518 4371 L 0 702 8541 4371 L 45 0 8518 5073 L 45 0 8518 4203 L 0 550 8541 4203 L
45 0 8518 4753 L 45 0 8518 4306 L 0 406 8541 4306 L 45 0 8518 4712 L 45 0 8518 4100 L 0 509 8541 4100 L 45 0 8518 4609 L
1024 0 1024 K 2053 4504 M16 2053 4508 M16 2053 4392 M16 2053 4262 M16 2053 4579 M16 2053 4531 M16 2053 4175 M16 2053 4314 M16
2053 4231 M16 2053 4045 M16 2053 4450 M16 2053 4539 M16 2053 3951 M16 2053 4266 M16 2053 4404 M16 2766 4581 M16 2766 4281 M16
2766 4417 M16 2766 4248 M16 2766 4469 M16 2766 4554 M16 2766 4567 M16 2766 4199 M16 2766 4487 M16 2766 4579 M16 2766 4414 M16
2766 4391 M16 2766 4332 M16 2766 4890 M16 2766 3777 M16 3335 4478 M16 3335 4612 M16 3335 4436 M16 3335 4585 M16 3335 4222 M16
3335 4496 M16 3335 4554 M16 3335 4698 M16 3335 4355 M16 3335 4302 M16 3335 4317 M16 3335 4077 M16 3335 4560 M16 3335 4677 M16
3335 4769 M16 3990 4402 M16 3990 4385 M16 3990 4654 M16 3990 4569 M16 3990 4135 M16 3990 4483 M16 3990 4485 M16 3990 4430 M16
3990 4386 M16 3990 4537 M16 3990 4299 M16 3990 4454 M16 3990 4373 M16 3990 4313 M16 3990 4258 M16 4555 4207 M16 4555 4304 M16
4555 4791 M16 4555 4265 M16 4555 4848 M16 4555 4800 M16 4555 4406 M16 4555 4564 M16 4555 4445 M16 4555 4679 M16 4555 4633 M16
4555 4458 M16 4555 4488 M16 4555 4698 M16 5176 4132 M16 5176 4598 M16 5176 4475 M16 5176 4313 M16 5176 4414 M16 5176 4294 M16
5176 4729 M16 5176 4293 M16 5176 3916 M16 5176 4386 M16 5176 4296 M16 5176 4337 M16 5176 4344 M16 5176 5292 M16 5776 4362 M16
5776 4304 M16 5776 4401 M16 5776 3766 M16 5776 4628 M16 5776 4287 M16 5776 4514 M16 5776 4184 M16 5776 4536 M16 5776 4736 M16
5776 4561 M16 5776 4298 M16 5776 4158 M16 6697 4464 M16 6697 4200 M16 6697 4612 M16 6697 4848 M16 6697 4298 M16 6697 4347 M16
6697 4849 M16 6697 4634 M16 6697 4235 M16 6697 4336 M16 6697 4255 M16 6697 4063 M16 6697 4472 M16 6697 4166 M16 6697 4448 M16
7469 4685 M16 7469 4808 M16 7469 4559 M16 7469 4298 M16 7469 5224 M16 7469 4559 M16 7469 4866 M16 7469 4448 M16 7469 4557 M16
7469 4079 M16 7469 4166 M16 7469 4115 M16 7469 3978 M16 7469 4116 M16 7469 4286 M16 7469 4433 M16 7469 4809 M16 7469 4491 M16
7469 4303 M16 7469 4391 M16 7469 4960 M16 7469 4042 M16 7469 4084 M16 7469 4305 M16 7469 3607 M16 7469 4230 M16 8540 4667 M16
8540 4312 M16 8540 4153 M16 8540 4747 M16 8540 4605 M16 8540 4551 M16 8540 4377 M16 8540 4509 M16 8540 4159 M16 8540 4443 M16
8540 4132 M16 8540 4044 M16 8540 4869 M16 8540 4643 M16 8541 5344 M16 8541 4779 M16 8541 4129 M16 8541 4353 M16 8541 4119 M16
8541 4628 M16 8541 4224 M16 8541 4295 M16 8541 4563 M16 8541 4483 M16 8541 4496 M16 8541 4127 M16 8541 4911 M16
45 0 2030 4370 L 0 267 2053 4370 L 45 0 2030 4637 L 45 0 2030 4289 L 0 437 2053 4289 L 45 0 2030 4726 L 45 0 2030 4178 L
0 428 2053 4178 L 45 0 2030 4606 L 45 0 2030 4086 L 0 352 2053 4086 L 45 0 2030 4438 L 45 0 2030 4247 L 0 664 2053 4247 L
45 0 2030 4911 L 45 0 2030 4396 L 0 271 2053 4396 L 45 0 2030 4667 L 45 0 2030 3997 L 0 357 2053 3997 L 45 0 2030 4354 L
45 0 2030 3967 L 0 693 2053 3967 L 45 0 2030 4660 L 45 0 2030 3870 L 0 722 2053 3870 L 45 0 2030 4592 L 45 0 2030 3700 L
0 690 2053 3700 L 45 0 2030 4390 L 45 0 2030 4316 L 0 267 2053 4316 L 45 0 2030 4583 L 45 0 2030 4307 L 0 465 2053 4307 L
45 0 2030 4772 L 45 0 2030 3689 L 0 524 2053 3689 L 45 0 2030 4213 L 45 0 2030 3958 L 0 616 2053 3958 L 45 0 2030 4574 L
45 0 2030 4146 L 0 516 2053 4146 L 45 0 2030 4662 L 45 0 2743 4393 L 0 375 2766 4393 L 45 0 2743 4768 L 45 0 2743 4083 L
0 395 2766 4083 L 45 0 2743 4478 L 45 0 2743 4297 L 0 239 2766 4297 L 45 0 2743 4536 L 45 0 2743 3968 L 0 560 2766 3968 L
45 0 2743 4528 L 45 0 2743 4314 L 0 310 2766 4314 L 45 0 2743 4624 L 45 0 2743 4328 L 0 451 2766 4328 L 45 0 2743 4779 L
45 0 2743 4395 L 0 343 2766 4395 L 45 0 2743 4738 L 45 0 2743 4032 L 0 333 2766 4032 L 45 0 2743 4365 L 45 0 2743 4299 L
0 375 2766 4299 L 45 0 2743 4674 L 45 0 2743 4366 L 0 426 2766 4366 L 45 0 2743 4792 L 45 0 2743 4301 L 0 225 2766 4301 L
45 0 2743 4526 L 45 0 2743 4172 L 0 438 2766 4172 L 45 0 2743 4610 L 45 0 2743 3949 L 0 766 2766 3949 L 45 0 2743 4715 L
45 0 2743 4501 L 0 779 2766 4501 L 45 0 2743 5280 L 45 0 2743 3501 L 0 552 2766 3501 L 45 0 2743 4053 L 45 0 3313 4158 L
0 641 3335 4158 L 45 0 3313 4799 L 45 0 3313 4349 L 0 526 3335 4349 L 45 0 3313 4875 L 45 0 3313 4204 L 0 464 3335 4204 L
45 0 3313 4668 L 45 0 3313 4436 L 0 298 3335 4436 L 45 0 3313 4734 L 45 0 3313 3958 L 0 529 3335 3958 L 45 0 3313 4487 L
45 0 3313 4326 L 0 340 3335 4326 L 45 0 3313 4666 L 45 0 3313 4326 L 0 456 3335 4326 L 45 0 3313 4782 L 45 0 3313 4373 L
0 650 3335 4373 L 45 0 3313 5023 L 45 0 3313 4217 L 0 275 3335 4217 L 45 0 3313 4492 L 45 0 3313 4155 L 0 294 3335 4155 L
45 0 3313 4449 L 45 0 3313 4169 L 0 295 3335 4169 L 45 0 3313 4464 L 45 0 3313 3910 L 0 334 3335 3910 L 45 0 3313 4244 L
45 0 3313 4280 L 0 560 3335 4280 L 45 0 3313 4840 L 45 0 3313 4462 L 0 430 3335 4462 L 45 0 3313 4892 L 45 0 3313 4507 L
0 524 3335 4507 L 45 0 3313 5031 L 45 0 3968 4311 L 0 182 3990 4311 L 45 0 3968 4493 L 45 0 3968 4267 L 0 236 3990 4267 L
45 0 3968 4503 L 45 0 3968 4515 L 0 278 3990 4515 L 45 0 3968 4793 L 45 0 3968 4384 L 0 371 3990 4384 L 45 0 3968 4755 L
45 0 3968 3950 L 0 370 3990 3950 L 45 0 3968 4320 L 45 0 3968 4291 L 0 383 3990 4291 L 45 0 3968 4674 L 45 0 3968 4319 L
0 332 3990 4319 L 45 0 3968 4651 L 45 0 3968 4314 L 0 233 3990 4314 L 45 0 3968 4547 L 45 0 3968 4273 L 0 225 3990 4273 L
45 0 3968 4498 L 45 0 3968 4409 L 0 256 3990 4409 L 45 0 3968 4665 L 45 0 3968 4139 L 0 321 3990 4139 L 45 0 3968 4460 L
45 0 3968 4312 L 0 284 3990 4312 L 45 0 3968 4596 L 45 0 3968 4211 L 0 323 3990 4211 L 45 0 3968 4534 L 45 0 3968 4168 L
0 289 3990 4168 L 45 0 3968 4457 L 45 0 3968 4069 L 0 378 3990 4069 L 45 0 3968 4447 L 45 0 4533 3930 L 0 555 4555 3930 L
45 0 4533 4485 L 45 0 4533 4137 L 0 334 4555 4137 L 45 0 4533 4471 L 45 0 4533 4579 L 0 425 4555 4579 L 45 0 4533 5004 L
45 0 4533 4082 L 0 365 4555 4082 L 45 0 4533 4447 L 45 0 4533 4648 L 0 401 4555 4648 L 45 0 4533 5049 L 45 0 4533 4568 L
0 465 4555 4568 L 45 0 4533 5033 L 45 0 4533 3887 L 0 1039 4555 3887 L 45 0 4533 4926 L 45 0 4533 4378 L 0 373 4555 4378 L
45 0 4533 4751 L 45 0 4533 4292 L 0 306 4555 4292 L 45 0 4533 4598 L 45 0 4533 4550 L 0 258 4555 4550 L 45 0 4533 4808 L
45 0 4533 4389 L 0 488 4555 4389 L 45 0 4533 4877 L 45 0 4533 4095 L 0 727 4555 4095 L 45 0 4533 4822 L 45 0 4533 4082 L
0 811 4555 4082 L 45 0 4533 4893 L 45 0 4533 4280 L 0 837 4555 4280 L 45 0 4533 5117 L 45 0 5154 3825 L 0 613 5176 3825 L
45 0 5154 4438 L 45 0 5154 4346 L 0 504 5176 4346 L 45 0 5154 4850 L 45 0 5154 4364 L 0 221 5176 4364 L 45 0 5154 4585 L
45 0 5154 4016 L 0 594 5176 4016 L 45 0 5154 4610 L 45 0 5154 4147 L 0 534 5176 4147 L 45 0 5154 4681 L 45 0 5154 4003 L
0 583 5176 4003 L 45 0 5154 4586 L 45 0 5154 4306 L 0 845 5176 4306 L 45 0 5154 5151 L 45 0 5154 4025 L 0 537 5176 4025 L
45 0 5154 4562 L 45 0 5154 3619 L 0 595 5176 3619 L 45 0 5154 4214 L 45 0 5154 4169 L 0 434 5176 4169 L 45 0 5154 4603 L
45 0 5154 4036 L 0 520 5176 4036 L 45 0 5154 4556 L 45 0 5154 4101 L 0 471 5176 4101 L 45 0 5154 4572 L 45 0 5154 3991 L
0 706 5176 3991 L 45 0 5154 4697 L 45 0 5154 4866 L 0 852 5176 4866 L 45 0 5154 5718 L 44 0 5754 4096 L 0 532 5776 4096 L
44 0 5754 4628 L 44 0 5754 4088 L 0 432 5776 4088 L 44 0 5754 4520 L 44 0 5754 4178 L 0 445 5776 4178 L 44 0 5754 4623 L
44 0 5754 3483 L 0 566 5776 3483 L 44 0 5754 4049 L 44 0 5754 4196 L 0 864 5776 4196 L 44 0 5754 5060 L 44 0 5754 4079 L
0 415 5776 4079 L 44 0 5754 4494 L 44 0 5754 4318 L 0 392 5776 4318 L 44 0 5754 4710 L 44 0 5754 3780 L 0 809 5776 3780 L
44 0 5754 4589 L 44 0 5754 4204 L 0 665 5776 4204 L 44 0 5754 4869 L 44 0 5754 4307 L 0 857 5776 4307 L 44 0 5754 5164 L
44 0 5754 4327 L 0 469 5776 4327 L 44 0 5754 4796 L 44 0 5754 3964 L 0 667 5776 3964 L 44 0 5754 4631 L 44 0 5754 3823 L
0 670 5776 3823 L 44 0 5754 4493 L 45 0 6675 4255 L 0 417 6697 4255 L 45 0 6675 4672 L 45 0 6675 4077 L 0 246 6697 4077 L
45 0 6675 4323 L 45 0 6675 4490 L 0 243 6697 4490 L 45 0 6675 4733 L 45 0 6675 4584 L 0 528 6697 4584 L 45 0 6675 5112 L
45 0 6675 4150 L 0 296 6697 4150 L 45 0 6675 4446 L 45 0 6675 4155 L 0 384 6697 4155 L 45 0 6675 4539 L 45 0 6675 4512 L
0 673 6697 4512 L 45 0 6675 5185 L 45 0 6675 4419 L 0 431 6697 4419 L 45 0 6675 4850 L 45 0 6675 4009 L 0 451 6697 4009 L
45 0 6675 4460 L 45 0 6675 4125 L 0 422 6697 4125 L 45 0 6675 4547 L 45 0 6675 3875 L 0 760 6697 3875 L 45 0 6675 4635 L
45 0 6675 3761 L 0 603 6697 3761 L 45 0 6675 4364 L 45 0 6675 4301 L 0 343 6697 4301 L 45 0 6675 4644 L 45 0 6675 4064 L
0 203 6697 4064 L 45 0 6675 4267 L 45 0 6675 4252 L 0 392 6697 4252 L 45 0 6675 4644 L 45 0 7446 4382 L 0 607 7469 4382 L
45 0 7446 4989 L 45 0 7446 4528 L 0 559 7469 4528 L 45 0 7446 5087 L 45 0 7446 4265 L 0 588 7469 4265 L 45 0 7446 4853 L
45 0 7446 4002 L 0 592 7469 4002 L 45 0 7446 4594 L 45 0 7446 4803 L 0 841 7469 4803 L 45 0 7446 5644 L 45 0 7446 4262 L
0 595 7469 4262 L 45 0 7446 4857 L 45 0 7446 4639 L 0 455 7469 4639 L 45 0 7446 5094 L 45 0 7446 4235 L 0 426 7469 4235 L
45 0 7446 4661 L 45 0 7446 4348 L 0 418 7469 4348 L 45 0 7446 4766 L 45 0 7446 3778 L 0 602 7469 3778 L 45 0 7446 4380 L
45 0 7446 3766 L 0 800 7469 3766 L 45 0 7446 4566 L 45 0 7446 3822 L 0 586 7469 3822 L 45 0 7446 4408 L 45 0 7446 3434 L
0 1088 7469 3434 L 45 0 7446 4522 L 45 0 7446 3839 L 0 553 7469 3839 L 45 0 7446 4392 L 45 0 7447 3891 L 0 790 7469 3891 L
45 0 7447 4681 L 45 0 7447 4127 L 0 611 7469 4127 L 45 0 7447 4738 L 45 0 7447 4508 L 0 602 7469 4508 L 45 0 7447 5110 L
45 0 7447 4215 L 0 552 7469 4215 L 45 0 7447 4767 L 45 0 7447 3958 L 0 690 7469 3958 L 45 0 7447 4648 L 45 0 7447 4115 L
0 552 7469 4115 L 45 0 7447 4667 L 45 0 7447 4785 L 0 351 7469 4785 L 45 0 7447 5136 L 45 0 7447 3724 L 0 636 7469 3724 L
45 0 7447 4360 L 45 0 7447 3827 L 0 514 7469 3827 L 45 0 7447 4341 L 45 0 7447 4110 L 0 389 7469 4110 L 45 0 7447 4499 L
45 0 7447 3281 L 0 653 7469 3281 L 45 0 7447 3934 L 45 0 7447 3780 L 0 899 7469 3780 L 45 0 7447 4679 L 45 0 8518 4225 L
0 884 8540 4225 L 45 0 8518 5109 L 45 0 8518 4031 L 0 562 8540 4031 L 45 0 8518 4593 L 45 0 8518 3952 L 0 403 8540 3952 L
45 0 8518 4355 L 45 0 8518 4426 L 0 642 8540 4426 L 45 0 8518 5068 L 45 0 8518 4295 L 0 619 8540 4295 L 45 0 8518 4914 L
45 0 8518 4321 L 0 460 8540 4321 L 45 0 8518 4781 L 45 0 8518 4194 L 0 366 8540 4194 L 45 0 8518 4560 L 45 0 8518 4203 L
0 612 8540 4203 L 45 0 8518 4815 L 45 0 8518 3965 L 0 389 8540 3965 L 45 0 8518 4354 L 45 0 8518 4262 L 0 362 8540 4262 L
45 0 8518 4624 L 45 0 8518 3971 L 0 322 8540 3971 L 45 0 8518 4293 L 45 0 8518 3601 L 0 886 8540 3601 L 45 0 8518 4487 L
45 0 8518 4358 L 0 1022 8540 4358 L 45 0 8518 5380 L 45 0 8518 4312 L 0 661 8540 4312 L 45 0 8518 4973 L 45 0 8518 4807 L
0 1073 8541 4807 L 45 0 8518 5880 L 45 0 8518 4421 L 0 715 8541 4421 L 45 0 8518 5136 L 45 0 8518 3878 L 0 502 8541 3878 L
45 0 8518 4380 L 45 0 8518 4184 L 0 339 8541 4184 L 45 0 8518 4523 L 45 0 8518 3802 L 0 634 8541 3802 L 45 0 8518 4436 L
45 0 8518 4265 L 0 726 8541 4265 L 45 0 8518 4991 L 45 0 8518 3896 L 0 656 8541 3896 L 45 0 8518 4552 L 45 0 8518 4117 L
0 356 8541 4117 L 45 0 8518 4473 L 45 0 8518 4046 L 0 1033 8541 4046 L 45 0 8518 5079 L 45 0 8518 4226 L 0 513 8541 4226 L
45 0 8518 4739 L 45 0 8518 4315 L 0 362 8541 4315 L 45 0 8518 4677 L 45 0 8518 3774 L 0 706 8541 3774 L 45 0 8518 4480 L
45 0 8518 4446 L 0 929 8541 4446 L 45 0 8518 5375 L
0 1024 1024 K 0 0 0 K
PGPLOT restore showpage
%%PageTrailer
%%PageBoundingBox: 24 17 588 721
 
%%Trailer
%%BoundingBox: 24 17 588 721
%%DocumentFonts: 
%%Pages: 1
%%EOF
