poln    freq        ndmp   nbin     value
  0 1450.000000      0      0       3.1328
  0 1450.000000      0      1       3.3436
  0 1450.000000      0      2       3.2827
  0 1450.000000      0      3       3.2305
  0 1450.000000      0      4       2.9940
  0 1450.000000      0      5       2.5943
  0 1450.000000      0      6       2.5310
  0 1450.000000      0      7       2.1200
  0 1450.000000      0      8       2.3049
  0 1450.000000      0      9       1.9942
  0 1450.000000      0     10       2.1464
  0 1450.000000      0     11       1.7198
  0 1450.000000      0     12       2.1939
  0 1450.000000      0     13       2.5671
  0 1450.000000      0     14       2.1277
  0 1450.000000      0     15       2.4215
  0 1450.000000      0     16       2.8287
  0 1450.000000      0     17       2.7677
  0 1450.000000      0     18       3.2222
  0 1450.000000      0     19       2.7725
  0 1450.000000      0     20       2.6053
  0 1450.000000      0     21       2.8621
  0 1450.000000      0     22       2.5800
  0 1450.000000      0     23       1.3940
  0 1450.000000      0     24       1.1306
  0 1450.000000      0     25       0.4797
  0 1450.000000      0     26       0.4100
  0 1450.000000      0     27       0.0151
  0 1450.000000      0     28      -0.4275
  0 1450.000000      0     29      -0.1657
  0 1450.000000      0     30       0.2046
  0 1450.000000      0     31      -0.4814
  0 1450.000000      0     32      -0.7301
  0 1450.000000      0     33      -0.8183
  0 1450.000000      0     34      -0.5190
  0 1450.000000      0     35      -0.3385
  0 1450.000000      0     36      -0.6768
  0 1450.000000      0     37      -0.5119
  0 1450.000000      0     38      -0.2137
  0 1450.000000      0     39      -0.3716
  0 1450.000000      0     40       0.2689
  0 1450.000000      0     41       0.0529
  0 1450.000000      0     42      -0.2268
  0 1450.000000      0     43      -0.1255
  0 1450.000000      0     44       0.1796
  0 1450.000000      0     45       0.0804
  0 1450.000000      0     46       0.2236
  0 1450.000000      0     47       0.2648
  0 1450.000000      0     48      -0.2830
  0 1450.000000      0     49       0.3087
  0 1450.000000      0     50       0.5606
  0 1450.000000      0     51       0.0882
  0 1450.000000      0     52       0.0758
  0 1450.000000      0     53      -0.3250
  0 1450.000000      0     54      -0.4106
  0 1450.000000      0     55      -0.2621
  0 1450.000000      0     56      -0.4642
  0 1450.000000      0     57       0.1691
  0 1450.000000      0     58       0.1352
  0 1450.000000      0     59      -0.2406
  0 1450.000000      0     60       0.4362
  0 1450.000000      0     61       1.3923
  0 1450.000000      0     62       1.6490
  0 1450.000000      0     63       2.3936
