%!PS-Adobe-3.0 EPSF-3.0
%%For: bperera
%%Title: PGPLOT PostScript plot
%%Creator: PGPLOT [PSDRIV 6.6]
%%CreationDate: 18-Jun-2016 22:12
%%BoundingBox: (atend)
%%DocumentFonts: (atend)
%%LanguageLevel: 1
%%Orientation: Landscape
%%Pages: (atend)
%%EndComments
%%BeginProlog
/L {moveto rlineto currentpoint stroke moveto} bind def
/C {rlineto currentpoint stroke moveto} bind def
/D {moveto 0 0 rlineto currentpoint stroke moveto} bind def
/LW {5 mul setlinewidth} bind def
/BP {newpath moveto} bind def
/LP /rlineto load def
/EP {rlineto closepath eofill} bind def
/MB {gsave translate MFAC dup scale 1 setlinewidth 2 setlinecap 0 setlinejoin newpath} bind def
/ME /grestore load def
/CC {0 360 arc stroke} bind def
/FC {0 360 arc fill} bind def
/G {1024 div setgray} bind def
/K {3 -1 roll 1024 div 3 -1 roll 1024 div 3 -1 roll 1024 div setrgbcolor} bind def
% Uncomment next line to convert color to grey shades
%/K {3 -1 roll 3413 div 3 -1 roll 1739 div 3 -1 roll 9309 div add add setgray} bind def
%%EndProlog
%%BeginSetup
/#copies 1 def
%%EndSetup
 
%%Page: 1 1
%%BeginPageSetup
/PGPLOT save def
0.072 0.072 scale
8149 250 translate 90 rotate
1 setlinejoin 1 setlinecap 1 LW 1
%%EndPageSetup
%%PageBoundingBox: (atend)
1024 1024 1024 K 1 LW 0 0 BP 9749 0 LP 0 7799 LP -9749 0 EP 0 0 0 K
8286 0 975 1170 L -8286 0 9261 6629 L 0 -5459 C 0 45 1273 1170 L 0 90 1623 1170 L 0 45 1972 1170 L 0 45 2322 1170 L 0 45 2671 1170 L
0 45 3021 1170 L 0 90 3370 1170 L 0 45 3720 1170 L 0 45 4069 1170 L 0 45 4419 1170 L 0 45 4769 1170 L 0 90 5118 1170 L
0 45 5468 1170 L 0 45 5817 1170 L 0 45 6167 1170 L 0 45 6516 1170 L 0 90 6866 1170 L 0 45 7215 1170 L 0 45 7565 1170 L
0 45 7914 1170 L 0 45 8264 1170 L 0 90 8614 1170 L 0 45 8963 1170 L 0 45 1273 6584 L 0 90 1623 6539 L 0 45 1972 6584 L
0 45 2322 6584 L 0 45 2671 6584 L 0 45 3021 6584 L 0 90 3370 6539 L 0 45 3720 6584 L 0 45 4069 6584 L 0 45 4419 6584 L
0 45 4769 6584 L 0 90 5118 6539 L 0 45 5468 6584 L 0 45 5817 6584 L 0 45 6167 6584 L 0 45 6516 6584 L 0 90 6866 6539 L
0 45 7215 6584 L 0 45 7565 6584 L 0 45 7914 6584 L 0 45 8264 6584 L 0 90 8614 6539 L 0 45 8963 6584 L 108 0 1329 990 L
12 6 1497 1038 L 18 18 C 0 -126 C -18 -6 1635 1062 L -12 -18 C -6 -30 C 0 -18 C 6 -30 C 12 -18 C 18 -6 C 12 0 C 18 6 C 12 18 C
6 30 C 0 18 C -6 30 C -12 18 C -18 6 C -12 0 C -18 -6 1755 1062 L -12 -18 C -6 -30 C 0 -18 C 6 -30 C 12 -18 C 18 -6 C 12 0 C 18 6 C
12 18 C 6 30 C 0 18 C -6 30 C -12 18 C -18 6 C -12 0 C -18 -6 1875 1062 L -12 -18 C -6 -30 C 0 -18 C 6 -30 C 12 -18 C 18 -6 C 12 0 C
18 6 C 12 18 C 6 30 C 0 18 C -6 30 C -12 18 C -18 6 C -12 0 C 108 0 3136 990 L -60 0 3358 1062 L -6 -54 C 6 6 C 18 6 C 18 0 C
18 -6 C 12 -12 C 6 -18 C 0 -12 C -6 -18 C -12 -12 C -18 -6 C -18 0 C -18 6 C -6 6 C -6 12 C -18 -6 3442 1062 L -12 -18 C -6 -30 C
0 -18 C 6 -30 C 12 -18 C 18 -6 C 12 0 C 18 6 C 12 18 C 6 30 C 0 18 C -6 30 C -12 18 C -18 6 C -12 0 C -18 -6 3562 1062 L -12 -18 C
-6 -30 C 0 -18 C 6 -30 C 12 -18 C 18 -6 C 12 0 C 18 6 C 12 18 C 6 30 C 0 18 C -6 30 C -12 18 C -18 6 C -12 0 C -18 -6 5112 1062 L
-12 -18 C -6 -30 C 0 -18 C 6 -30 C 12 -18 C 18 -6 C 12 0 C 18 6 C 12 18 C 6 30 C 0 18 C -6 30 C -12 18 C -18 6 C -12 0 C
-60 0 6776 1062 L -6 -54 C 6 6 C 18 6 C 18 0 C 18 -6 C 12 -12 C 6 -18 C 0 -12 C -6 -18 C -12 -12 C -18 -6 C -18 0 C -18 6 C -6 6 C
-6 12 C -18 -6 6860 1062 L -12 -18 C -6 -30 C 0 -18 C 6 -30 C 12 -18 C 18 -6 C 12 0 C 18 6 C 12 18 C 6 30 C 0 18 C -6 30 C -12 18 C
-18 6 C -12 0 C -18 -6 6980 1062 L -12 -18 C -6 -30 C 0 -18 C 6 -30 C 12 -18 C 18 -6 C 12 0 C 18 6 C 12 18 C 6 30 C 0 18 C -6 30 C
-12 18 C -18 6 C -12 0 C 12 6 8410 1038 L 18 18 C 0 -126 C -18 -6 8548 1062 L -12 -18 C -6 -30 C 0 -18 C 6 -30 C 12 -18 C 18 -6 C
12 0 C 18 6 C 12 18 C 6 30 C 0 18 C -6 30 C -12 18 C -18 6 C -12 0 C -18 -6 8668 1062 L -12 -18 C -6 -30 C 0 -18 C 6 -30 C 12 -18 C
18 -6 C 12 0 C 18 6 C 12 18 C 6 30 C 0 18 C -6 30 C -12 18 C -18 6 C -12 0 C -18 -6 8788 1062 L -12 -18 C -6 -30 C 0 -18 C 6 -30 C
12 -18 C 18 -6 C 12 0 C 18 6 C 12 18 C 6 30 C 0 18 C -6 30 C -12 18 C -18 6 C -12 0 C 45 0 975 1988 L 90 0 975 2949 L
45 0 975 3911 L 90 0 975 4872 L 45 0 975 5834 L 6 -18 712 2943 L 18 -12 C 30 -6 C 18 0 C 30 6 C 18 12 C 6 18 C 0 12 C -6 18 C
-18 12 C -30 6 C -18 0 C -30 -6 C -18 -12 C -6 -18 C 0 -12 C -6 0 742 4568 L -12 6 C -6 6 C -6 12 C 0 24 C 6 12 C 6 6 C 12 6 C
12 0 C 12 -6 C 18 -12 C 60 -60 C 0 84 C 84 84 742 4688 L 84 -84 742 4772 L -6 12 736 4832 L -18 18 C 126 0 C 6 -18 712 4970 L
18 -12 C 30 -6 C 18 0 C 30 6 C 18 12 C 6 18 C 0 12 C -6 18 C -18 12 C -30 6 C -18 0 C -30 -6 C -18 -12 C -6 -18 C 0 -12 C
0 81 702 5054 L 0 -45 648 5220 L 40 -4 C -4 4 C -5 14 C 0 13 C 5 14 C 9 9 C 13 4 C 9 0 C 14 -4 C 9 -9 C 4 -14 C 0 -13 C -4 -14 C
-5 -4 C -9 -5 C
0 5459 9261 1170 L -48 0 9261 1187 L -97 0 9261 1481 L 0 108 9461 1098 L 0 -60 9389 1320 L 54 -6 C -6 6 C -6 18 C 0 18 C 6 18 C
12 12 C 18 6 C 12 0 C 18 -6 C 12 -12 C 6 -18 C 0 -18 C -6 -18 C -6 -6 C -12 -6 C 84 84 9419 1374 L 84 -84 9419 1458 L
-6 12 9413 1518 L -18 18 C 126 0 C 6 -18 9389 1656 L 18 -12 C 30 -6 C 18 0 C 30 6 C 18 12 C 6 18 C 0 12 C -6 18 C -18 12 C -30 6 C
-18 0 C -30 -6 C -18 -12 C -6 -18 C 0 -12 C 0 81 9378 1740 L 0 50 9324 1861 L 36 -27 C 0 13 C 5 9 C 4 5 C 14 4 C 9 0 C 13 -4 C
9 -9 C 5 -14 C 0 -13 C -5 -14 C -4 -4 C -9 -5 C -48 0 9261 1774 L -48 0 9261 2068 L -48 0 9261 2362 L -48 0 9261 2656 L
-97 0 9261 2949 L 6 -18 9389 2943 L 18 -12 C 30 -6 C 18 0 C 30 6 C 18 12 C 6 18 C 0 12 C -6 18 C -18 12 C -30 6 C -18 0 C -30 -6 C
-18 -12 C -6 -18 C 0 -12 C -48 0 9261 3243 L -48 0 9261 3537 L -48 0 9261 3830 L -48 0 9261 4124 L -97 0 9261 4418 L
0 -60 9389 4179 L 54 -6 C -6 6 C -6 18 C 0 18 C 6 18 C 12 12 C 18 6 C 12 0 C 18 -6 C 12 -12 C 6 -18 C 0 -18 C -6 -18 C -6 -6 C
-12 -6 C 84 84 9419 4233 L 84 -84 9419 4317 L -6 12 9413 4377 L -18 18 C 126 0 C 6 -18 9389 4515 L 18 -12 C 30 -6 C 18 0 C 30 6 C
18 12 C 6 18 C 0 12 C -6 18 C -18 12 C -30 6 C -18 0 C -30 -6 C -18 -12 C -6 -18 C 0 -12 C 0 81 9378 4599 L 0 50 9324 4720 L
36 -27 C 0 13 C 5 9 C 4 5 C 14 4 C 9 0 C 13 -4 C 9 -9 C 5 -14 C 0 -13 C -5 -14 C -4 -4 C -9 -5 C -48 0 9261 4711 L -48 0 9261 5005 L
-48 0 9261 5299 L -48 0 9261 5593 L -97 0 9261 5886 L 6 -18 9389 5730 L 18 -12 C 30 -6 C 18 0 C 30 6 C 18 12 C 6 18 C 0 12 C -6 18 C
-18 12 C -30 6 C -18 0 C -30 -6 C -18 -12 C -6 -18 C 0 -12 C 6 -6 9503 5826 L 6 6 C -6 6 C -6 -6 C 6 -18 9389 5910 L 18 -12 C
30 -6 C 18 0 C 30 6 C 18 12 C 6 18 C 0 12 C -6 18 C -18 12 C -30 6 C -18 0 C -30 -6 C -18 -12 C -6 -18 C 0 -12 C -6 12 9413 6012 L
-18 18 C 126 0 C -48 0 9261 6180 L -48 0 9261 6474 L
61 0 9688 2730 L 0 54 9688 2730 L 6 18 C 6 6 C 12 6 C 12 0 C 12 -6 C 6 -6 C 6 -18 C 0 -54 C 1 0 9748 2772 L -7 -3 9749 2919 L
-6 -6 C -6 -12 C 0 -18 C 6 -12 C 12 -12 C 1 -1 C -12 -6 9748 3024 L -6 -18 C 0 -18 C 6 -18 C 12 -6 C 1 0 C 6 6 9688 3060 L -6 6 C
-6 -6 C 6 -6 C 19 0 9730 3066 L 61 0 9688 3180 L -12 -12 9748 3180 L -6 -12 C 0 -18 C 6 -12 C 12 -12 C 1 -1 C 19 0 9730 3228 L
19 0 9730 3294 L 19 0 9730 3408 L -12 -12 9748 3408 L -6 -12 C 0 -18 C 6 -12 C 12 -12 C 1 -1 C 61 0 9688 3456 L 6 6 9688 3594 L
-6 6 C -6 -6 C 6 -6 C 19 0 9730 3600 L 19 0 9730 3648 L -13 14 9749 3652 L -6 12 C 0 18 C 6 12 C 13 4 C 19 0 9730 3858 L
-12 12 9748 3858 L -6 12 C 0 17 C 6 12 C 12 12 C 1 1 C 19 0 9730 3971 L 19 0 9730 4037 L 61 0 9688 4085 L -12 -6 9748 4193 L
-6 -18 C 0 -18 C 6 -18 C 12 -6 C 1 1 C -7 -4 9749 4299 L -6 -6 C -6 -12 C 0 -18 C 6 -12 C 12 -12 C 1 0 C 19 0 9730 4439 L
-12 12 9748 4439 L -6 12 C 0 18 C 6 12 C 12 12 C 1 1 C -7 -4 9749 4617 L -6 -6 C -6 -12 C 0 -18 C 6 -12 C 12 -12 C 1 0 C
19 0 9730 4661 L -1 0 9749 4667 L -12 12 C -6 12 C 0 18 C 6 6 9688 4733 L -6 6 C -6 -6 C 6 -6 C 19 0 9730 4739 L 6 -12 9730 4811 L
12 -12 C 1 0 C -1 -1 9749 4854 L -12 -12 C -6 -12 C 0 -18 C 61 0 9688 4967 L -12 -12 9748 4967 L -6 -12 C 0 -18 C 6 -12 C 12 -12 C
1 0 C -12 -6 9748 5075 L -6 -18 C 0 -18 C 6 -18 C 12 -6 C 1 1 C
0 -96 3117 7145 L -6 -18 C -6 -6 C -12 -6 C -12 0 C -12 6 C -6 6 C -6 18 C 0 12 C 12 6 3177 7121 L 18 18 C 0 -126 C
-18 -6 3309 7145 L -6 -12 C 0 -12 C 6 -12 C 12 -6 C 24 -6 C 18 -6 C 12 -12 C 6 -12 C 0 -18 C -6 -12 C -6 -6 C -18 -6 C -24 0 C
-18 6 C -6 6 C -6 12 C 0 18 C 6 12 C 12 12 C 18 6 C 24 6 C 12 6 C 6 12 C 0 12 C -6 12 C -18 6 C -24 0 C 0 6 3405 7115 L 6 12 C 6 6 C
12 6 C 24 0 C 12 -6 C 6 -6 C 6 -12 C 0 -12 C -6 -12 C -12 -18 C -60 -60 C 84 0 C -60 -84 3579 7145 L 90 0 C 0 -126 3579 7145 L
108 0 3645 7073 L 0 6 3801 7115 L 6 12 C 6 6 C 12 6 C 24 0 C 12 -6 C 6 -6 C 6 -12 C 0 -12 C -6 -12 C -12 -18 C -60 -60 C 84 0 C
-60 -84 3975 7145 L 90 0 C 0 -126 3975 7145 L -60 0 4107 7145 L -6 -54 C 6 6 C 18 6 C 18 0 C 18 -6 C 12 -12 C 6 -18 C 0 -12 C
-6 -18 C -12 -12 C -18 -6 C -18 0 C -18 6 C -6 6 C -6 12 C 0 6 4161 7115 L 6 12 C 6 6 C 12 6 C 24 0 C 12 -6 C 6 -6 C 6 -12 C 0 -12 C
-6 -12 C -12 -18 C -60 -60 C 84 0 C -48 -126 4311 7145 L 48 -126 4311 7145 L 60 0 4281 7061 L -12 -12 4527 7169 L -12 -18 C
-12 -24 C -6 -30 C 0 -24 C 6 -30 C 12 -24 C 12 -18 C 12 -12 C 30 -126 4557 7145 L -30 -126 4617 7145 L 30 -126 4617 7145 L
-30 -126 4677 7145 L 0 -84 4713 7103 L 6 18 4713 7067 L 12 12 C 12 6 C 18 0 C 0 -84 4791 7103 L 18 18 4791 7079 L 12 6 C 18 0 C
12 -6 C 6 -18 C 0 -60 C 18 18 4857 7079 L 12 6 C 18 0 C 12 -6 C 6 -18 C 0 -60 C -6 12 5031 7085 L -18 6 C -18 0 C -18 -6 C -6 -12 C
6 -12 C 12 -6 C 30 -6 C 12 -6 C 6 -12 C 0 -6 C -6 -12 C -18 -6 C -18 0 C -18 6 C -6 12 C 108 0 5169 7091 L 108 0 5169 7055 L
0 6 5421 7115 L 6 12 C 6 6 C 12 6 C 24 0 C 12 -6 C 6 -6 C 6 -12 C 0 -12 C -6 -12 C -12 -18 C -60 -60 C 84 0 C -6 -6 5547 7031 L
6 -6 C 6 6 C -6 6 C -18 -6 5631 7145 L -12 -18 C -6 -30 C 0 -18 C 6 -30 C 12 -18 C 18 -6 C 12 0 C 18 6 C 12 18 C 6 30 C 0 18 C
-6 30 C -12 18 C -18 6 C -12 0 C -60 -84 5775 7145 L 90 0 C 0 -126 5775 7145 L -60 -126 5919 7145 L 84 0 5835 7145 L
-36 -126 6075 7103 L -6 -30 6069 7079 L 0 -18 C 12 -12 C 12 0 C 12 6 C 12 12 C 12 24 C -12 -42 6135 7103 L -6 -24 C 0 -12 C 6 -6 C
12 0 C 12 12 C 6 12 C -6 12 6243 7085 L -18 6 C -18 0 C -18 -6 C -6 -12 C 6 -12 C 12 -6 C 30 -6 C 12 -6 C 6 -12 C 0 -6 C -6 -12 C
-18 -6 C -18 0 C -18 6 C -6 12 C 12 -12 6279 7169 L 12 -18 C 12 -24 C 6 -30 C 0 -24 C -6 -30 C -12 -24 C -12 -18 C -12 -12 C
0 -126 6465 7103 L 12 12 6465 7085 L 12 6 C 18 0 C 12 -6 C 12 -12 C 6 -18 C 0 -12 C -6 -18 C -12 -12 C -12 -6 C -18 0 C -12 6 C
-12 12 C -12 -6 6603 7103 L -12 -12 C -6 -18 C 0 -12 C 6 -18 C 12 -12 C 12 -6 C 18 0 C 12 6 C 12 12 C 6 18 C 0 12 C -6 18 C -12 12 C
-12 6 C -18 0 C -6 12 6753 7085 L -18 6 C -18 0 C -18 -6 C -6 -12 C 6 -12 C 12 -6 C 30 -6 C 12 -6 C 6 -12 C 0 -6 C -6 -12 C -18 -6 C
-18 0 C -18 6 C -6 12 C 0 -102 6801 7145 L 6 -18 C 12 -6 C 12 0 C 42 0 6783 7103 L 108 0 6867 7073 L -12 0 7059 7145 L -12 -6 C
-6 -18 C 0 -102 C 42 0 7011 7103 L 6 -6 7089 7145 L 6 6 C -6 6 C -6 -6 C 0 -84 7095 7103 L 0 -102 7149 7145 L 6 -18 C 12 -6 C 12 0 C
42 0 7131 7103 L 0 -126 4491 672 L 48 -126 4491 672 L -48 -126 4587 672 L 0 -126 4587 672 L 0 -96 4683 672 L -6 -18 C -6 -6 C
-12 -6 C -12 0 C -12 6 C -6 6 C -6 18 C 0 12 C 0 -126 4731 672 L 42 0 4731 672 L 18 -6 C 12 -12 C 6 -12 C 6 -18 C 0 -30 C -6 -18 C
-6 -12 C -12 -12 C -18 -6 C -42 0 C 108 0 4857 600 L -60 0 5079 672 L -6 -54 C 6 6 C 18 6 C 18 0 C 18 -6 C 12 -12 C 6 -18 C 0 -12 C
-6 -18 C -12 -12 C -18 -6 C -18 0 C -18 6 C -6 6 C -6 12 C -60 -84 5187 672 L 90 0 C 0 -126 5187 672 L -60 0 5319 672 L -6 -54 C
6 6 C 18 6 C 18 0 C 18 -6 C 12 -12 C 6 -18 C 0 -12 C -6 -18 C -12 -12 C -18 -6 C -18 0 C -18 6 C -6 6 C -6 12 C -6 -18 5445 630 L
-12 -12 C -18 -6 C -6 0 C -18 6 C -12 12 C -6 18 C 0 6 C 6 18 C 12 12 C 18 6 C 6 0 C 18 -6 C 12 -12 C 6 -24 C 0 -30 C -6 -30 C
-12 -18 C -18 -6 C -12 0 C -18 6 C -6 12 C -60 -84 5547 672 L 90 0 C 0 -126 5547 672 L -6 -6 5619 558 L 6 -6 C 6 6 C -6 6 C
-60 -84 5727 672 L 90 0 C 0 -126 5727 672 L 126 0 420 2895 L 0 54 420 2895 L 6 18 C 6 6 C 12 6 C 18 0 C 12 -6 C 6 -6 C 6 -18 C
0 -54 C 6 -12 462 3045 L 12 -12 C 18 -6 C 12 0 C 18 6 C 12 12 C 6 12 C 0 18 C -6 12 C -12 12 C -18 6 C -12 0 C -18 -6 C -12 -12 C
-6 -12 C 0 -18 C -12 -6 480 3195 L -6 -18 C 0 -18 C 6 -18 C 12 -6 C 12 6 C 6 12 C 6 30 C 6 12 C 12 6 C 6 0 C 12 -6 C 6 -18 C 0 -18 C
-6 -18 C -12 -6 C 102 0 420 3243 L 18 6 C 6 12 C 0 12 C 0 42 462 3225 L 0 -12 420 3345 L 6 -12 C 18 -6 C 102 0 C 0 42 462 3297 L
6 6 420 3375 L -6 6 C -6 -6 C 6 -6 C 84 0 462 3381 L 102 0 420 3435 L 18 6 C 6 12 C 0 12 C 0 42 462 3417 L 126 0 420 3597 L
0 54 420 3597 L 6 18 C 6 6 C 12 6 C 12 0 C 12 -6 C 6 -6 C 6 -18 C 0 -54 C 66 42 480 3639 L 0 72 498 3717 L -12 0 C -12 -6 C -6 -6 C
-6 -12 C 0 -18 C 6 -12 C 12 -12 C 18 -6 C 12 0 C 18 6 C 12 12 C 6 12 C 0 18 C -6 12 C -12 12 C -12 -6 480 3891 L -6 -18 C 0 -18 C
6 -18 C 12 -6 C 12 6 C 6 12 C 6 30 C 6 12 C 12 6 C 6 0 C 12 -6 C 6 -18 C 0 -18 C -6 -18 C -12 -6 C 6 6 420 3926 L -6 6 C -6 -6 C
6 -6 C 84 0 462 3932 L 126 0 420 4046 L -12 -12 480 4046 L -6 -12 C 0 -18 C 6 -12 C 12 -12 C 18 -6 C 12 0 C 18 6 C 12 12 C 6 12 C
0 18 C -6 12 C -12 12 C 60 0 462 4094 L 18 6 C 6 12 C 0 18 C -6 12 C -18 18 C 84 0 462 4160 L 84 0 462 4274 L -12 -12 480 4274 L
-6 -12 C 0 -18 C 6 -12 C 12 -12 C 18 -6 C 12 0 C 18 6 C 12 12 C 6 12 C 0 18 C -6 12 C -12 12 C 126 0 420 4322 L 12 -12 396 4508 L
18 -12 C 24 -12 C 30 -6 C 24 0 C 30 6 C 24 12 C 18 12 C 12 12 C -12 -6 480 4610 L -6 -18 C 0 -18 C 6 -18 C 12 -6 C 12 6 C 6 12 C
6 30 C 6 12 C 12 6 C 6 0 C 12 -6 C 6 -18 C 0 -18 C -6 -18 C -12 -6 C 0 72 498 4646 L -12 0 C -12 -6 C -6 -6 C -6 -12 C 0 -18 C
6 -12 C 12 -12 C 18 -6 C 12 0 C 18 6 C 12 12 C 6 12 C 0 18 C -6 12 C -12 12 C -12 -12 480 4826 L -6 -12 C 0 -18 C 6 -12 C 12 -12 C
18 -6 C 12 0 C 18 6 C 12 12 C 6 12 C 0 18 C -6 12 C -12 12 C 12 12 396 4862 L 18 12 C 24 12 C 30 6 C 24 0 C 30 -6 C 24 -12 C
18 -12 C 12 -12 C
1024 0 0 K
/M16 {MB -4 -4 moveto 0 8 rlineto 8 0 rlineto 0 -8                              
rlineto closepath fill ME} bind def                                             
/MFAC      5.999 def    
6733 2473 M16 6797 1625 M16 7685 2429 M16 7745 2545 M16 8027 6174 M16
45 0 6710 2037 L 0 871 6733 2037 L 45 0 6710 2908 L 45 0 6774 1234 L 0 782 6797 1234 L 45 0 6774 2016 L 45 0 7662 2054 L
0 751 7685 2054 L 45 0 7662 2805 L 45 0 7722 2215 L 0 659 7745 2215 L 45 0 7722 2874 L 45 0 8005 5745 L 0 858 8027 5745 L
45 0 8005 6603 L
0 1024 0 K 2003 2890 M16 2641 2841 M16 3272 3044 M16 3624 2918 M16 4008 2925 M16 4067 2953 M16 4126 3087 M16 4395 2952 M16
4663 3146 M16 4740 2953 M16 4816 2794 M16 5779 2893 M16 5848 2879 M16 5946 3210 M16 6214 3086 M16 6294 3126 M16 6440 3146 M16
6504 3090 M16 6584 3139 M16 6668 2825 M16 6733 2846 M16 6800 2721 M16 6942 2776 M16 7005 2739 M16 7250 2727 M16 7681 2756 M16
8024 3369 M16
45 0 1981 2843 L 0 93 2003 2843 L 45 0 1981 2936 L 45 0 2619 2787 L 0 108 2641 2787 L 45 0 2619 2895 L 45 0 3249 2987 L
0 115 3272 2987 L 45 0 3249 3102 L 45 0 3602 2856 L 0 125 3624 2856 L 45 0 3602 2981 L 45 0 3985 2859 L 0 133 4008 2859 L
45 0 3985 2992 L 45 0 4045 2849 L 0 207 4067 2849 L 45 0 4045 3056 L 45 0 4104 2975 L 0 223 4126 2975 L 45 0 4104 3198 L
45 0 4372 2851 L 0 202 4395 2851 L 45 0 4372 3053 L 45 0 4641 2970 L 0 351 4663 2970 L 45 0 4641 3321 L 45 0 4717 2819 L
0 267 4740 2819 L 45 0 4717 3086 L 45 0 4794 2729 L 0 130 4816 2729 L 45 0 4794 2859 L 45 0 5756 2845 L 0 97 5779 2845 L
45 0 5756 2942 L 45 0 5826 2818 L 0 122 5848 2818 L 45 0 5826 2940 L 45 0 5924 3143 L 0 134 5946 3143 L 45 0 5924 3277 L
45 0 6191 3021 L 0 130 6214 3021 L 45 0 6191 3151 L 45 0 6272 2985 L 0 282 6294 2985 L 45 0 6272 3267 L 45 0 6418 3076 L
0 140 6440 3076 L 45 0 6418 3216 L 45 0 6481 3023 L 0 133 6504 3023 L 45 0 6481 3156 L 45 0 6561 3076 L 0 126 6584 3076 L
45 0 6561 3202 L 45 0 6645 2763 L 0 124 6668 2763 L 45 0 6645 2887 L 45 0 6711 2790 L 0 112 6733 2790 L 45 0 6711 2902 L
45 0 6777 2672 L 0 98 6800 2672 L 45 0 6777 2770 L 45 0 6920 2717 L 0 117 6942 2717 L 45 0 6920 2834 L 45 0 6983 2661 L
0 156 7005 2661 L 45 0 6983 2817 L 45 0 7227 2670 L 0 114 7250 2670 L 45 0 7227 2784 L 45 0 7659 2707 L 0 99 7681 2707 L
45 0 7659 2806 L 45 0 8001 3298 L 0 141 8024 3298 L 45 0 8001 3439 L
1024 0 1024 K 0 1024 1024 K 1665 3235 M16 1669 3377 M16 2129 2754 M16 2411 2884 M16 2460 2946 M16 2509 2745 M16 2624 2989 M16
2760 2977 M16 3018 3090 M16 3028 3328 M16 3132 2772 M16 3195 2921 M16 3346 2800 M16 3464 3253 M16 3527 3566 M16 3565 2796 M16
3628 2861 M16 3820 2666 M16 3938 2589 M16 4179 2827 M16 4287 2557 M16 4394 2875 M16 4394 2831 M16 4478 2828 M16 4573 2857 M16
4625 2974 M16 4669 2576 M16 4747 2872 M16 4749 2717 M16 4883 2775 M16 4949 3076 M16 5036 3099 M16 5103 2929 M16 5249 2939 M16
5294 2964 M16 5841 3173 M16 6030 3230 M16 6096 2991 M16 6131 3292 M16 6288 2985 M16 6291 2748 M16 6500 2998 M16 6675 2851 M16
6733 2828 M16 6797 3060 M16 6877 2832 M16 7051 3577 M16 7567 2632 M16 7685 2704 M16 7745 2562 M16 7815 2742 M16 8027 2886 M16
8181 3004 M16 8386 3165 M16 8571 2999 M16
45 0 1643 3086 L 0 298 1665 3086 L 45 0 1643 3384 L 45 0 1646 3087 L 0 580 1669 3087 L 45 0 1646 3667 L 45 0 2106 2577 L
0 354 2129 2577 L 45 0 2106 2931 L 45 0 2388 2532 L 0 703 2411 2532 L 45 0 2388 3235 L 45 0 2437 2822 L 0 249 2460 2822 L
45 0 2437 3071 L 45 0 2486 2581 L 0 328 2509 2581 L 45 0 2486 2909 L 45 0 2602 2839 L 0 300 2624 2839 L 45 0 2602 3139 L
45 0 2737 2804 L 0 347 2760 2804 L 45 0 2737 3151 L 45 0 2995 2935 L 0 311 3018 2935 L 45 0 2995 3246 L 45 0 3006 3081 L
0 494 3028 3081 L 45 0 3006 3575 L 45 0 3110 2574 L 0 396 3132 2574 L 45 0 3110 2970 L 45 0 3172 2795 L 0 252 3195 2795 L
45 0 3172 3047 L 45 0 3323 2677 L 0 245 3346 2677 L 45 0 3323 2922 L 45 0 3442 3039 L 0 428 3464 3039 L 45 0 3442 3467 L
45 0 3504 3192 L 0 747 3527 3192 L 45 0 3504 3939 L 45 0 3542 2616 L 0 361 3565 2616 L 45 0 3542 2977 L 45 0 3605 2762 L
0 197 3628 2762 L 45 0 3605 2959 L 45 0 3797 2514 L 0 305 3820 2514 L 45 0 3797 2819 L 45 0 3916 2392 L 0 395 3938 2392 L
45 0 3916 2787 L 45 0 4156 2565 L 0 525 4179 2565 L 45 0 4156 3090 L 45 0 4264 2432 L 0 250 4287 2432 L 45 0 4264 2682 L
45 0 4372 2648 L 0 453 4394 2648 L 45 0 4372 3101 L 45 0 4372 2683 L 0 295 4394 2683 L 45 0 4372 2978 L 45 0 4456 2697 L
0 262 4478 2697 L 45 0 4456 2959 L 45 0 4550 2591 L 0 532 4573 2591 L 45 0 4550 3123 L 45 0 4602 2753 L 0 442 4625 2753 L
45 0 4602 3195 L 45 0 4647 2398 L 0 355 4669 2398 L 45 0 4647 2753 L 45 0 4724 2713 L 0 318 4747 2713 L 45 0 4724 3031 L
45 0 4727 2606 L 0 221 4749 2606 L 45 0 4727 2827 L 45 0 4860 2604 L 0 341 4883 2604 L 45 0 4860 2945 L 45 0 4926 2868 L
0 416 4949 2868 L 45 0 4926 3284 L 45 0 5013 2861 L 0 477 5036 2861 L 45 0 5013 3338 L 45 0 5080 2807 L 0 244 5103 2807 L
45 0 5080 3051 L 45 0 5226 2867 L 0 144 5249 2867 L 45 0 5226 3011 L 45 0 5272 2853 L 0 222 5294 2853 L 45 0 5272 3075 L
45 0 5819 3026 L 0 293 5841 3026 L 45 0 5819 3319 L 45 0 6007 3096 L 0 267 6030 3096 L 45 0 6007 3363 L 45 0 6073 2890 L
0 202 6096 2890 L 45 0 6073 3092 L 45 0 6108 3156 L 0 272 6131 3156 L 45 0 6108 3428 L 45 0 6265 2812 L 0 347 6288 2812 L
45 0 6265 3159 L 45 0 6268 2625 L 0 246 6291 2625 L 45 0 6268 2871 L 45 0 6478 2838 L 0 320 6500 2838 L 45 0 6478 3158 L
45 0 6652 2671 L 0 359 6675 2671 L 45 0 6652 3030 L 45 0 6710 2704 L 0 248 6733 2704 L 45 0 6710 2952 L 45 0 6774 2945 L
0 230 6797 2945 L 45 0 6774 3175 L 45 0 6854 2672 L 0 320 6877 2672 L 45 0 6854 2992 L 45 0 7029 3441 L 0 272 7051 3441 L
45 0 7029 3713 L 45 0 7544 2507 L 0 250 7567 2507 L 45 0 7544 2757 L 45 0 7662 2402 L 0 604 7685 2402 L 45 0 7662 3006 L
45 0 7722 2460 L 0 205 7745 2460 L 45 0 7722 2665 L 45 0 7792 2554 L 0 376 7815 2554 L 45 0 7792 2930 L 45 0 8005 2732 L
0 307 8027 2732 L 45 0 8005 3039 L 45 0 8158 2905 L 0 198 8181 2905 L 45 0 8158 3103 L 45 0 8364 3037 L 0 257 8386 3037 L
45 0 8364 3294 L 45 0 8548 2873 L 0 253 8571 2873 L 45 0 8548 3126 L
0 0 0 K
PGPLOT restore showpage
%%PageTrailer
%%PageBoundingBox: 24 17 588 721
 
%%Trailer
%%BoundingBox: 24 17 588 721
%%DocumentFonts: 
%%Pages: 1
%%EOF
