poln    freq        ndmp   nbin     value
  0 328.750000      0      0       3.5460
  0 328.750000      0      1       3.6435
  0 328.750000      0      2       3.5306
  0 328.750000      0      3       3.3229
  0 328.750000      0      4       3.0172
  0 328.750000      0      5       2.7779
  0 328.750000      0      6       2.3047
  0 328.750000      0      7       2.5007
  0 328.750000      0      8       2.0582
  0 328.750000      0      9       2.0683
  0 328.750000      0     10       1.8672
  0 328.750000      0     11       1.7839
  0 328.750000      0     12       1.6170
  0 328.750000      0     13       1.6165
  0 328.750000      0     14       1.4383
  0 328.750000      0     15       1.1146
  0 328.750000      0     16       1.5632
  0 328.750000      0     17       0.9724
  0 328.750000      0     18       0.9992
  0 328.750000      0     19       0.8486
  0 328.750000      0     20       0.7964
  0 328.750000      0     21       1.1457
  0 328.750000      0     22       0.6994
  0 328.750000      0     23       0.8646
  0 328.750000      0     24       0.5020
  0 328.750000      0     25       0.5842
  0 328.750000      0     26       0.7867
  0 328.750000      0     27       0.1956
  0 328.750000      0     28       0.2737
  0 328.750000      0     29       0.2562
  0 328.750000      0     30       0.3999
  0 328.750000      0     31       0.1896
  0 328.750000      0     32       0.1284
  0 328.750000      0     33      -0.0366
  0 328.750000      0     34       0.1171
  0 328.750000      0     35       0.1600
  0 328.750000      0     36       0.0655
  0 328.750000      0     37       0.0982
  0 328.750000      0     38       0.1743
  0 328.750000      0     39       0.0593
  0 328.750000      0     40       0.1786
  0 328.750000      0     41      -0.2809
  0 328.750000      0     42      -0.1025
  0 328.750000      0     43      -0.1062
  0 328.750000      0     44      -0.0438
  0 328.750000      0     45      -0.1839
  0 328.750000      0     46      -0.2203
  0 328.750000      0     47      -0.0422
  0 328.750000      0     48      -0.0353
  0 328.750000      0     49      -0.0167
  0 328.750000      0     50       0.1419
  0 328.750000      0     51      -0.0878
  0 328.750000      0     52       0.2738
  0 328.750000      0     53      -0.1391
  0 328.750000      0     54       0.1306
  0 328.750000      0     55       0.0961
  0 328.750000      0     56       0.3813
  0 328.750000      0     57       0.7987
  0 328.750000      0     58       0.8126
  0 328.750000      0     59       1.3200
  0 328.750000      0     60       1.9430
  0 328.750000      0     61       2.5287
  0 328.750000      0     62       3.0830
  0 328.750000      0     63       3.2023
