%!PS-Adobe-3.0 EPSF-3.0
%%For: bperera
%%Title: PGPLOT PostScript plot
%%Creator: PGPLOT [PSDRIV 6.6]
%%CreationDate:  3-Jun-2016 14:57
%%BoundingBox: (atend)
%%DocumentFonts: (atend)
%%LanguageLevel: 1
%%Orientation: Landscape
%%Pages: (atend)
%%EndComments
%%BeginProlog
/L {moveto rlineto currentpoint stroke moveto} bind def
/C {rlineto currentpoint stroke moveto} bind def
/D {moveto 0 0 rlineto currentpoint stroke moveto} bind def
/LW {5 mul setlinewidth} bind def
/BP {newpath moveto} bind def
/LP /rlineto load def
/EP {rlineto closepath eofill} bind def
/MB {gsave translate MFAC dup scale 1 setlinewidth 2 setlinecap 0 setlinejoin newpath} bind def
/ME /grestore load def
/CC {0 360 arc stroke} bind def
/FC {0 360 arc fill} bind def
/G {1024 div setgray} bind def
/K {3 -1 roll 1024 div 3 -1 roll 1024 div 3 -1 roll 1024 div setrgbcolor} bind def
% Uncomment next line to convert color to grey shades
%/K {3 -1 roll 3413 div 3 -1 roll 1739 div 3 -1 roll 9309 div add add setgray} bind def
%%EndProlog
%%BeginSetup
/#copies 1 def
%%EndSetup
 
%%Page: 1 1
%%BeginPageSetup
/PGPLOT save def
0.072 0.072 scale
8149 250 translate 90 rotate
1 setlinejoin 1 setlinecap 1 LW 1
%%EndPageSetup
%%PageBoundingBox: (atend)
1024 1024 1024 K 1 LW 0 0 BP 9749 0 LP 0 7799 LP -9749 0 EP 0 0 0 K
8286 0 975 1170 L -8286 0 9261 6629 L 0 -5459 C 0 45 1200 1170 L 0 45 1480 1170 L 0 45 1760 1170 L 0 45 2040 1170 L 0 90 2320 1170 L
0 45 2600 1170 L 0 45 2879 1170 L 0 45 3159 1170 L 0 45 3439 1170 L 0 90 3719 1170 L 0 45 3999 1170 L 0 45 4279 1170 L
0 45 4558 1170 L 0 45 4838 1170 L 0 90 5118 1170 L 0 45 5398 1170 L 0 45 5678 1170 L 0 45 5958 1170 L 0 45 6237 1170 L
0 90 6517 1170 L 0 45 6797 1170 L 0 45 7077 1170 L 0 45 7357 1170 L 0 45 7637 1170 L 0 90 7916 1170 L 0 45 8196 1170 L
0 45 8476 1170 L 0 45 8756 1170 L 0 45 9036 1170 L 0 45 1200 6584 L 0 45 1480 6584 L 0 45 1760 6584 L 0 45 2040 6584 L
0 90 2320 6539 L 0 45 2600 6584 L 0 45 2879 6584 L 0 45 3159 6584 L 0 45 3439 6584 L 0 90 3719 6539 L 0 45 3999 6584 L
0 45 4279 6584 L 0 45 4558 6584 L 0 45 4838 6584 L 0 90 5118 6539 L 0 45 5398 6584 L 0 45 5678 6584 L 0 45 5958 6584 L
0 45 6237 6584 L 0 90 6517 6539 L 0 45 6797 6584 L 0 45 7077 6584 L 0 45 7357 6584 L 0 45 7637 6584 L 0 90 7916 6539 L
0 45 8196 6584 L 0 45 8476 6584 L 0 45 8756 6584 L 0 45 9036 6584 L 108 0 2026 990 L 0 6 2182 1032 L 6 12 C 6 6 C 12 6 C 24 0 C
12 -6 C 6 -6 C 6 -12 C 0 -12 C -6 -12 C -12 -18 C -60 -60 C 84 0 C -18 -6 2332 1062 L -12 -18 C -6 -30 C 0 -18 C 6 -30 C 12 -18 C
18 -6 C 12 0 C 18 6 C 12 18 C 6 30 C 0 18 C -6 30 C -12 18 C -18 6 C -12 0 C -18 -6 2452 1062 L -12 -18 C -6 -30 C 0 -18 C 6 -30 C
12 -18 C 18 -6 C 12 0 C 18 6 C 12 18 C 6 30 C 0 18 C -6 30 C -12 18 C -18 6 C -12 0 C -18 -6 2572 1062 L -12 -18 C -6 -30 C 0 -18 C
6 -30 C 12 -18 C 18 -6 C 12 0 C 18 6 C 12 18 C 6 30 C 0 18 C -6 30 C -12 18 C -18 6 C -12 0 C 108 0 3425 990 L 12 6 3593 1038 L
18 18 C 0 -126 C -18 -6 3731 1062 L -12 -18 C -6 -30 C 0 -18 C 6 -30 C 12 -18 C 18 -6 C 12 0 C 18 6 C 12 18 C 6 30 C 0 18 C -6 30 C
-12 18 C -18 6 C -12 0 C -18 -6 3851 1062 L -12 -18 C -6 -30 C 0 -18 C 6 -30 C 12 -18 C 18 -6 C 12 0 C 18 6 C 12 18 C 6 30 C 0 18 C
-6 30 C -12 18 C -18 6 C -12 0 C -18 -6 3971 1062 L -12 -18 C -6 -30 C 0 -18 C 6 -30 C 12 -18 C 18 -6 C 12 0 C 18 6 C 12 18 C 6 30 C
0 18 C -6 30 C -12 18 C -18 6 C -12 0 C -18 -6 5112 1062 L -12 -18 C -6 -30 C 0 -18 C 6 -30 C 12 -18 C 18 -6 C 12 0 C 18 6 C 12 18 C
6 30 C 0 18 C -6 30 C -12 18 C -18 6 C -12 0 C 12 6 6313 1038 L 18 18 C 0 -126 C -18 -6 6451 1062 L -12 -18 C -6 -30 C 0 -18 C
6 -30 C 12 -18 C 18 -6 C 12 0 C 18 6 C 12 18 C 6 30 C 0 18 C -6 30 C -12 18 C -18 6 C -12 0 C -18 -6 6571 1062 L -12 -18 C -6 -30 C
0 -18 C 6 -30 C 12 -18 C 18 -6 C 12 0 C 18 6 C 12 18 C 6 30 C 0 18 C -6 30 C -12 18 C -18 6 C -12 0 C -18 -6 6691 1062 L -12 -18 C
-6 -30 C 0 -18 C 6 -30 C 12 -18 C 18 -6 C 12 0 C 18 6 C 12 18 C 6 30 C 0 18 C -6 30 C -12 18 C -18 6 C -12 0 C 0 6 7700 1032 L
6 12 C 6 6 C 12 6 C 24 0 C 12 -6 C 6 -6 C 6 -12 C 0 -12 C -6 -12 C -12 -18 C -60 -60 C 84 0 C -18 -6 7850 1062 L -12 -18 C -6 -30 C
0 -18 C 6 -30 C 12 -18 C 18 -6 C 12 0 C 18 6 C 12 18 C 6 30 C 0 18 C -6 30 C -12 18 C -18 6 C -12 0 C -18 -6 7970 1062 L -12 -18 C
-6 -30 C 0 -18 C 6 -30 C 12 -18 C 18 -6 C 12 0 C 18 6 C 12 18 C 6 30 C 0 18 C -6 30 C -12 18 C -18 6 C -12 0 C -18 -6 8090 1062 L
-12 -18 C -6 -30 C 0 -18 C 6 -30 C 12 -18 C 18 -6 C 12 0 C 18 6 C 12 18 C 6 30 C 0 18 C -6 30 C -12 18 C -18 6 C -12 0 C
45 0 975 1299 L 45 0 975 1550 L 90 0 975 1800 L 45 0 975 2051 L 45 0 975 2302 L 45 0 975 2553 L 45 0 975 2804 L 90 0 975 3054 L
45 0 975 3305 L 45 0 975 3556 L 45 0 975 3807 L 45 0 975 4058 L 90 0 975 4308 L 45 0 975 4559 L 45 0 975 4810 L 45 0 975 5061 L
45 0 975 5312 L 90 0 975 5562 L 45 0 975 5813 L 45 0 975 6064 L 45 0 975 6315 L 45 0 975 6566 L 0 108 784 1544 L -6 12 736 1712 L
-18 18 C 126 0 C 6 -18 712 1850 L 18 -12 C 30 -6 C 18 0 C 30 6 C 18 12 C 6 18 C 0 12 C -6 18 C -18 12 C -30 6 C -18 0 C -30 -6 C
-18 -12 C -6 -18 C 0 -12 C 0 81 702 1934 L 63 -45 648 2091 L 0 68 C 94 0 648 2091 L 0 108 784 2672 L 0 -60 712 2894 L 54 -6 C -6 6 C
-6 18 C 0 18 C 6 18 C 12 12 C 18 6 C 12 0 C 18 -6 C 12 -12 C 6 -18 C 0 -18 C -6 -18 C -6 -6 C -12 -6 C 84 84 742 2948 L
84 -84 742 3032 L -6 12 736 3092 L -18 18 C 126 0 C 6 -18 712 3230 L 18 -12 C 30 -6 C 18 0 C 30 6 C 18 12 C 6 18 C 0 12 C -6 18 C
-18 12 C -30 6 C -18 0 C -30 -6 C -18 -12 C -6 -18 C 0 -12 C 0 81 702 3314 L 0 -45 648 3480 L 40 -4 C -4 4 C -5 14 C 0 13 C 5 14 C
9 9 C 13 4 C 9 0 C 14 -4 C 9 -9 C 4 -14 C 0 -13 C -4 -14 C -5 -4 C -9 -5 C 6 -18 712 4302 L 18 -12 C 30 -6 C 18 0 C 30 6 C 18 12 C
6 18 C 0 12 C -6 18 C -18 12 C -30 6 C -18 0 C -30 -6 C -18 -12 C -6 -18 C 0 -12 C 0 -60 712 5324 L 54 -6 C -6 6 C -6 18 C 0 18 C
6 18 C 12 12 C 18 6 C 12 0 C 18 -6 C 12 -12 C 6 -18 C 0 -18 C -6 -18 C -6 -6 C -12 -6 C 84 84 742 5378 L 84 -84 742 5462 L
-6 12 736 5522 L -18 18 C 126 0 C 6 -18 712 5660 L 18 -12 C 30 -6 C 18 0 C 30 6 C 18 12 C 6 18 C 0 12 C -6 18 C -18 12 C -30 6 C
-18 0 C -30 -6 C -18 -12 C -6 -18 C 0 -12 C 0 81 702 5744 L 0 -45 648 5910 L 40 -4 C -4 4 C -5 14 C 0 13 C 5 14 C 9 9 C 13 4 C 9 0 C
14 -4 C 9 -9 C 4 -14 C 0 -13 C -4 -14 C -5 -4 C -9 -5 C
0 5459 9261 1170 L -48 0 9261 1484 L -97 0 9261 1954 L 0 108 9461 1690 L 6 -18 9389 1876 L 18 -12 C 30 -6 C 18 0 C 30 6 C 18 12 C
6 18 C 0 12 C -6 18 C -18 12 C -30 6 C -18 0 C -30 -6 C -18 -12 C -6 -18 C 0 -12 C 6 -6 9503 1972 L 6 6 C -6 6 C -6 -6 C
6 -18 9389 2056 L 18 -12 C 30 -6 C 18 0 C 30 6 C 18 12 C 6 18 C 0 12 C -6 18 C -18 12 C -30 6 C -18 0 C -30 -6 C -18 -12 C -6 -18 C
0 -12 C 0 -60 9389 2212 L 54 -6 C -6 6 C -6 18 C 0 18 C 6 18 C 12 12 C 18 6 C 12 0 C 18 -6 C 12 -12 C 6 -18 C 0 -18 C -6 -18 C
-6 -6 C -12 -6 C -48 0 9261 2425 L -48 0 9261 2896 L -48 0 9261 3367 L -48 0 9261 3838 L -97 0 9261 4308 L 6 -18 9389 4302 L
18 -12 C 30 -6 C 18 0 C 30 6 C 18 12 C 6 18 C 0 12 C -6 18 C -18 12 C -30 6 C -18 0 C -30 -6 C -18 -12 C -6 -18 C 0 -12 C
-48 0 9261 4779 L -48 0 9261 5250 L -48 0 9261 5721 L -48 0 9261 6192 L
61 0 9688 2730 L 0 54 9688 2730 L 6 18 C 6 6 C 12 6 C 12 0 C 12 -6 C 6 -6 C 6 -18 C 0 -54 C 1 0 9748 2772 L -7 -3 9749 2919 L
-6 -6 C -6 -12 C 0 -18 C 6 -12 C 12 -12 C 1 -1 C -12 -6 9748 3024 L -6 -18 C 0 -18 C 6 -18 C 12 -6 C 1 0 C 6 6 9688 3060 L -6 6 C
-6 -6 C 6 -6 C 19 0 9730 3066 L 61 0 9688 3180 L -12 -12 9748 3180 L -6 -12 C 0 -18 C 6 -12 C 12 -12 C 1 -1 C 19 0 9730 3228 L
19 0 9730 3294 L 19 0 9730 3408 L -12 -12 9748 3408 L -6 -12 C 0 -18 C 6 -12 C 12 -12 C 1 -1 C 61 0 9688 3456 L 6 6 9688 3594 L
-6 6 C -6 -6 C 6 -6 C 19 0 9730 3600 L 19 0 9730 3648 L -13 14 9749 3652 L -6 12 C 0 18 C 6 12 C 13 4 C 19 0 9730 3858 L
-12 12 9748 3858 L -6 12 C 0 17 C 6 12 C 12 12 C 1 1 C 19 0 9730 3971 L 19 0 9730 4037 L 61 0 9688 4085 L -12 -6 9748 4193 L
-6 -18 C 0 -18 C 6 -18 C 12 -6 C 1 1 C -7 -4 9749 4299 L -6 -6 C -6 -12 C 0 -18 C 6 -12 C 12 -12 C 1 0 C 19 0 9730 4439 L
-12 12 9748 4439 L -6 12 C 0 18 C 6 12 C 12 12 C 1 1 C -7 -4 9749 4617 L -6 -6 C -6 -12 C 0 -18 C 6 -12 C 12 -12 C 1 0 C
19 0 9730 4661 L -1 0 9749 4667 L -12 12 C -6 12 C 0 18 C 6 6 9688 4733 L -6 6 C -6 -6 C 6 -6 C 19 0 9730 4739 L 6 -12 9730 4811 L
12 -12 C 1 0 C -1 -1 9749 4854 L -12 -12 C -6 -12 C 0 -18 C 61 0 9688 4967 L -12 -12 9748 4967 L -6 -12 C 0 -18 C 6 -12 C 12 -12 C
1 0 C -12 -6 9748 5075 L -6 -18 C 0 -18 C 6 -18 C 12 -6 C 1 1 C
0 -96 3171 7145 L -6 -18 C -6 -6 C -12 -6 C -12 0 C -12 6 C -6 6 C -6 18 C 0 12 C -18 -6 3249 7145 L -12 -18 C -6 -30 C 0 -18 C
6 -30 C 12 -18 C 18 -6 C 12 0 C 18 6 C 12 18 C 6 30 C 0 18 C -6 30 C -12 18 C -18 6 C -12 0 C -18 -6 3369 7145 L -12 -18 C -6 -30 C
0 -18 C 6 -30 C 12 -18 C 18 -6 C 12 0 C 18 6 C 12 18 C 6 30 C 0 18 C -6 30 C -12 18 C -18 6 C -12 0 C 66 0 3465 7145 L -36 -48 C
18 0 C 12 -6 C 6 -6 C 6 -18 C 0 -12 C -6 -18 C -12 -12 C -18 -6 C -18 0 C -18 6 C -6 6 C -6 12 C -60 -84 3633 7145 L 90 0 C
0 -126 3633 7145 L 108 0 3699 7073 L -18 -6 3885 7145 L -12 -18 C -6 -30 C 0 -18 C 6 -30 C 12 -18 C 18 -6 C 12 0 C 18 6 C 12 18 C
6 30 C 0 18 C -6 30 C -12 18 C -18 6 C -12 0 C -60 0 4041 7145 L -6 -54 C 6 6 C 18 6 C 18 0 C 18 -6 C 12 -12 C 6 -18 C 0 -12 C
-6 -18 C -12 -12 C -18 -6 C -18 0 C -18 6 C -6 6 C -6 12 C 66 0 4101 7145 L -36 -48 C 18 0 C 12 -6 C 6 -6 C 6 -18 C 0 -12 C -6 -18 C
-12 -12 C -18 -6 C -18 0 C -18 6 C -6 6 C -6 12 C -60 -84 4269 7145 L 90 0 C 0 -126 4269 7145 L -12 -12 4473 7169 L -12 -18 C
-12 -24 C -6 -30 C 0 -24 C 6 -30 C 12 -24 C 12 -18 C 12 -12 C 30 -126 4503 7145 L -30 -126 4563 7145 L 30 -126 4563 7145 L
-30 -126 4623 7145 L 0 -84 4659 7103 L 6 18 4659 7067 L 12 12 C 12 6 C 18 0 C 0 -84 4737 7103 L 18 18 4737 7079 L 12 6 C 18 0 C
12 -6 C 6 -18 C 0 -60 C 18 18 4803 7079 L 12 6 C 18 0 C 12 -6 C 6 -18 C 0 -60 C -6 12 4977 7085 L -18 6 C -18 0 C -18 -6 C -6 -12 C
6 -12 C 12 -6 C 30 -6 C 12 -6 C 6 -12 C 0 -6 C -6 -12 C -18 -6 C -18 0 C -18 6 C -6 12 C 108 0 5115 7091 L 108 0 5115 7055 L
-60 -84 5421 7145 L 90 0 C 0 -126 5421 7145 L -6 -6 5493 7031 L 6 -6 C 6 6 C -6 6 C 0 6 5547 7115 L 6 12 C 6 6 C 12 6 C 24 0 C
12 -6 C 6 -6 C 6 -12 C 0 -12 C -6 -12 C -12 -18 C -60 -60 C 84 0 C -60 -126 5745 7145 L 84 0 5661 7145 L -6 -18 5859 7103 L
-12 -12 C -18 -6 C -6 0 C -18 6 C -12 12 C -6 18 C 0 6 C 6 18 C 12 12 C 18 6 C 6 0 C 18 -6 C 12 -12 C 6 -24 C 0 -30 C -6 -30 C
-12 -18 C -18 -6 C -12 0 C -18 6 C -6 12 C -36 -126 6021 7103 L -6 -30 6015 7079 L 0 -18 C 12 -12 C 12 0 C 12 6 C 12 12 C 12 24 C
-12 -42 6081 7103 L -6 -24 C 0 -12 C 6 -6 C 12 0 C 12 12 C 6 12 C -6 12 6189 7085 L -18 6 C -18 0 C -18 -6 C -6 -12 C 6 -12 C
12 -6 C 30 -6 C 12 -6 C 6 -12 C 0 -6 C -6 -12 C -18 -6 C -18 0 C -18 6 C -6 12 C 12 -12 6225 7169 L 12 -18 C 12 -24 C 6 -30 C
0 -24 C -6 -30 C -12 -24 C -12 -18 C -12 -12 C 0 -126 6411 7103 L 12 12 6411 7085 L 12 6 C 18 0 C 12 -6 C 12 -12 C 6 -18 C 0 -12 C
-6 -18 C -12 -12 C -12 -6 C -18 0 C -12 6 C -12 12 C -12 -6 6549 7103 L -12 -12 C -6 -18 C 0 -12 C 6 -18 C 12 -12 C 12 -6 C 18 0 C
12 6 C 12 12 C 6 18 C 0 12 C -6 18 C -12 12 C -12 6 C -18 0 C -6 12 6699 7085 L -18 6 C -18 0 C -18 -6 C -6 -12 C 6 -12 C 12 -6 C
30 -6 C 12 -6 C 6 -12 C 0 -6 C -6 -12 C -18 -6 C -18 0 C -18 6 C -6 12 C 0 -102 6747 7145 L 6 -18 C 12 -6 C 12 0 C 42 0 6729 7103 L
108 0 6813 7073 L -12 0 7005 7145 L -12 -6 C -6 -18 C 0 -102 C 42 0 6957 7103 L 6 -6 7035 7145 L 6 6 C -6 6 C -6 -6 C
0 -84 7041 7103 L 0 -102 7095 7145 L 6 -18 C 12 -6 C 12 0 C 42 0 7077 7103 L 0 -126 4491 672 L 48 -126 4491 672 L
-48 -126 4587 672 L 0 -126 4587 672 L 0 -96 4683 672 L -6 -18 C -6 -6 C -12 -6 C -12 0 C -12 6 C -6 6 C -6 18 C 0 12 C
0 -126 4731 672 L 42 0 4731 672 L 18 -6 C 12 -12 C 6 -12 C 6 -18 C 0 -30 C -6 -18 C -6 -12 C -12 -12 C -18 -6 C -42 0 C
108 0 4857 600 L -60 0 5079 672 L -6 -54 C 6 6 C 18 6 C 18 0 C 18 -6 C 12 -12 C 6 -18 C 0 -12 C -6 -18 C -12 -12 C -18 -6 C -18 0 C
-18 6 C -6 6 C -6 12 C -60 -84 5187 672 L 90 0 C 0 -126 5187 672 L 0 6 5253 642 L 6 12 C 6 6 C 12 6 C 24 0 C 12 -6 C 6 -6 C 6 -12 C
0 -12 C -6 -12 C -12 -18 C -60 -60 C 84 0 C 66 0 5379 672 L -36 -48 C 18 0 C 12 -6 C 6 -6 C 6 -18 C 0 -12 C -6 -18 C -12 -12 C
-18 -6 C -18 0 C -18 6 C -6 6 C -6 12 C -60 -126 5571 672 L 84 0 5487 672 L -6 -6 5619 558 L 6 -6 C 6 6 C -6 6 C -6 -18 5745 630 L
-12 -12 C -18 -6 C -6 0 C -18 6 C -12 12 C -6 18 C 0 6 C 6 18 C 12 12 C 18 6 C 6 0 C 18 -6 C 12 -12 C 6 -24 C 0 -30 C -6 -30 C
-12 -18 C -18 -6 C -12 0 C -18 6 C -6 12 C 126 0 420 2895 L 0 54 420 2895 L 6 18 C 6 6 C 12 6 C 18 0 C 12 -6 C 6 -6 C 6 -18 C
0 -54 C 6 -12 462 3045 L 12 -12 C 18 -6 C 12 0 C 18 6 C 12 12 C 6 12 C 0 18 C -6 12 C -12 12 C -18 6 C -12 0 C -18 -6 C -12 -12 C
-6 -12 C 0 -18 C -12 -6 480 3195 L -6 -18 C 0 -18 C 6 -18 C 12 -6 C 12 6 C 6 12 C 6 30 C 6 12 C 12 6 C 6 0 C 12 -6 C 6 -18 C 0 -18 C
-6 -18 C -12 -6 C 102 0 420 3243 L 18 6 C 6 12 C 0 12 C 0 42 462 3225 L 0 -12 420 3345 L 6 -12 C 18 -6 C 102 0 C 0 42 462 3297 L
6 6 420 3375 L -6 6 C -6 -6 C 6 -6 C 84 0 462 3381 L 102 0 420 3435 L 18 6 C 6 12 C 0 12 C 0 42 462 3417 L 126 0 420 3597 L
0 54 420 3597 L 6 18 C 6 6 C 12 6 C 12 0 C 12 -6 C 6 -6 C 6 -18 C 0 -54 C 66 42 480 3639 L 0 72 498 3717 L -12 0 C -12 -6 C -6 -6 C
-6 -12 C 0 -18 C 6 -12 C 12 -12 C 18 -6 C 12 0 C 18 6 C 12 12 C 6 12 C 0 18 C -6 12 C -12 12 C -12 -6 480 3891 L -6 -18 C 0 -18 C
6 -18 C 12 -6 C 12 6 C 6 12 C 6 30 C 6 12 C 12 6 C 6 0 C 12 -6 C 6 -18 C 0 -18 C -6 -18 C -12 -6 C 6 6 420 3926 L -6 6 C -6 -6 C
6 -6 C 84 0 462 3932 L 126 0 420 4046 L -12 -12 480 4046 L -6 -12 C 0 -18 C 6 -12 C 12 -12 C 18 -6 C 12 0 C 18 6 C 12 12 C 6 12 C
0 18 C -6 12 C -12 12 C 60 0 462 4094 L 18 6 C 6 12 C 0 18 C -6 12 C -18 18 C 84 0 462 4160 L 84 0 462 4274 L -12 -12 480 4274 L
-6 -12 C 0 -18 C 6 -12 C 12 -12 C 18 -6 C 12 0 C 18 6 C 12 12 C 6 12 C 0 18 C -6 12 C -12 12 C 126 0 420 4322 L 12 -12 396 4508 L
18 -12 C 24 -12 C 30 -6 C 24 0 C 30 6 C 24 12 C 18 12 C 12 12 C -12 -6 480 4610 L -6 -18 C 0 -18 C 6 -18 C 12 -6 C 12 6 C 6 12 C
6 30 C 6 12 C 12 6 C 6 0 C 12 -6 C 6 -18 C 0 -18 C -6 -18 C -12 -6 C 0 72 498 4646 L -12 0 C -12 -6 C -6 -6 C -6 -12 C 0 -18 C
6 -12 C 12 -12 C 18 -6 C 12 0 C 18 6 C 12 12 C 6 12 C 0 18 C -6 12 C -12 12 C -12 -12 480 4826 L -6 -12 C 0 -18 C 6 -12 C 12 -12 C
18 -6 C 12 0 C 18 6 C 12 12 C 6 12 C 0 18 C -6 12 C -12 12 C 12 12 396 4862 L 18 12 C 24 12 C 30 6 C 24 0 C 30 -6 C 24 -12 C
18 -12 C 12 -12 C
/M16 {MB -4 -4 moveto 0 8 rlineto 8 0 rlineto 0 -8                              
rlineto closepath fill ME} bind def                                             
/MFAC      5.999 def    
1665 4119 M16 1665 4324 M16 1704 4171 M16 1704 4351 M16 1704 4144 M16 1704 4274 M16 1753 4545 M16 1787 4207 M16 2328 4413 M16
2458 4436 M16 2458 4375 M16 2505 4959 M16 2505 3549 M16 2551 4784 M16 2603 4666 M16 2634 4420 M16 2634 4382 M16 2691 4489 M16
2691 4361 M16 2692 4338 M16 2692 4319 M16 2732 4482 M16 2732 5097 M16 2771 4464 M16 2771 4283 M16 2772 4242 M16 2772 4242 M16
2800 4405 M16 2857 4373 M16 2857 4441 M16 2896 4432 M16 2896 4181 M16 2927 4302 M16 2927 4268 M16 2928 4274 M16 2928 4189 M16
2941 4342 M16 2941 4281 M16 2965 4082 M16 2965 4320 M16 2966 4427 M16 2966 4288 M16 3005 4235 M16 3005 4060 M16 3069 4292 M16
3069 4224 M16 3072 4258 M16 3072 4230 M16 3107 4284 M16 3107 3840 M16 3112 4218 M16 3112 4562 M16 3114 4242 M16 3114 4370 M16
3174 4378 M16 3174 4308 M16 3200 4331 M16 3266 4520 M16 3267 4319 M16 3271 4215 M16 3271 4381 M16 3298 4162 M16 3298 4558 M16
3329 4203 M16 3425 4433 M16 3474 4267 M16 3504 4387 M16 3573 4258 M16 3583 4307 M16 3758 4231 M16 3758 4403 M16 3760 4213 M16
3760 4279 M16 3789 4429 M16 3789 4497 M16 3791 4504 M16 3791 4287 M16 3856 4561 M16 3856 4232 M16 3917 4145 M16 3917 4344 M16
4053 4515 M16 4053 4519 M16 4054 4568 M16 4054 4270 M16 4111 4308 M16 4111 4360 M16 4150 4288 M16 4150 3948 M16 4199 4324 M16
4199 4297 M16 4238 4386 M16 4238 4213 M16 4247 4237 M16 4279 4274 M16 4279 4410 M16 4328 4322 M16 4328 4402 M16 4395 4221 M16
4395 4399 M16 4435 4323 M16 4435 4164 M16 4473 4250 M16 4473 4430 M16 4474 4337 M16 4474 4138 M16 4515 4323 M16 4515 4427 M16
4562 4287 M16 4562 4676 M16 4619 4470 M16 4619 4177 M16 4621 4689 M16 4621 4123 M16 4669 4326 M16 4669 4203 M16 4709 4336 M16
4709 4337 M16 4749 4353 M16 4749 4191 M16 4787 4284 M16 4787 4193 M16 4855 4375 M16 4855 5157 M16 4886 4430 M16 4886 4412 M16
4894 4218 M16 4894 4462 M16 4933 4372 M16 4933 4479 M16 4935 4348 M16 4935 4152 M16 4974 5937 M16 4974 3966 M16 5002 4349 M16
5002 3814 M16 5033 5254 M16 5033 4821 M16 5060 4158 M16 5060 4088 M16 5063 4257 M16 5063 4102 M16 5090 4527 M16 5090 3361 M16
5130 4079 M16 5170 4390 M16 5219 5110 M16 5219 3327 M16 5257 3989 M16 5257 4652 M16 5309 4522 M16 5309 4169 M16 5345 4316 M16
5345 3439 M16 5376 4794 M16 5376 4673 M16 5422 3002 M16 5422 4332 M16 5426 4242 M16 5426 4805 M16 5472 5022 M16 5472 3919 M16
5514 3104 M16 5514 4519 M16 5561 4124 M16 5561 3968 M16 5600 4269 M16 5600 4961 M16 5678 4232 M16 5678 3967 M16 5719 4165 M16
5719 3954 M16 5758 4250 M16 5758 4299 M16 5798 4225 M16 5798 4199 M16 5832 4355 M16 5832 4458 M16 5871 4205 M16 5871 4423 M16
5932 4445 M16 5932 4207 M16 5968 4537 M16 5968 3903 M16 6012 4363 M16 6012 4192 M16 6062 4043 M16 6062 4262 M16 6109 4244 M16
6109 4518 M16 6154 4431 M16 6154 4217 M16 6190 4352 M16 6190 4349 M16 6229 4412 M16 6229 4236 M16 6278 4424 M16 6278 4560 M16
6315 4427 M16 6315 4640 M16 6355 4372 M16 6355 4297 M16 6456 4148 M16 6456 4242 M16 6503 4201 M16 6503 3726 M16 6541 4579 M16
6541 5343 M16 6707 4891 M16 6707 4261 M16
45 0 1643 3926 L 0 386 1665 3926 L 45 0 1643 4312 L 45 0 1643 3873 L 0 902 1665 3873 L 45 0 1643 4775 L 45 0 1682 4104 L
0 135 1704 4104 L 45 0 1682 4239 L 45 0 1682 4296 L 0 109 1704 4296 L 45 0 1682 4405 L 45 0 1682 4061 L 0 165 1704 4061 L
45 0 1682 4226 L 45 0 1682 4161 L 0 226 1704 4161 L 45 0 1682 4387 L 45 0 1731 4184 L 0 722 1753 4184 L 45 0 1731 4906 L
45 0 1764 4039 L 0 336 1787 4039 L 45 0 1764 4375 L 45 0 2306 4284 L 0 257 2328 4284 L 45 0 2306 4541 L 45 0 2436 4347 L
0 178 2458 4347 L 45 0 2436 4525 L 45 0 2436 4281 L 0 188 2458 4281 L 45 0 2436 4469 L 45 0 2483 4739 L 0 441 2505 4739 L
45 0 2483 5180 L 45 0 2483 2724 L 0 1650 2505 2724 L 45 0 2483 4374 L 45 0 2529 4292 L 0 984 2551 4292 L 45 0 2529 5276 L
45 0 2581 4482 L 0 367 2603 4482 L 45 0 2581 4849 L 45 0 2611 4319 L 0 202 2634 4319 L 45 0 2611 4521 L 45 0 2611 4330 L
0 105 2634 4330 L 45 0 2611 4435 L 45 0 2669 4306 L 0 367 2691 4306 L 45 0 2669 4673 L 45 0 2669 4303 L 0 116 2691 4303 L
45 0 2669 4419 L 45 0 2670 4304 L 0 67 2692 4304 L 45 0 2670 4371 L 45 0 2670 4289 L 0 60 2692 4289 L 45 0 2670 4349 L
45 0 2709 4342 L 0 281 2732 4342 L 45 0 2709 4623 L 45 0 2709 4742 L 0 711 2732 4742 L 45 0 2709 5453 L 45 0 2748 4390 L
0 147 2771 4390 L 45 0 2748 4537 L 45 0 2748 4213 L 0 139 2771 4213 L 45 0 2748 4352 L 45 0 2749 4172 L 0 140 2772 4172 L
45 0 2749 4312 L 45 0 2749 4093 L 0 297 2772 4093 L 45 0 2749 4390 L 45 0 2777 4331 L 0 147 2800 4331 L 45 0 2777 4478 L
45 0 2834 4259 L 0 227 2857 4259 L 45 0 2834 4486 L 45 0 2834 4317 L 0 248 2857 4317 L 45 0 2834 4565 L 45 0 2874 4113 L
0 637 2896 4113 L 45 0 2874 4750 L 45 0 2874 4029 L 0 304 2896 4029 L 45 0 2874 4333 L 45 0 2904 4216 L 0 171 2927 4216 L
45 0 2904 4387 L 45 0 2904 4159 L 0 218 2927 4159 L 45 0 2904 4377 L 45 0 2906 4228 L 0 92 2928 4228 L 45 0 2906 4320 L
45 0 2906 4127 L 0 124 2928 4127 L 45 0 2906 4251 L 45 0 2918 4317 L 0 49 2941 4317 L 45 0 2918 4366 L 45 0 2918 4223 L
0 116 2941 4223 L 45 0 2918 4339 L 45 0 2942 3900 L 0 364 2965 3900 L 45 0 2942 4264 L 45 0 2942 4210 L 0 220 2965 4210 L
45 0 2942 4430 L 45 0 2943 4342 L 0 171 2966 4342 L 45 0 2943 4513 L 45 0 2943 4194 L 0 188 2966 4194 L 45 0 2943 4382 L
45 0 2982 4033 L 0 404 3005 4033 L 45 0 2982 4437 L 45 0 2982 3857 L 0 406 3005 3857 L 45 0 2982 4263 L 45 0 3046 4175 L
0 233 3069 4175 L 45 0 3046 4408 L 45 0 3046 4145 L 0 158 3069 4145 L 45 0 3046 4303 L 45 0 3049 4185 L 0 147 3072 4185 L
45 0 3049 4332 L 45 0 3049 4136 L 0 188 3072 4136 L 45 0 3049 4324 L 45 0 3084 4199 L 0 171 3107 4199 L 45 0 3084 4370 L
45 0 3084 3659 L 0 361 3107 3659 L 45 0 3084 4020 L 45 0 3090 4141 L 0 153 3112 4141 L 45 0 3090 4294 L 45 0 3090 4302 L
0 519 3112 4302 L 45 0 3090 4821 L 45 0 3091 4159 L 0 165 3114 4159 L 45 0 3091 4324 L 45 0 3091 4134 L 0 473 3114 4134 L
45 0 3091 4607 L 45 0 3151 4283 L 0 190 3174 4283 L 45 0 3151 4473 L 45 0 3151 4206 L 0 203 3174 4206 L 45 0 3151 4409 L
45 0 3178 4207 L 0 248 3200 4207 L 45 0 3178 4455 L 45 0 3243 4407 L 0 227 3266 4407 L 45 0 3243 4634 L 45 0 3245 4102 L
0 435 3267 4102 L 45 0 3245 4537 L 45 0 3249 4086 L 0 257 3271 4086 L 45 0 3249 4343 L 45 0 3249 3806 L 0 1150 3271 3806 L
45 0 3249 4956 L 45 0 3275 3899 L 0 527 3298 3899 L 45 0 3275 4426 L 45 0 3275 4255 L 0 605 3298 4255 L 45 0 3275 4860 L
45 0 3306 4081 L 0 245 3329 4081 L 45 0 3306 4326 L 45 0 3402 4286 L 0 294 3425 4286 L 45 0 3402 4580 L 45 0 3451 4215 L
0 104 3474 4215 L 45 0 3451 4319 L 45 0 3482 4268 L 0 239 3504 4268 L 45 0 3482 4507 L 45 0 3550 4160 L 0 196 3573 4160 L
45 0 3550 4356 L 45 0 3560 4236 L 0 141 3583 4236 L 45 0 3560 4377 L 45 0 3736 4182 L 0 98 3758 4182 L 45 0 3736 4280 L
45 0 3736 4349 L 0 109 3758 4349 L 45 0 3736 4458 L 45 0 3737 4109 L 0 208 3760 4109 L 45 0 3737 4317 L 45 0 3737 4243 L
0 72 3760 4243 L 45 0 3737 4315 L 45 0 3767 4297 L 0 263 3789 4297 L 45 0 3767 4560 L 45 0 3767 4294 L 0 406 3789 4294 L
45 0 3767 4700 L 45 0 3768 4268 L 0 472 3791 4268 L 45 0 3768 4740 L 45 0 3768 4139 L 0 297 3791 4139 L 45 0 3768 4436 L
45 0 3834 4328 L 0 465 3856 4328 L 45 0 3834 4793 L 45 0 3834 4128 L 0 207 3856 4128 L 45 0 3834 4335 L 45 0 3895 4038 L
0 214 3917 4038 L 45 0 3895 4252 L 45 0 3895 4218 L 0 252 3917 4218 L 45 0 3895 4470 L 45 0 4030 4448 L 0 135 4053 4448 L
45 0 4030 4583 L 45 0 4030 4303 L 0 432 4053 4303 L 45 0 4030 4735 L 45 0 4032 4421 L 0 293 4054 4421 L 45 0 4032 4714 L
45 0 4032 4180 L 0 180 4054 4180 L 45 0 4032 4360 L 45 0 4089 4277 L 0 61 4111 4277 L 45 0 4089 4338 L 45 0 4089 4332 L
0 56 4111 4332 L 45 0 4089 4388 L 45 0 4128 4264 L 0 49 4150 4264 L 45 0 4128 4313 L 45 0 4128 3790 L 0 315 4150 3790 L
45 0 4128 4105 L 45 0 4177 4274 L 0 100 4199 4274 L 45 0 4177 4374 L 45 0 4177 3981 L 0 631 4199 3981 L 45 0 4177 4612 L
45 0 4216 4292 L 0 189 4238 4292 L 45 0 4216 4481 L 45 0 4216 3972 L 0 483 4238 3972 L 45 0 4216 4455 L 45 0 4224 4148 L
0 179 4247 4148 L 45 0 4224 4327 L 45 0 4256 4230 L 0 89 4279 4230 L 45 0 4256 4319 L 45 0 4256 4326 L 0 168 4279 4326 L
45 0 4256 4494 L 45 0 4305 4301 L 0 42 4328 4301 L 45 0 4305 4343 L 45 0 4305 4356 L 0 91 4328 4356 L 45 0 4305 4447 L
45 0 4372 4135 L 0 173 4395 4135 L 45 0 4372 4308 L 45 0 4372 4199 L 0 400 4395 4199 L 45 0 4372 4599 L 45 0 4413 4247 L
0 152 4435 4247 L 45 0 4413 4399 L 45 0 4413 4055 L 0 218 4435 4055 L 45 0 4413 4273 L 45 0 4450 4195 L 0 110 4473 4195 L
45 0 4450 4305 L 45 0 4450 4286 L 0 288 4473 4286 L 45 0 4450 4574 L 45 0 4452 4247 L 0 179 4474 4247 L 45 0 4452 4426 L
45 0 4452 4029 L 0 218 4474 4029 L 45 0 4452 4247 L 45 0 4492 4276 L 0 95 4515 4276 L 45 0 4492 4371 L 45 0 4492 4325 L
0 204 4515 4325 L 45 0 4492 4529 L 45 0 4540 4111 L 0 352 4562 4111 L 45 0 4540 4463 L 45 0 4540 4221 L 0 911 4562 4221 L
45 0 4540 5132 L 45 0 4597 4257 L 0 426 4619 4257 L 45 0 4597 4683 L 45 0 4597 3813 L 0 729 4619 3813 L 45 0 4597 4542 L
45 0 4598 4502 L 0 374 4621 4502 L 45 0 4598 4876 L 45 0 4598 3898 L 0 449 4621 3898 L 45 0 4598 4347 L 45 0 4647 4237 L
0 179 4669 4237 L 45 0 4647 4416 L 45 0 4647 4020 L 0 365 4669 4020 L 45 0 4647 4385 L 45 0 4686 4273 L 0 126 4709 4273 L
45 0 4686 4399 L 45 0 4686 4264 L 0 147 4709 4264 L 45 0 4686 4411 L 45 0 4727 4295 L 0 116 4749 4295 L 45 0 4727 4411 L
45 0 4727 4040 L 0 302 4749 4040 L 45 0 4727 4342 L 45 0 4764 4174 L 0 221 4787 4174 L 45 0 4764 4395 L 45 0 4764 3811 L
0 764 4787 3811 L 45 0 4764 4575 L 45 0 4833 3996 L 0 758 4855 3996 L 45 0 4833 4754 L 45 0 4833 4266 L 0 1781 4855 4266 L
45 0 4833 6047 L 45 0 4863 4275 L 0 311 4886 4275 L 45 0 4863 4586 L 45 0 4863 4159 L 0 505 4886 4159 L 45 0 4863 4664 L
45 0 4872 4126 L 0 185 4894 4126 L 45 0 4872 4311 L 45 0 4872 4272 L 0 379 4894 4272 L 45 0 4872 4651 L 45 0 4911 4272 L
0 200 4933 4272 L 45 0 4911 4472 L 45 0 4911 4265 L 0 428 4933 4265 L 45 0 4911 4693 L 45 0 4912 4264 L 0 168 4935 4264 L
45 0 4912 4432 L 45 0 4912 3899 L 0 505 4935 3899 L 45 0 4912 4404 L 45 0 4951 5376 L 0 1121 4974 5376 L 45 0 4951 6497 L
45 0 4951 3588 L 0 757 4974 3588 L 45 0 4951 4345 L 45 0 4979 3760 L 0 1179 5002 3760 L 45 0 4979 4939 L 45 0 4979 3333 L
0 961 5002 3333 L 45 0 4979 4294 L 45 0 5010 4764 L 0 979 5033 4764 L 45 0 5010 5743 L 45 0 5010 4193 L 0 1255 5033 4193 L
45 0 5010 5448 L 45 0 5038 3745 L 0 826 5060 3745 L 45 0 5038 4571 L 45 0 5038 3699 L 0 779 5060 3699 L 45 0 5038 4478 L
45 0 5041 3959 L 0 595 5063 3959 L 45 0 5041 4554 L 45 0 5041 3822 L 0 561 5063 3822 L 45 0 5041 4383 L 45 0 5067 4146 L
0 763 5090 4146 L 45 0 5067 4909 L 45 0 5067 3017 L 0 688 5090 3017 L 45 0 5067 3705 L 45 0 5108 3724 L 0 711 5130 3724 L
45 0 5108 4435 L 45 0 5148 3727 L 0 1326 5170 3727 L 45 0 5148 5053 L 45 0 5197 4584 L 0 1053 5219 4584 L 45 0 5197 5637 L
45 0 5197 2598 L 0 1459 5219 2598 L 45 0 5197 4057 L 45 0 5235 3191 L 0 1595 5257 3191 L 45 0 5235 4786 L 45 0 5235 3870 L
0 1564 5257 3870 L 45 0 5235 5434 L 45 0 5286 3974 L 0 1095 5309 3974 L 45 0 5286 5069 L 45 0 5286 3436 L 0 1466 5309 3436 L
45 0 5286 4902 L 45 0 5323 3885 L 0 863 5345 3885 L 45 0 5323 4748 L 45 0 5323 2931 L 0 1016 5345 2931 L 45 0 5323 3947 L
45 0 5353 4341 L 0 906 5376 4341 L 45 0 5353 5247 L 45 0 5353 4004 L 0 1339 5376 4004 L 45 0 5353 5343 L 45 0 5399 2541 L
0 921 5422 2541 L 45 0 5399 3462 L 45 0 5399 3915 L 0 834 5422 3915 L 45 0 5399 4749 L 45 0 5403 3786 L 0 911 5426 3786 L
45 0 5403 4697 L 45 0 5403 4490 L 0 631 5426 4490 L 45 0 5403 5121 L 45 0 5449 4512 L 0 1021 5472 4512 L 45 0 5449 5533 L
45 0 5449 3130 L 0 1578 5472 3130 L 45 0 5449 4708 L 45 0 5491 2497 L 0 1215 5514 2497 L 45 0 5491 3712 L 45 0 5491 4007 L
0 1024 5514 4007 L 45 0 5491 5031 L 45 0 5539 3930 L 0 389 5561 3930 L 45 0 5539 4319 L 45 0 5539 3649 L 0 638 5561 3649 L
45 0 5539 4287 L 45 0 5578 4093 L 0 352 5600 4093 L 45 0 5578 4445 L 45 0 5578 4505 L 0 912 5600 4505 L 45 0 5578 5417 L
45 0 5656 4164 L 0 137 5678 4164 L 45 0 5656 4301 L 45 0 5656 3662 L 0 610 5678 3662 L 45 0 5656 4272 L 45 0 5696 3965 L
0 400 5719 3965 L 45 0 5696 4365 L 45 0 5696 3730 L 0 448 5719 3730 L 45 0 5696 4178 L 45 0 5735 4184 L 0 132 5758 4184 L
45 0 5735 4316 L 45 0 5735 4215 L 0 168 5758 4215 L 45 0 5735 4383 L 45 0 5776 4156 L 0 137 5798 4156 L 45 0 5776 4293 L
45 0 5776 4080 L 0 239 5798 4080 L 45 0 5776 4319 L 45 0 5809 4228 L 0 253 5832 4228 L 45 0 5809 4481 L 45 0 5809 4142 L
0 631 5832 4142 L 45 0 5809 4773 L 45 0 5848 4124 L 0 163 5871 4124 L 45 0 5848 4287 L 45 0 5848 4258 L 0 329 5871 4258 L
45 0 5848 4587 L 45 0 5910 4289 L 0 311 5932 4289 L 45 0 5910 4600 L 45 0 5910 4000 L 0 414 5932 4000 L 45 0 5910 4414 L
45 0 5946 4226 L 0 621 5968 4226 L 45 0 5946 4847 L 45 0 5946 3177 L 0 1452 5968 3177 L 45 0 5946 4629 L 45 0 5989 4281 L
0 163 6012 4281 L 45 0 5989 4444 L 45 0 5989 3996 L 0 392 6012 3996 L 45 0 5989 4388 L 45 0 6039 3882 L 0 321 6062 3882 L
45 0 6039 4203 L 45 0 6039 3954 L 0 617 6062 3954 L 45 0 6039 4571 L 45 0 6087 3963 L 0 563 6109 3963 L 45 0 6087 4526 L
45 0 6087 4206 L 0 624 6109 4206 L 45 0 6087 4830 L 45 0 6132 4331 L 0 200 6154 4331 L 45 0 6132 4531 L 45 0 6132 4091 L
0 252 6154 4091 L 45 0 6132 4343 L 45 0 6168 4159 L 0 385 6190 4159 L 45 0 6168 4544 L 45 0 6168 4065 L 0 568 6190 4065 L
45 0 6168 4633 L 45 0 6207 4264 L 0 295 6229 4264 L 45 0 6207 4559 L 45 0 6207 3910 L 0 652 6229 3910 L 45 0 6207 4562 L
45 0 6256 4350 L 0 148 6278 4350 L 45 0 6256 4498 L 45 0 6256 4245 L 0 631 6278 4245 L 45 0 6256 4876 L 45 0 6292 4137 L
0 579 6315 4137 L 45 0 6292 4716 L 45 0 6292 4110 L 0 1059 6315 4110 L 45 0 6292 5169 L 44 0 6333 4298 L 0 148 6355 4298 L
44 0 6333 4446 L 44 0 6333 4070 L 0 455 6355 4070 L 44 0 6333 4525 L 45 0 6433 3998 L 0 300 6456 3998 L 45 0 6433 4298 L
45 0 6433 4057 L 0 371 6456 4057 L 45 0 6433 4428 L 45 0 6480 4041 L 0 321 6503 4041 L 45 0 6480 4362 L 45 0 6480 3337 L
0 778 6503 3337 L 45 0 6480 4115 L 45 0 6518 4450 L 0 258 6541 4450 L 45 0 6518 4708 L 45 0 6518 4848 L 0 989 6541 4848 L
45 0 6518 5837 L 45 0 6684 4681 L 0 421 6707 4681 L 45 0 6684 5102 L 45 0 6684 4072 L 0 379 6707 4072 L 45 0 6684 4451 L
1024 0 0 K 0 1024 0 K 4343 3940 M16 4452 4559 M16 4480 4005 M16 4594 4062 M16 4612 4067 M16 4739 4817 M16 4816 3816 M16
4869 4055 M16 4883 4727 M16 5024 4369 M16 5195 4583 M16 5214 5048 M16 5219 4785 M16 5221 4690 M16 5384 3978 M16 5394 4413 M16
5431 4739 M16 5479 4734 M16 5523 4497 M16 5525 4558 M16 5546 3931 M16 5547 3459 M16 5579 3184 M16 5695 3825 M16 5728 4528 M16
5788 3238 M16 5809 3162 M16 5829 4363 M16 6028 4299 M16 6038 3937 M16 6061 3541 M16 6082 4347 M16 6084 4062 M16 6091 4977 M16
6135 4073 M16 6351 4664 M16 6355 4889 M16 6377 4503 M16 6433 3723 M16 6501 4784 M16 6592 4539 M16 6677 4770 M16 6679 4211 M16
6732 4134 M16 6733 3163 M16 6797 4399 M16 6813 3881 M16 6875 4158 M16 6928 4371 M16 6952 4584 M16 6976 4315 M16 7072 4461 M16
7145 5878 M16 7196 4034 M16 7216 4592 M16 7315 4077 M16 7498 5951 M16 7614 4214 M16 7636 4359 M16 7696 2569 M16 7763 4259 M16
7828 1625 M16 7891 5392 M16 8230 2927 M16 8515 6174 M16 8571 3516 M16
45 0 4320 3570 L 0 740 4343 3570 L 45 0 4320 4310 L 45 0 4429 3948 L 0 1222 4452 3948 L 45 0 4429 5170 L 45 0 4457 3634 L
0 742 4480 3634 L 45 0 4457 4376 L 45 0 4572 3867 L 0 390 4594 3867 L 45 0 4572 4257 L 45 0 4590 3460 L 0 1214 4612 3460 L
45 0 4590 4674 L 45 0 4717 3911 L 0 1811 4739 3911 L 45 0 4717 5722 L 45 0 4793 3139 L 0 1353 4816 3139 L 45 0 4793 4492 L
45 0 4846 3804 L 0 502 4869 3804 L 45 0 4846 4306 L 45 0 4860 4412 L 0 630 4883 4412 L 45 0 4860 5042 L 45 0 5001 4170 L
0 397 5024 4170 L 45 0 5001 4567 L 45 0 5173 4377 L 0 413 5195 4377 L 45 0 5173 4790 L 45 0 5191 4701 L 0 694 5214 4701 L
45 0 5191 5395 L 45 0 5197 4117 L 0 1337 5219 4117 L 45 0 5197 5454 L 45 0 5198 4058 L 0 1265 5221 4058 L 45 0 5198 5323 L
45 0 5361 3611 L 0 733 5384 3611 L 45 0 5361 4344 L 45 0 5371 4165 L 0 497 5394 4165 L 45 0 5371 4662 L 45 0 5409 4336 L
0 806 5431 4336 L 45 0 5409 5142 L 45 0 5456 4245 L 0 977 5479 4245 L 45 0 5456 5222 L 45 0 5501 3978 L 0 1038 5523 3978 L
45 0 5501 5016 L 45 0 5502 4189 L 0 738 5525 4189 L 45 0 5502 4927 L 45 0 5523 2844 L 0 2175 5546 2844 L 45 0 5523 5019 L
45 0 5525 2867 L 0 1184 5547 2867 L 45 0 5525 4051 L 45 0 5557 2592 L 0 1185 5579 2592 L 45 0 5557 3777 L 45 0 5673 3443 L
0 764 5695 3443 L 45 0 5673 4207 L 45 0 5706 4306 L 0 443 5728 4306 L 45 0 5706 4749 L 45 0 5766 2298 L 0 1881 5788 2298 L
45 0 5766 4179 L 45 0 5787 2551 L 0 1222 5809 2551 L 45 0 5787 3773 L 45 0 5806 4135 L 0 456 5829 4135 L 45 0 5806 4591 L
45 0 6006 4014 L 0 569 6028 4014 L 45 0 6006 4583 L 45 0 6016 3559 L 0 755 6038 3559 L 45 0 6016 4314 L 45 0 6038 2819 L
0 1444 6061 2819 L 45 0 6038 4263 L 45 0 6059 4151 L 0 392 6082 4151 L 45 0 6059 4543 L 45 0 6062 3799 L 0 525 6084 3799 L
45 0 6062 4324 L 45 0 6069 4216 L 0 1522 6091 4216 L 45 0 6069 5738 L 45 0 6112 3708 L 0 730 6135 3708 L 45 0 6112 4438 L
45 0 6328 4182 L 0 964 6351 4182 L 45 0 6328 5146 L 45 0 6333 4497 L 0 784 6355 4497 L 45 0 6333 5281 L 45 0 6355 4161 L
0 685 6377 4161 L 45 0 6355 4846 L 45 0 6411 3403 L 0 641 6433 3403 L 45 0 6411 4044 L 45 0 6479 4300 L 0 968 6501 4300 L
45 0 6479 5268 L 45 0 6570 3746 L 0 1587 6592 3746 L 45 0 6570 5333 L 45 0 6655 4539 L 0 462 6677 4539 L 45 0 6655 5001 L
45 0 6656 3883 L 0 656 6679 3883 L 45 0 6656 4539 L 45 0 6709 3817 L 0 634 6732 3817 L 45 0 6709 4451 L 45 0 6711 2621 L
0 1085 6733 2621 L 45 0 6711 3706 L 45 0 6775 4028 L 0 742 6797 4028 L 45 0 6775 4770 L 45 0 6790 3521 L 0 720 6813 3521 L
45 0 6790 4241 L 45 0 6853 3873 L 0 570 6875 3873 L 45 0 6853 4443 L 45 0 6906 4110 L 0 523 6928 4110 L 45 0 6906 4633 L
45 0 6930 4307 L 0 553 6952 4307 L 45 0 6930 4860 L 45 0 6953 3761 L 0 1108 6976 3761 L 45 0 6953 4869 L 45 0 7050 4187 L
0 549 7072 4187 L 45 0 7050 4736 L 45 0 7122 5229 L 0 1297 7145 5229 L 45 0 7122 6526 L 45 0 7174 3685 L 0 698 7196 3685 L
45 0 7174 4383 L 45 0 7193 3620 L 0 1943 7216 3620 L 45 0 7193 5563 L 45 0 7292 3707 L 0 740 7315 3707 L 45 0 7292 4447 L
45 0 7475 4706 L 0 1923 7498 4706 L 45 0 7591 3539 L 0 1349 7614 3539 L 45 0 7591 4888 L 45 0 7613 4195 L 0 329 7636 4195 L
45 0 7613 4524 L 45 0 7673 1314 L 0 2510 7696 1314 L 45 0 7673 3824 L 45 0 7740 3593 L 0 1332 7763 3593 L 45 0 7740 4925 L
0 2021 7828 1170 L 45 0 7806 3191 L 45 0 7869 3399 L 0 3230 7891 3399 L 0 3586 8230 1170 L 45 0 8208 4756 L 45 0 8492 4609 L
0 2020 8515 4609 L 45 0 8548 2474 L 0 2084 8571 2474 L 45 0 8548 4558 L
1024 0 1024 K 0 1024 1024 K 0 0 0 K
PGPLOT restore showpage
%%PageTrailer
%%PageBoundingBox: 24 17 588 721
 
%%Trailer
%%BoundingBox: 24 17 588 721
%%DocumentFonts: 
%%Pages: 1
%%EOF
