{
    "J1853+1303_430_ASP_efac": 1.0187460254005491,
    "J1853+1303_430_ASP_log10_ecorr": -7.7854396632512959,
    "J1853+1303_430_ASP_log10_equad": -7.8128773556843605,
    "J1853+1303_430_PUPPI_efac": 1.049403097161528,
    "J1853+1303_430_PUPPI_log10_ecorr": -5.9401042178917525,
    "J1853+1303_430_PUPPI_log10_equad": -7.9890912698992214,
    "J1853+1303_L-wide_ASP_efac": 1.0251780094899459,
    "J1853+1303_L-wide_ASP_log10_ecorr": -7.3707592724817736,
    "J1853+1303_L-wide_ASP_log10_equad": -7.820492442475258,
    "J1853+1303_L-wide_PUPPI_efac": 1.1439627298562913,
    "J1853+1303_L-wide_PUPPI_log10_ecorr": -6.7782521359138688,
    "J1853+1303_L-wide_PUPPI_log10_equad": -8.4603564537670959,
    "J1853+1303_dm_gamma": 3.1152460278798442,
    "J1853+1303_dm_kappa": 3.900906067803267,
    "J1853+1303_dm_lf0": -7.5347985591045941,
    "J1853+1303_dm_log10_A": -15.584569792022251,
    "J1853+1303_gamma": 2.9851427681771225,
    "J1853+1303_log10_A": -15.676060250898878
}